frame,label,x,y,area,raw_lum,lum,gyrad,n_sat,n_255,bx,by,bw,bh,tier,ws_neighbor,particle,match_frame
3808,245,463.9056689374721,262.3196099250349,5,428.27670396744657,418.27670396744657,0.8434887155021719,0,0,463,262,3,2,0,,332408,0
3809,743,464.2668326616673,262.2407288866863,8,886.7884028484232,870.7884028484232,0.9493750268866092,0,0,463,261,3,3,0,,332408,0
3810,730,464.6330102254466,262.11556126500966,7,986.3092573753815,972.3092573753815,0.9155080567156456,1,0,464,261,3,3,0,,332408,0
3811,245,464.4953948993201,262.417360093518,4,308.9369277721262,300.9369277721262,0.7022459960045097,0,0,464,262,2,2,0,,332408,0
3812,763,464.64969249183787,262.11476513577554,7,836.3092573753814,822.3092573753814,0.8870431203489424,0,0,464,261,3,3,0,,332408,0
3813,260,464.82633584965055,261.8950190484721,6,584.9242115971515,572.9242115971515,0.8681337933997085,0,0,464,261,3,3,0,,332408,0
3814,732,464.7085480279585,261.9806259832653,7,775.3092573753814,761.3092573753814,0.9195220735465056,0,0,464,261,3,3,0,,332408,0
3815,269,465.6673002525855,262.7615382478301,9,878.8056968463886,860.8056968463886,1.0798243358884947,0,0,464,262,4,3,0,,332408,0
3816,276,466.1868595421682,262.856971298304,6,520.5437436419124,508.5437436419125,0.8948553231884979,0,0,465,262,3,3,0,,332408,0
3817,255,466.4999702926237,263.30460973601663,4,419.4867751780265,411.4867751780265,0.6795753408254126,0,0,466,263,2,2,0,,332408,0
3818,715,466.5139547487802,263.0952682405356,6,681.3550356052899,669.3550356052899,0.8416634299485207,0,0,466,262,2,3,0,,332408,0
3819,253,466.5206116083325,263.0,2,194.707019328586,190.707019328586,0.4995749809607672,0,0,466,263,2,1,0,,332408,0
3820,268,466.4885374347069,263.0,2,129.70701932858597,125.70701932858596,0.4998685923289256,0,0,466,263,2,1,0,,332408,0
3821,761,466.28182153557896,263.2448974019497,8,838.2919633774161,822.2919633774161,0.9573423853819142,0,0,465,262,3,3,0,,332408,0
3822,750,466.53158533334977,263.61719072728204,12,1568.6968463886064,1544.6968463886064,1.1256451279540385,2,0,465,262,4,4,0,,332408,0
3823,728,466.5164397741688,264.07389605562105,6,610.2919633774161,598.2919633774161,0.8252062468069501,0,0,466,263,2,3,0,,332408,0
3824,707,466.6858355425863,264.09171789143755,7,731.5712105798576,717.5712105798576,0.9150410769368844,0,0,466,263,3,3,0,,332408,0
3825,257,467.79097431150194,264.3859089331173,5,351.65818921668364,341.65818921668364,0.8500309737898765,0,0,467,264,3,2,0,,332408,0
3826,753,467.4923346357147,264.87345353047675,12,1564.288911495422,1540.288911495422,1.270038171999876,0,0,466,264,4,3,0,,332408,0
3827,724,467.5579407416388,265.02238269397213,12,1208.2889114954223,1184.2889114954223,1.2492458355252265,0,0,466,264,4,3,0,,332408,0
3828,728,468.20142929736494,265.0848995585216,8,865.8367243133265,849.8367243133265,0.9915211317749432,0,0,467,264,3,3,0,,332408,0
3829,717,468.1432732872582,265.29143433327704,7,740.5300101729399,726.5300101729399,0.9281049654596631,0,0,467,264,3,3,0,,332408,0
3830,744,468.2079668603101,265.5407646852423,6,784.2507629704984,772.2507629704984,0.8800842863172335,0,0,467,265,3,2,0,,332408,0
3831,731,468.2122818158476,265.2277015691483,8,849.8367243133265,833.8367243133265,0.9655115562058548,0,0,467,264,3,3,0,,332408,0
3832,760,467.8981007567536,265.1602300157072,11,1219.8733468972534,1197.8733468972534,1.1823541744300046,0,0,466,264,4,3,0,,332408,0
3833,767,467.7356375822228,265.2441619634344,11,1328.8733468972532,1306.8733468972532,1.2080160190514757,0,0,466,264,4,3,0,,332408,0
3834,761,467.4374758848815,265.18181287293703,12,1463.288911495422,1439.288911495422,1.250712174941494,0,0,466,264,4,3,0,,332408,0
3835,730,467.8397495056032,265.28782630191165,12,1543.23499491353,1519.23499491353,1.2314555292535434,0,0,466,264,4,4,0,,332408,0
3837,714,467.4048645253646,265.9945656095331,12,1670.7207527975586,1646.7207527975586,1.7084343812687937,1,0,464,265,6,3,0,,332408,0
3838,721,468.36350071817327,266.3870819986625,14,1651.287385554425,1623.287385554425,1.3028180194049552,1,0,466,265,5,4,0,,332408,1
3839,749,468.3705149659151,266.37610837144484,14,1534.3784333672431,1506.3784333672431,1.2380414020715331,0,0,466,265,5,4,0,,332408,0
3840,743,468.10855063089787,265.803814043033,15,1739.5157680569685,1709.5157680569685,1.3628553871904696,1,0,466,264,5,4,0,,332408,0
3841,730,468.0555800319898,265.20580226188406,10,1296.509155645982,1276.509155645982,1.1459825574669322,1,0,466,264,4,3,0,,332408,0
3842,751,468.2341298078417,265.1688496513277,8,932.8367243133264,916.8367243133264,0.9695307234169565,0,0,467,264,3,3,0,,332408,0
3843,266,468.5518615266084,265.0,2,165.70752797558492,161.70752797558492,0.4973031088358988,0,0,468,265,2,1,0,,332408,0
3850,746,468.4961973273508,265.0778638314476,8,1042.9298067141403,1026.9298067141403,0.971564405855057,0,0,467,264,4,3,0,,337288,0
3851,760,467.2662889968333,265.18021436041283,14,1665.3672431332657,1637.3672431332657,1.60541963219758,0,0,464,264,6,3,0,,337288,0
3852,768,468.2087402348013,265.2122926978055,8,873.8367243133265,857.8367243133265,0.9693727698743198,0,0,467,264,3,3,0,,337288,0
3853,774,467.7805359352761,265.49541084454484,10,1073.5645981688708,1053.5645981688708,1.1503264026565354,0,0,466,264,4,4,0,,337288,0
3854,264,467.59029288407714,265.472535538646,8,893.9231943031537,877.9231943031537,1.1002008295716148,0,0,466,265,4,2,0,,337288,0
3855,276,466.56460868804703,265.4550510962655,4,302.42319430315365,294.42319430315365,0.7027128243328897,0,0,466,265,2,2,0,,337288,0
3856,262,466.4935011511337,265.0,2,223.80518819938965,219.80518819938965,0.4999577631794646,0,0,466,265,2,1,0,,337288,0
