frame,label,x,y,area,raw_lum,lum,gyrad,n_sat,n_255,bx,by,bw,bh,tier,ws_neighbor,particle,match_frame
1056,1386,502.4375954681024,230.598681301782,4,687.9684638860631,679.9684638860631,0.6974006560631084,1,0,502,230,2,2,0,,106864,0
1057,480,502.01364419305753,230.38371468219623,6,607.7283825025432,595.7283825025432,0.8992252881507736,0,0,501,230,3,2,0,,106864,0
1067,468,502.51142699554464,230.7047642726704,4,355.9684638860631,347.9684638860631,0.6767133931071515,0,0,502,230,2,2,0,,106864,0
1068,1398,502.57097582981226,231.36107658277,4,647.7675483214649,639.7675483214649,0.6896830545457847,1,0,502,231,2,2,0,,106864,0
1069,1405,502.7892639438551,230.9927893633766,7,721.2838250254324,707.2838250254324,0.9224591307841412,0,0,502,230,3,3,0,,106864,0
1070,1384,502.8299949595963,230.53671116342167,6,758.8728382502543,746.8728382502543,0.8769343304044966,0,0,502,230,3,2,0,,106864,0
1071,470,502.4892911775022,230.5557606174628,4,553.9684638860631,545.9684638860631,0.7048234350962479,0,0,502,230,2,2,0,,106864,0
1072,1435,502.59511881953887,230.47688061429272,4,804.9684638860631,796.9684638860631,0.7002984393628539,1,0,502,230,2,2,0,,106864,0
1073,1383,502.8170901960887,230.5362707378923,6,781.8728382502543,769.8728382502543,0.8768112324569282,0,0,502,230,3,2,0,,106864,0
1074,1351,502.5359253482436,230.8963895650172,5,565.4740590030519,555.4740590030519,0.7285782299054488,0,0,502,230,2,3,0,,106864,0
1075,1373,502.5778890577287,230.66173765742604,4,629.9684638860631,621.9684638860631,0.683940220236003,1,0,502,230,2,2,0,,106864,0
1076,1372,502.4505369702525,230.4687657126649,4,867.9684638860631,859.9684638860631,0.7046827853600967,1,0,502,230,2,2,0,,106864,1
1077,1383,502.4731600185784,230.0197095383878,6,814.7833163784334,802.7833163784334,0.8323454792642624,1,0,502,229,2,3,0,,106864,0
1078,1369,502.6906505342855,229.9065535548643,7,791.266022380468,777.266022380468,0.8814665444434514,1,0,502,229,3,3,0,,106864,0
1079,1351,502.8255937502512,229.88884914925936,6,632.8636826042726,620.8636826042726,0.8465672520971639,0,0,502,229,3,3,0,,106864,0
1080,1368,502.3818760112254,230.4840570427589,4,790.9684638860631,782.9684638860631,0.6969881960194079,1,0,502,230,2,2,0,,106864,0
1081,469,502.478901555021,230.6592942742649,4,375.9684638860631,367.9684638860631,0.6886074279340054,0,0,502,230,2,2,0,,106864,0
1089,1390,500.4281070075222,230.5657704126841,4,674.504069175992,666.504069175992,0.7003610857607359,0,0,500,230,2,2,0,,106864,0
1090,474,500.47465424710873,230.5149828402688,4,591.5040691759918,583.5040691759918,0.7064935295583789,0,0,500,230,2,2,0,,106864,0
1091,1337,500.5443311154447,230.97151267079732,6,709.1907426246185,697.1907426246185,0.8044142082842844,0,0,500,230,2,3,0,,106864,0
1093,1380,500.5402619138298,231.3789906394457,4,582.3011190233977,574.3011190233977,0.6955111163403522,0,0,500,231,2,2,0,,106864,0
1094,1333,500.5603890880457,231.6753305189609,4,479.30111902339775,471.30111902339775,0.6823579465104058,0,0,500,231,2,2,0,,106864,0
1095,1336,500.9324349626695,231.71255587870456,7,825.8423194303153,811.8423194303153,0.9299924937580888,0,0,500,231,3,3,0,,106864,0
1096,1365,500.5469235249665,231.92903194221628,6,810.4028484231943,798.4028484231943,0.8506783347520104,1,0,500,231,2,3,0,,106864,0
1097,1373,500.5653595506882,231.7296438446618,4,542.3011190233977,534.3011190233977,0.665576316993609,0,0,500,231,2,2,0,,106864,0
1098,456,500.9244940592189,231.56406751309663,6,805.2090539165819,793.2090539165819,0.9135596967746048,0,0,500,231,3,2,0,,106864,0
1099,468,501.5279833123764,232.24877760750564,6,591.8092573753815,579.8092573753815,0.9931172412426014,0,0,500,232,4,2,0,,106864,0
1101,466,502.4845882824297,231.3947049179779,4,455.7675483214649,447.7675483214649,0.6990532344989842,0,0,502,231,2,2,0,,106864,0
1102,1380,502.49799092599005,231.3038516148924,4,509.7675483214649,501.7675483214649,0.6793539391519712,0,0,502,231,2,2,0,,106864,0
