id,dv,sigma_dv,mono,sigma_mono,area,r,sigma_r,q,sigma_q
13952,-0.0004144206851991929,1.2799417134766862e-05,23.69871291123051,9.049708291788596,852.5183999999999,2.865694613483095e-06,1.029918071462345e-06,-179,72.78037121783379
14081,-0.0005164464042970248,2.0980898489507705e-05,14.18728108328102,9.209590479754588,568.3456,1.986409456314649e-06,1.0105513837859272e-06,-133,88.91337973263437
8578,-0.00039405155705906,1.4714050411146515e-05,135.98258244550073,31.72678053742262,3552.16,9.981602759713588e-06,3.8022595657472797e-06,-979,265.3164201482686
9858,-0.00036184462245793215,1.5345499439110494e-05,53.54692709203109,17.54961861864259,1562.9504,5.129724547066008e-06,1.8770809025424805e-06,-354,126.10638289224504
14342,-0.0004187753751494464,1.558503713524124e-05,30.74350055244369,18.408594920982832,1136.6912,3.4511559964990766e-06,1.7066221554900821e-06,-235,144.61065654651844
9352,-0.0004129735991170052,2.8779941045949627e-05,95.12738607428845,33.07321283899413,2841.728,7.733196623460542e-06,3.122428558542958e-06,-718,271.8410149851872
8841,-0.0004341663803605175,1.5946430529921263e-05,196.76792842694016,49.02404938682636,4973.023999999999,1.2996381329120113e-05,5.3148600188718605e-06,-1561,444.35373677405727
14474,-0.0004252907520556978,2.0393390678017327e-05,20.60838418319695,13.982102120729184,852.5183999999999,2.5935012756263054e-06,1.3877198313834837e-06,-160,111.03331156763078
13689,-0.0006919720201491864,1.8257949431113405e-05,18.878797449536766,25.919472303613162,852.5183999999999,2.4360931120397973e-06,2.449715594392978e-06,-238,329.4929219932781
8717,-0.0004372335218643099,2.192283163336638e-05,43.628737896711726,32.9669464835129,1562.9504,4.431490562102858e-06,2.6717591046807636e-06,-348,268.115750841966
8718,-0.0004479969898375573,1.5058802555721792e-05,49.82658466595761,23.42246465133259,1420.864,4.87254522404363e-06,2.120234988433134e-06,-408,199.77476964422405
8719,-0.000402175844656867,3.225249634642402e-05,32.87207341038466,27.083554647922426,1136.6912,3.620191776588993e-06,2.3176281694793064e-06,-241,202.62506716156415
14862,-0.00029723206536070993,1.7122524245720392e-05,26.17757032307363,12.371078748915613,852.5183999999999,3.0767366021524186e-06,1.2731395440870077e-06,-142,70.29311484371397
8722,-0.00048302758405021105,1.8570168463558994e-05,368.9743134155691,84.36209174360312,8525.184000000001,2.0363494935039595e-05,9.044870291630278e-06,-3258,869.8821638316365
8343,-0.00046036266618352444,2.6494908455574368e-05,94.18215188480687,44.19063300549744,2557.5552,7.678231962109097e-06,3.545795209406419e-06,-792,389.1364463368581
13592,-0.00046611738080953424,1.37580026936544e-05,131.5620892946987,33.379012593623216,3694.2464,9.748739826109816e-06,3.758360547794785e-06,-1121,322.52932226949696
12700,-0.00042293703079205436,1.6252381516155205e-05,24.462359944039928,12.357359182778533,852.5183999999999,2.9313534540700936e-06,1.2633780910104338e-06,-189,99.04492675732905
14876,-0.000459946641358243,1.5185262989190952e-05,19.486067131433884,17.728542908870413,852.5183999999999,2.4918116830532933e-06,1.7128582082924326e-06,-163,150.7476908348901
13471,-0.0005425849906045672,1.6164912685940618e-05,21.365061131998615,10.576230820381145,568.3456,2.6611681781673208e-06,1.1205623243183053e-06,-211,108.78418411007691
15391,-0.0004331918622263222,1.4472701618361017e-05,19.5702867544191,11.568612400922941,852.5183999999999,2.499499597558506e-06,1.194988122993461e-06,-154,94.03392286582441
13859,-0.0002608966803721576,3.392340007574528e-05,18.848264386769696,19.87721168444172,710.432,2.433278216443616e-06,1.91115709259313e-06,-89,96.26898577513451
8996,-0.0004484714741510362,1.9430477709991856e-05,13.97798272416164,7.680851739652003,568.3456,1.965433221929448e-06,8.736836215249753e-07,-114,64.96866129478323
12069,-0.0004020912813167067,4.726991876141379e-05,850.6058543008535,134.92866449626356,20176.2688,3.697828538702639e-05,1.803385438155158e-05,-6253,1486.3123821579773
8741,-0.00031844468554559667,1.563620189558559e-05,32.53015651799884,23.119515317190327,1136.6912,3.5932550549203155e-06,2.0355680898411306e-06,-189,137.23272136225987
14501,-0.00044673895523370904,1.508273419055495e-05,13.77018876376169,8.570354701654384,568.3456,1.944518797396763e-06,9.544314688227914e-07,-112,71.66538506580608
12584,-0.0004290641839086967,2.102201870145932e-05,17.922979058413755,9.980948075041715,568.3456,2.3473435075202e-06,1.0669662819560572e-06,-140,80.7705324012451
15139,-0.0003096016277579502,2.048930790118911e-05,8.17428841940571,5.192330370975027,426.25919999999996,1.339780398792936e-06,6.586223873556107e-07,-46,30.177526925705322
13354,-0.0004834430354839589,1.486034004367214e-05,28.0819966735875,13.971891964245758,852.5183999999999,3.235005825909369e-06,1.393042709088151e-06,-248,128.01514952376718
9004,-0.0003189427000310516,3.618039079089374e-05,19.350537720171864,20.261542626674597,852.5183999999999,2.479420033291298e-06,1.9355557067974533e-06,-112,119.77453729836576
13236,-0.0004331095102597969,1.589247228512028e-05,12.461976099822284,8.740730647966897,568.3456,1.81069679020781e-06,9.794111009477834e-07,-98,70.52752466814165
15028,-0.00046624441706348546,1.775206953040751e-05,19.002033519783822,9.288654849555073,568.3456,2.4474412683213904e-06,1.0137014399992729e-06,-161,82.26103470767097
14903,-0.0003443430385489656,3.091201825953736e-05,120.486928466464,43.39152665617254,4120.5056,9.155231214829763e-06,3.861641764257514e-06,-758,298.8952542479925
15415,-0.0004860741537508725,1.4999384561993628e-05,34.59298092066353,17.336023457465597,994.6048,3.754575000347288e-06,1.6500176716562398e-06,-307,159.62567475134605
13370,-0.0004646550045398028,3.992406588953365e-05,96.66527324331628,45.16753339024428,2699.6416,7.8222914853858e-06,3.613801169076329e-06,-821,404.9952067860224
14653,-0.0003856312792794752,1.6003436087719262e-05,8.999010479516853,9.65332804274941,568.3456,1.4349981271488846e-06,1.1335706119186136e-06,-63,68.6266853610764
8257,-0.0003845692527883458,1.5221704842297706e-05,45.6892656433432,31.14150524834879,1562.9504,4.579997129750796e-06,2.5529843978203404e-06,-321,223.40777723301474
8641,-0.0004566295036732974,1.287892822136089e-05,58.21970523755079,28.514751307100518,1705.0367999999999,5.445627586457534e-06,2.4623812175606412e-06,-486,246.9730714786905
14788,-0.0004634240664786057,1.2495872937650438e-05,28.699307549304223,23.561394379680646,1207.7343999999998,3.2856430306119944e-06,2.087336861017771e-06,-243,202.31219576882754
15100,-0.0004026090697460746,1.651980933253284e-05,134.47184566756314,34.76845617868349,3552.16,9.902266853127307e-06,3.846813955609642e-06,-989,290.35654597358473
8264,-0.00041838921075387976,1.0829964056688432e-05,62.26165072241404,22.269409912333785,1705.0367999999999,5.71307354940944e-06,2.211180608344188e-06,-476,182.05095317913094
9545,-0.0005082678564084637,1.629165467938973e-05,15.498155375724023,12.820181080330656,639.3888,2.115844066193061e-06,1.3290788210188614e-06,-144,120.73583596399642
13004,-0.00046656118206467014,2.9174897753110396e-05,33.327514544598024,29.84403331595302,1420.864,3.6559481388148507e-06,2.514459820389273e-06,-284,257.9498794713306
9165,-0.0005780482054200065,1.554992832079265e-05,21.775877705380694,16.72937617550811,852.5183999999999,2.697618657170948e-06,1.6047027241007112e-06,-230,179.51298744252364
13902,-0.0004108885949530777,1.9070150992966826e-05,15.697554969304926,23.33125791139785,710.432,2.1352531613274667e-06,2.3123829643304133e-06,-117,176.0478243568164
11343,-0.0003111038005954011,1.621831275701504e-05,21.93789877693274,10.462873099218875,710.432,2.711940139012536e-06,1.1147238795157503e-06,-124,62.10165717158502
14927,-0.0004088126716527179,3.75511053530136e-05,82.49205695279676,40.509467684512494,3410.0735999999997,6.984727374308656e-06,3.264782794204851e-06,-616,318.6537494045096
14161,-0.0006970141158516693,1.7318570120335465e-05,14.490163724869866,10.038243682750544,568.3456,2.0166090712860874e-06,1.084209281981396e-06,-184,130.31540254529463
12109,-0.0004233583012928276,1.4131235174978552e-05,23.896759436140677,8.177495047359393,710.432,2.882780102066825e-06,9.763985044908954e-07,-184,68.14418418800047
14804,-0.0003382738947038194,1.9385611863526345e-05,61.05054744090205,34.13930140531349,1705.0367999999999,5.6334727125528114e-06,2.778995175724031e-06,-377,218.04679373049768
9045,-0.0004005233344688521,1.6675999953928507e-05,42.200858771321066,25.336099001332983,1420.864,4.3274038586159095e-06,2.1852696896975982e-06,-309,190.4179995695425
8405,-0.000405188757792308,2.5451507197006803e-05,75.46145872909108,51.935859516312576,2557.5552,6.554143310725748e-06,3.7852688720323433e-06,-559,393.3596717890763
13012,-0.0005015341490756782,1.6819738322088013e-05,22.802910237068314,11.093683279836835,710.432,2.7878968795341087e-06,1.1648772903957315e-06,-209,105.65266087572758
13274,-0.0003821986443709697,1.5456107236286297e-05,26.803791868128503,8.364098321596478,852.5183999999999,3.129131536349027e-06,1.0263225384042904e-06,-187,63.93482885745539
8668,-0.0005193060645615055,2.0454980025165645e-05,18.62715338208416,17.338468233754817,852.5183999999999,2.412854554369837e-06,1.6911653173104635e-06,-176,166.4195460719931
15197,-0.0003734224621570152,1.848384970981916e-05,20.463561326591254,10.558648915220992,710.432,2.5804699472336096e-06,1.116244976161096e-06,-139,74.74027022099375
12510,-0.00047316032874943585,1.0533990336789948e-05,39.97069894186469,18.49418131654163,1136.6912,4.162793760828823e-06,1.7593259848329706e-06,-345,166.5815385910196
10718,-0.0004554845661360855,1.6645662919478278e-05,53.11711414665342,15.188354196395505,1562.9504,5.10027962668953e-06,1.7706762739410393e-06,-442,140.3062301532371
8672,-0.0005082432378245817,1.653414319440791e-05,38.039994573482495,30.191747721223358,1420.864,4.018156301019555e-06,2.506924622965706e-06,-353,284.65131647963887
8417,-0.00047142391341581467,1.5577841465177312e-05,31.940708174778017,13.840019705249523,994.6048,3.546626585465503e-06,1.4118938638311984e-06,-275,125.05776917125705
11878,-0.000393561319329299,1.4656468912699615e-05,67.05794089297545,19.64025278752105,1847.1232,6.024082983661622e-06,2.1809727630078308e-06,-482,156.11474168203117
8423,-0.000391503675319805,2.1604342648001408e-05,69.76322366474378,27.614269377580356,2131.2960000000003,6.1966897191243935e-06,2.5456107580153716e-06,-499,210.22607058266743
12270,-0.0004041806797420118,1.5876281682389906e-05,21.278963236056004,10.701409688965343,710.432,2.6535036916431488e-06,1.1296218963326683e-06,-157,82.0039963884911
15087,-0.00048479000494329656,1.9504177956968177e-05,15.182685634790385,16.28674798419742,852.5183999999999,2.0849904915398245e-06,1.6577625269001676e-06,-134,145.55008373183685
13424,-0.000423259040732581,2.151976224591385e-05,26.63749794814257,17.494117798774983,852.5183999999999,3.1152524240449985e-06,1.6419284324271101e-06,-206,138.49442346691788
12788,-0.0004213311555478277,1.7168729756926527e-05,129.8878804570951,26.21800375863292,3410.0735999999997,9.65996446465177e-06,3.5621316904665006e-06,-1000,244.91598063827715
10101,-0.0004854238095154803,1.613956358256642e-05,69.3975924635499,22.1892555309828,1989.2096,6.173474424565674e-06,2.316309325534426e-06,-615,214.11147634185053
13302,-0.0003913903037382228,1.5314467496513102e-05,30.90415075178988,18.471662113378116,1065.6480000000001,3.4640278447112955e-06,1.7112055719373292e-06,-221,135.65564392162477
13044,-0.00023549340833127933,2.4234579786535556e-05,11.719025676614452,5.966915662225264,568.3456,1.732916285029836e-06,7.204981722418359e-07,-50,27.047196242833607
13813,-0.0005131750035693253,2.4615899836555295e-05,18.178032502845898,9.400383928267136,568.3456,2.3711552496308935e-06,1.020216993583147e-06,-170,91.40639310623607
9337,-0.0005156848745554011,2.4341074744852316e-05,47.65744645319753,34.61329078740925,1847.1232,4.720070495564775e-06,2.7693203793272688e-06,-449,332.3911911306166
14458,-0.0005225855545172383,1.8151760513321243e-05,17.01024522233233,9.057270970743534,568.3456,2.2613231671583407e-06,9.907411612998285e-07,-162,89.34771832747683
8443,-0.00036668086027014747,1.61988970832869e-05,51.247155440172826,27.730763537531004,1705.0367999999999,4.971372881827852e-06,2.368382128521217e-06,-343,191.98624763119844
8700,-0.00030441436422319384,1.6984295321659307e-05,13.25473191258749,8.566831614506048,568.3456,1.8922442086673537e-06,9.569322431497146e-07,-73,48.842200149666596
8574,-0.00039556178366104686,2.225912023568311e-05,22.676166870398454,21.147303993884567,994.6048,2.7768197008599376e-06,1.9584331503667093e-06,-163,154.74482638236765
