id,dv,sigma_dv,mono,sigma_mono,area,r,sigma_r,q,sigma_q
13952,-0.0004144206851991929,1.2799417134766862e-05,23.69871291123051,9.049708291788596,852.5183999999999,2.868207066382081e-06,9.519045718823118e-07,-119,48.520247478555866
14081,-0.0005164464042970248,2.0980898489507705e-05,14.18728108328102,9.209590479754588,568.3456,2.0510340158111964e-06,9.52637957914779e-07,-89,59.27558648842292
8578,-0.00039405155705906,1.4714050411146515e-05,135.98258244550073,31.72678053742262,3552.16,8.985269461729798e-06,3.3342184185269645e-06,-653,176.8776134321791
9858,-0.00036184462245793215,1.5345499439110494e-05,53.54692709203109,17.54961861864259,1562.9504,4.886404902885395e-06,1.6923178587588338e-06,-236,84.07092192816337
14342,-0.0004187753751494464,1.558503713524124e-05,30.74350055244369,18.408594920982832,1136.6912,3.4000505566927858e-06,1.5523678667508304e-06,-156,96.40710436434561
9352,-0.0004129735991170052,2.8779941045949627e-05,95.12738607428845,33.07321283899413,2841.728,7.113900041560393e-06,2.748608507429472e-06,-478,181.22734332345811
8841,-0.0004341663803605175,1.5946430529921263e-05,196.76792842694016,49.02404938682636,4973.023999999999,1.143968671639202e-05,4.576575282699833e-06,-1041,296.2358245160382
14474,-0.0004252907520556978,2.0393390678017327e-05,20.60838418319695,13.982102120729184,852.5183999999999,2.617880608032701e-06,1.2847778702657495e-06,-106,74.02220771175386
13689,-0.0006919720201491864,1.8257949431113405e-05,18.878797449536766,25.919472303613162,852.5183999999999,2.472109677896573e-06,2.275537621443543e-06,-159,219.66194799551877
8717,-0.0004372335218643099,2.192283163336638e-05,43.628737896711726,32.9669464835129,1562.9504,4.274097415365364e-06,2.38195510619684e-06,-232,178.743833894644
8718,-0.0004479969898375573,1.5058802555721792e-05,49.82658466595761,23.42246465133259,1420.864,4.661753426486104e-06,1.8981939097732114e-06,-272,133.18317976281605
8719,-0.000402175844656867,3.225249634642402e-05,32.87207341038466,27.083554647922426,1136.6912,3.5521217806890864e-06,2.093446570324475e-06,-161,135.08337810770942
14862,-0.00029723206536070993,1.7122524245720392e-05,26.17757032307363,12.371078748915613,852.5183999999999,3.060897493801017e-06,1.1695708295924787e-06,-94,46.86207656247597
8722,-0.00048302758405021105,1.8570168463558994e-05,368.9743134155691,84.36209174360312,8525.184000000001,1.7253326342980158e-05,7.567099029334653e-06,-2172,579.9214425544243
8343,-0.00046036266618352444,2.6494908455574368e-05,94.18215188480687,44.19063300549744,2557.5552,7.067619298364644e-06,3.090790939335443e-06,-528,259.42429755790545
13592,-0.00046611738080953424,1.37580026936544e-05,131.5620892946987,33.379012593623216,3694.2464,8.793269259430421e-06,3.2938878561319164e-06,-747,215.01954817966464
12700,-0.00042293703079205436,1.6252381516155205e-05,24.462359944039928,12.357359182778533,852.5183999999999,2.928281672415302e-06,1.162954095104439e-06,-126,66.02995117155271
14876,-0.000459946641358243,1.5185262989190952e-05,19.486067131433884,17.728542908870413,852.5183999999999,2.523797909447913e-06,1.5890479118426686e-06,-109,100.4984605565934
13471,-0.0005425849906045672,1.6164912685940618e-05,21.365061131998615,10.576230820381145,568.3456,2.6803114371559653e-06,1.037426191880066e-06,-141,72.52278940671793
15391,-0.0004331918622263222,1.4472701618361017e-05,19.5702867544191,11.568612400922941,852.5183999999999,2.5309219706797677e-06,1.109589863032957e-06,-103,62.6892819105496
13859,-0.0002608966803721576,3.392340007574528e-05,18.848264386769696,19.87721168444172,710.432,2.4694957471619867e-06,1.775841928172606e-06,-59,64.17932385008969
8996,-0.0004484714741510362,1.9430477709991856e-05,13.97798272416164,7.680851739652003,568.3456,2.031206707523933e-06,8.235900776608064e-07,-76,43.312440863188826
12069,-0.0004020912813167067,4.726991876141379e-05,850.6058543008535,134.92866449626356,20176.2688,2.978192246050183e-05,1.4501265615241296e-05,-4168,990.8749214386514
8741,-0.00031844468554559667,1.563620189558559e-05,32.53015651799884,23.119515317190327,1136.6912,3.5279295872881085e-06,1.8426512744081443e-06,-126,91.48848090817326
14501,-0.00044673895523370904,1.508273419055495e-05,13.77018876376169,8.570354701654384,568.3456,2.0114199149150594e-06,9.008658817312622e-07,-74,47.776923377204064
12584,-0.0004290641839086967,2.102201870145932e-05,17.922979058413755,9.980948075041715,568.3456,2.389570992731831e-06,9.947778230594381e-07,-93,53.84702160083006
15139,-0.0003096016277579502,2.048930790118911e-05,8.17428841940571,5.192330370975027,426.25919999999996,1.430441520102485e-06,6.377867707904091e-07,-30,20.11835128380355
13354,-0.0004834430354839589,1.486034004367214e-05,28.0819966735875,13.971891964245758,852.5183999999999,3.204664305205097e-06,1.2752615305734215e-06,-165,85.34343301584478
9004,-0.0003189427000310516,3.618039079089374e-05,19.350537720171864,20.261542626674597,852.5183999999999,2.5123111638643035e-06,1.7959285315930663e-06,-75,79.84969153224384
13236,-0.0004331095102597969,1.589247228512028e-05,12.461976099822284,8.740730647966897,568.3456,1.8843755687712718e-06,9.295531462374826e-07,-65,47.018349778761106
15028,-0.00046624441706348546,1.775206953040751e-05,19.002033519783822,9.288654849555073,568.3456,2.4826450517527012e-06,9.430513428553112e-07,-107,54.84068980511398
14903,-0.0003443430385489656,3.091201825953736e-05,120.486928466464,43.39152665617254,4120.5056,8.302120757620977e-06,3.3618719596399054e-06,-505,199.26350283199505
15415,-0.0004860741537508725,1.4999384561993628e-05,34.59298092066353,17.336023457465597,994.6048,3.6725869610511475e-06,1.4974090116214196e-06,-204,106.41711650089736
13370,-0.0004646550045398028,3.992406588953365e-05,96.66527324331628,45.16753339024428,2699.6416,7.188859463669957e-06,3.1469826942536205e-06,-547,269.99680452401486
14653,-0.0003856312792794752,1.6003436087719262e-05,8.999010479516853,9.65332804274941,568.3456,1.5231907397664363e-06,1.0976907514976485e-06,-42,45.751123574050936
8257,-0.0003845692527883458,1.5221704842297706e-05,45.6892656433432,31.14150524834879,1562.9504,4.404975064178537e-06,2.2750677748471425e-06,-214,148.93851815534316
8641,-0.0004566295036732974,1.287892822136089e-05,58.21970523755079,28.514751307100518,1705.0367999999999,5.16105052688717e-06,2.1878544380682666e-06,-324,164.64871431912704
14788,-0.0004634240664786057,1.2495872937650438e-05,28.699307549304223,23.561394379680646,1207.7343999999998,3.25053407162162e-06,1.8986196455579814e-06,-162,134.87479717921835
15100,-0.0004026090697460746,1.651980933253284e-05,134.47184566756314,34.76845617868349,3552.16,8.919898591915015e-06,3.3666098063009134e-06,-659,193.57103064905644
8264,-0.00041838921075387976,1.0829964056688432e-05,62.26165072241404,22.269409912333785,1705.0367999999999,5.392508138424941e-06,1.9775866867813537e-06,-317,121.36730211942064
9545,-0.0005082678564084637,1.629165467938973e-05,15.498155375724023,12.820181080330656,639.3888,2.172993252115966e-06,1.2480618555658798e-06,-96,80.49055730933095
13004,-0.00046656118206467014,2.9174897753110396e-05,33.327514544598024,29.84403331595302,1420.864,3.5842114009976017e-06,2.26779416926248e-06,-189,171.96658631422042
9165,-0.0005780482054200065,1.554992832079265e-05,21.775877705380694,16.72937617550811,852.5183999999999,2.7138852939987644e-06,1.4808711173591636e-06,-153,119.67532496168243
13902,-0.0004108885949530777,1.9070150992966826e-05,15.697554969304926,23.33125791139785,710.432,2.1912258221247914e-06,2.1709004410392605e-06,-78,117.3652162378776
11343,-0.0003111038005954011,1.621831275701504e-05,21.93789877693274,10.462873099218875,710.432,2.7270659709851532e-06,1.0311795533941331e-06,-83,41.40110478105668
14927,-0.0004088126716527179,3.75511053530136e-05,82.49205695279676,40.509467684512494,3410.0735999999997,6.481186759501753e-06,2.857746753513077e-06,-411,212.43583293633975
14161,-0.0006970141158516693,1.7318570120335465e-05,14.490163724869866,10.038243682750544,568.3456,2.079548336955853e-06,1.0212399983999585e-06,-123,86.87693503019642
12109,-0.0004233583012928276,1.4131235174978552e-05,23.896759436140677,8.177495047359393,710.432,2.8838505986126193e-06,9.032547368930209e-07,-123,45.429456125333644
14804,-0.0003382738947038194,1.9385611863526345e-05,61.05054744090205,34.13930140531349,1705.0367999999999,5.323716835985373e-06,2.4549883961613065e-06,-251,145.36452915366513
9045,-0.0004005233344688521,1.6675999953928507e-05,42.200858771321066,25.336099001332983,1420.864,4.182144962896866e-06,1.9593736141106717e-06,-206,126.94533304636167
8405,-0.000405188757792308,2.5451507197006803e-05,75.46145872909108,51.935859516312576,2557.5552,6.1146127356599335e-06,3.292712485332952e-06,-372,262.23978119271754
13012,-0.0005015341490756782,1.6819738322088013e-05,22.802910237068314,11.093683279836835,710.432,2.796874190836972e-06,1.0757350889331283e-06,-139,70.43510725048506
13274,-0.0003821986443709697,1.5456107236286297e-05,26.803791868128503,8.364098321596478,852.5183999999999,3.1085594626244656e-06,9.472838144879946e-07,-124,42.623219238303605
8668,-0.0005193060645615055,2.0454980025165645e-05,18.62715338208416,17.338468233754817,852.5183999999999,2.4505224834580034e-06,1.572656623237677e-06,-117,110.94636404799539
15197,-0.0003734224621570152,1.848384970981916e-05,20.463561326591254,10.558648915220992,710.432,2.6058418543321806e-06,1.0350356773703967e-06,-93,49.82684681399584
12510,-0.00047316032874943585,1.0533990336789948e-05,39.97069894186469,18.49418131654163,1136.6912,4.03633881500299e-06,1.5897967271226932e-06,-230,111.05435906067974
10718,-0.0004554845661360855,1.6645662919478278e-05,53.11711414665342,15.188354196395505,1562.9504,4.860733564637687e-06,1.6024680380300923e-06,-294,93.53748676882473
8672,-0.0005082432378245817,1.653414319440791e-05,38.039994573482495,30.191747721223358,1420.864,3.90781935416437e-06,2.2487132797948406e-06,-235,189.76754431975928
8417,-0.00047142391341581467,1.5577841465177312e-05,31.940708174778017,13.840019705249523,994.6048,3.4860154898963556e-06,1.2887241262492275e-06,-183,83.37184611417138
11878,-0.000393561319329299,1.4656468912699615e-05,67.05794089297545,19.64025278752105,1847.1232,5.660514354579777e-06,1.956243376139591e-06,-321,104.07649445468746
8423,-0.000391503675319805,2.1604342648001408e-05,69.76322366474378,27.614269377580356,2131.2960000000003,5.8087442220660945e-06,2.259626517534185e-06,-332,140.1507137217783
12270,-0.0004041806797420118,1.5876281682389906e-05,21.278963236056004,10.701409688965343,710.432,2.673246866071346e-06,1.0458836288520568e-06,-104,54.669330925660724
15087,-0.00048479000494329656,1.9504177956968177e-05,15.182685634790385,16.28674798419742,852.5183999999999,2.14398061504657e-06,1.5589301418444662e-06,-89,97.03338915455791
13424,-0.000423259040732581,2.151976224591385e-05,26.63749794814257,17.494117798774983,852.5183999999999,3.09594073360338e-06,1.5019029572546655e-06,-137,92.32961564461192
12788,-0.0004213311555478277,1.7168729756926527e-05,129.8878804570951,26.21800375863292,3410.0735999999997,8.719970017180861e-06,3.1392056040111346e-06,-667,163.27732042551807
10101,-0.0004854238095154803,1.613956358256642e-05,69.3975924635499,22.1892555309828,1989.2096,5.788828203745102e-06,2.069875311600909e-06,-410,142.74098422790038
13302,-0.0003913903037382228,1.5314467496513102e-05,30.90415075178988,18.471662113378116,1065.6480000000001,3.4116524688087714e-06,1.5562072797056992e-06,-147,90.43709594774988
13044,-0.00023549340833127933,2.4234579786535556e-05,11.719025676614452,5.966915662225264,568.3456,1.81017051119524e-06,6.840607810933248e-07,-33,18.031464161889076
13813,-0.0005131750035693253,2.4615899836555295e-05,18.178032502845898,9.400383928267136,568.3456,2.4117419550660995e-06,9.507247935020636e-07,-113,60.93759540415739
9337,-0.0005156848745554011,2.4341074744852316e-05,47.65744645319753,34.61329078740925,1847.1232,4.528090333649009e-06,2.4599408504093546e-06,-299,221.59412742041107
14458,-0.0005225855545172383,1.8151760513321243e-05,17.01024522233233,9.057270970743534,568.3456,2.309317160904586e-06,9.258551691276442e-07,-108,59.56514555165122
8443,-0.00036668086027014747,1.61988970832869e-05,51.247155440172826,27.730763537531004,1705.0367999999999,4.7481978263101175e-06,2.110226907426913e-06,-229,127.99083175413229
8700,-0.00030441436422319384,1.6984295321659307e-05,13.25473191258749,8.566831614506048,568.3456,1.9618841999811417e-06,9.050499929172196e-07,-49,32.5614667664444
8574,-0.00039556178366104686,2.225912023568311e-05,22.676166870398454,21.147303993884567,994.6048,2.7867038525212047e-06,1.8021206558286093e-06,-109,103.16321758824509
