frame,label,x,y,area,raw_lum,lum,gyrad,n_sat,n_255,bx,by,bw,bh,tier,ws_neighbor,particle,match_frame
15455,2532,462.7011846667463,292.89502398043385,21,1358.877416073245,1316.877416073245,1.2805953376630577,1,0,461,291,5,5,0,,1295414,0
15456,2502,462.95207719542486,289.4025046713627,28,1759.6012207527976,1703.6012207527976,1.4985018403323909,2,0,460,287,6,6,0,,1295414,0
15457,2529,462.43936839366575,285.5359271576434,26,1786.8825025432352,1734.8825025432352,1.470615955036206,1,0,460,283,6,6,0,,1295414,0
15458,2514,462.6720492482388,282.1468313823461,27,1601.123092573754,1547.123092573754,1.4421287911045406,1,0,460,280,6,6,0,,1295414,0
15459,2526,462.8336017675173,278.77117751826137,33,2256.154628687691,2190.154628687691,1.613910418022912,1,0,460,276,6,7,0,,1295414,0
15460,2475,462.51214798123135,275.44110215782194,29,1783.24008138352,1725.24008138352,1.495590543956253,2,0,460,273,6,6,0,,1295414,0
15461,2522,462.8164688963018,271.95517814156176,24,1818.6383519837232,1770.6383519837232,1.4142823749942512,1,0,460,270,6,5,0,,1295414,0
15462,2544,462.5053443647266,268.8775920066676,37,2860.420651068159,2786.420651068159,1.7227874917380013,4,0,460,266,6,7,0,,1295414,0
15463,2513,463.0326266906405,265.5293229474461,23,1456.315361139369,1410.315361139369,1.3917599317294072,1,0,461,263,5,6,0,,1295414,0
15464,1105,463.1585104776015,262.9208155292394,21,1229.0666327568667,1187.0666327568667,1.4429194180840277,0,0,462,260,4,6,0,,1295414,0
15465,2469,463.0674011314509,259.8832242227844,37,2516.4170905391657,2442.4170905391657,1.732263716102771,2,0,460,257,8,7,0,,1295414,0
15466,2469,462.8579203479728,256.9728481336135,32,2277.045778229908,2213.045778229908,1.5820572084429498,2,0,460,254,6,7,0,,1295414,0
15467,2503,462.79465161224965,253.812222455429,23,1536.4628687690742,1490.4628687690742,1.3655280684781304,1,0,460,252,6,5,0,,1295414,0
15468,2459,462.2397379552117,252.255002706303,25,1607.9038657171925,1557.9038657171925,1.5428566591732369,1,0,458,250,8,5,0,,1295414,0
15469,2471,462.7038227762416,249.98583442229145,34,2527.762970498474,2459.762970498474,1.6459880387531616,3,0,460,247,6,7,0,,1295414,0
15470,1047,462.9110977912205,247.3506006330211,16,883.3931841302136,851.3931841302136,1.2346040036318155,0,0,461,246,5,4,0,,1295414,0
15471,2466,462.3621660237723,246.31526266012708,30,2128.1500508647,2068.1500508647,1.545307233620358,3,0,460,244,6,6,0,,1295414,1
15472,2429,462.7787986514588,243.8390444143716,31,2210.444048830112,2148.444048830112,1.544860155386247,1,0,460,241,6,6,0,,1295414,0
15473,2450,462.1684634912853,242.927500923537,38,2950.695320447609,2874.695320447609,1.7349386979184955,3,0,459,240,7,7,0,,1295414,0
15474,2736,463.00471349808015,240.4972081833729,19,1115.9267548321466,1077.9267548321466,1.3202528948576402,0,0,461,238,5,6,1,,1295414,0
15475,2440,462.377375118917,239.8886477243568,37,2723.587995930824,2649.587995930824,1.7192343823466067,4,0,458,237,8,7,0,,1295414,0
15476,2389,461.7424821704882,238.82180371739585,26,1883.585961342828,1831.585961342828,1.496790265308961,0,0,459,237,6,5,0,,1295414,0
15477,2441,462.51878443782806,236.83719383977856,26,1651.656154628688,1599.656154628688,1.4815542978818208,1,0,460,235,6,5,0,,1295414,0
15478,2463,462.1748197710722,236.2263720850052,26,1944.444048830112,1892.444048830112,1.488860036237234,1,0,460,234,6,6,0,,1295414,0
15479,2436,461.7891923496997,236.00497531837192,35,2582.8413021363176,2512.8413021363176,1.6679874240895318,1,0,458,233,8,7,0,,1295414,0
15481,2421,462.0239729820652,233.7687873134153,38,2713.995422177009,2637.995422177009,1.794052059971808,4,0,458,231,8,7,0,,1295414,0
15482,2389,461.71306497012125,232.4526986268873,25,1828.941505595117,1778.941505595117,1.4675154977725555,0,0,460,230,5,6,0,,1295414,0
15483,969,461.8319676563172,231.57040475446024,17,865.4506612410987,831.4506612410987,1.2669277304769169,0,0,460,230,5,4,0,,1295414,0
15484,2449,462.3224917901868,230.63800231320525,24,1477.6500508647,1429.6500508647,1.3743530899762484,0,0,460,229,6,5,0,,1295414,0
15485,2436,462.3088520474816,229.8388473996348,23,1549.6297049847408,1503.6297049847408,1.4056860361146224,1,0,460,228,6,5,0,,1295414,0
15486,2387,461.9154675809807,228.8404123689272,22,1425.651068158698,1381.651068158698,1.38898444519765,1,0,460,227,6,5,0,,1295414,0
15488,998,462.2606156654219,227.5483389337804,16,848.2828077314344,816.2828077314344,1.1456592769871476,0,0,460,226,5,4,0,,1295414,0
15489,2420,461.95538896483214,226.5586223522804,25,1784.943540183113,1734.943540183113,1.4554800805317163,1,0,460,225,6,5,0,,1295414,0
15491,2405,461.7008433139304,225.72152746690165,32,2373.586469989827,2309.586469989827,1.612900706816732,0,0,459,223,7,6,0,,1295414,0
15492,960,461.4838674455772,224.9158984725937,12,796.6017293997966,772.6017293997966,1.167392689965943,0,0,460,224,4,3,0,,1295414,0
15495,919,461.5711248478173,222.9622868653552,19,1047.4074262461852,1009.4074262461852,1.3330471491126497,0,0,460,221,4,5,0,,1295414,0
15496,2337,461.6203405575659,222.6676565084483,29,2060.9491353001017,2002.9491353001013,1.5655827509129032,0,0,459,220,6,6,0,,1295414,0
15497,2351,461.0232006939968,222.17198728250088,36,2583.4109867751777,2511.4109867751777,1.788120288137242,1,0,457,219,8,7,0,,1295414,0
15498,941,461.3999871238828,221.5477653025742,17,1398.410986775178,1364.410986775178,1.3260693448181908,0,0,459,220,5,4,0,,1295414,0
15499,912,462.1694501652413,221.68957437758624,14,695.9827060020344,667.9827060020344,1.1355524860564925,0,0,460,220,5,4,0,,1295414,0
15500,908,461.8292519638394,220.4641122599058,16,1068.9842319430315,1036.9842319430315,1.2447665048965244,0,0,460,219,4,4,0,,1295414,0
