frame,label,x,y,area,raw_lum,lum,gyrad,n_sat,n_255,bx,by,bw,bh,tier,ws_neighbor,particle,match_frame
17725,2050,504.0391932192124,229.6155243458178,16,1022.3367243133264,990.3367243133264,1.2940326114444085,1,0,502,228,5,4,0,,1471336,0
17726,794,504.33690705741856,230.2251110977285,17,895.3011190233979,861.3011190233979,1.2224507561168845,0,0,502,228,6,5,0,,1471336,0
17728,2054,504.3616886842817,230.9133574928165,20,1375.790437436419,1335.790437436419,1.2289448620268064,1,0,502,229,5,5,0,,1471336,0
17729,2038,504.37810412123866,231.039113098658,27,2128.3194303153614,2074.3194303153614,1.500109950866085,2,0,502,229,6,5,0,,1471336,0
17730,2051,504.25028262894665,231.36966799012384,33,2812.0295015259408,2746.0295015259408,1.685060950819997,3,0,502,228,6,7,0,,1471336,0
17731,2055,504.01478556589205,231.26267191415727,40,2976.700915564598,2896.700915564598,1.7757925825784278,2,0,501,228,7,8,0,,1471336,0
17732,2056,504.1319754147362,231.7991806157525,20,1361.3428280773142,1321.3428280773142,1.3336236639588133,0,0,502,230,6,5,0,,1471336,0
17733,2029,504.0590531879049,232.0101256661581,22,1612.242115971516,1568.242115971516,1.330829241195862,1,0,502,230,5,5,0,,1471336,0
17735,2054,503.8716954781426,233.4549071641407,26,2020.6251271617496,1968.6251271617496,1.4749116275700405,2,0,502,231,6,6,0,,1471336,0
17736,2049,503.9730679007659,234.0125541631731,37,2753.5620549338755,2679.5620549338755,1.694837376764691,2,0,501,231,7,7,0,,1471336,0
17737,2048,504.1442759477154,234.8695012995622,18,1212.3575788402848,1176.3575788402848,1.2421205822917682,0,0,502,233,5,5,0,,1471336,0
17738,2096,504.3737992490736,235.8389675675346,22,1335.210579857579,1291.210579857579,1.3065584864781978,1,0,502,234,6,5,0,,1471336,0
17739,2091,504.2034397885965,235.85405599229844,17,1044.0325534079348,1010.0325534079348,1.1686641392662729,1,0,502,234,5,5,0,,1471336,0
17741,2046,504.0694956352,236.87189263150407,21,1402.9511698880976,1360.9511698880976,1.3447642874279977,0,0,502,235,5,5,0,,1471336,0
17742,2029,504.1468939850674,236.78208470515048,21,1350.732960325534,1308.732960325534,1.3808910665752283,0,0,502,234,5,6,0,,1471336,0
17743,2022,504.0756575811629,237.5836790484164,31,2299.748219735504,2237.748219735504,1.5929728470181366,2,0,502,235,6,6,0,,1471336,0
17744,2069,503.6925012961655,237.27586834836143,32,2466.387589013225,2402.387589013225,1.619178052918241,1,0,500,235,8,6,0,,1471336,0
17745,2058,504.0077021005729,237.29123054029787,32,2413.2349949135305,2349.2349949135305,1.6131955132190523,2,0,501,235,7,6,0,,1471336,0
17746,771,503.5300576367242,236.73641971896072,17,1435.3062054933876,1401.3062054933876,1.3433850748154537,0,0,502,235,4,5,0,,1471336,0
17747,2009,503.7717771242015,236.77200232211584,31,2407.7385554425227,2345.7385554425227,1.6260307177916415,0,0,501,234,7,7,0,,1471336,0
17748,2042,503.6715332040373,236.8304137098613,19,1361.1546286876908,1323.1546286876908,1.3231198587780626,0,0,502,235,5,5,0,,1471336,0
17749,2077,503.90246461449874,236.79822805834263,34,2536.946083418108,2468.946083418108,1.6657936316722888,2,0,501,234,7,6,0,,1471336,0
17750,790,503.6791326570934,236.4806244221972,16,1106.9928789420142,1074.9928789420142,1.232586894101399,0,0,502,235,4,4,0,,1471336,0
17751,2073,503.4020757260269,236.32282499798004,32,2222.2182095625635,2158.2182095625635,1.610177323192738,0,0,500,234,7,6,0,,1471336,0
17752,785,503.47102279945375,236.4390740873073,16,1024.9928789420142,992.9928789420142,1.2185973833387542,0,0,502,235,4,4,0,,1471336,0
17754,2015,503.1767636661232,236.40217427250408,16,1215.0788402848425,1183.0788402848425,1.2421059303287012,0,0,501,235,5,4,0,,1471336,0
17755,779,503.52689322839024,236.39970912503728,16,1200.9928789420142,1168.9928789420142,1.2735122385029811,0,0,502,235,4,4,0,,1471336,1
17756,2121,503.0273432900673,236.2271166922029,19,1339.1953204476094,1301.1953204476094,1.293882916922798,0,0,501,234,5,5,0,,1471336,0
17757,2076,502.8566494779873,236.3697253986089,25,1693.5488301119026,1643.5488301119026,1.3979097241412006,2,0,500,234,6,6,0,,1471336,0
17758,2106,502.7155792721705,236.4808854375518,25,1571.626144455748,1521.626144455748,1.3881799651551618,1,0,500,234,6,6,0,,1471336,0
17759,2131,502.9885836873097,236.0038859384248,23,1602.8001017294,1556.8001017294,1.3901158339204185,0,0,501,234,5,5,0,,1471336,0
17760,775,503.2264089013712,235.5743651253338,23,1586.8713123092575,1540.8713123092575,1.510049024751681,0,0,502,233,4,6,0,,1471336,0
17761,2120,503.2593310791247,235.4550580977661,26,2099.234486266532,2047.234486266532,1.6080954618489791,0,0,501,233,5,6,0,,1471336,0
17762,2106,503.0291486449272,235.6051169590644,39,2511.943031536114,2433.943031536114,1.9492467808642948,0,0,497,233,10,6,0,,1471336,0
17763,2073,503.21301898138944,235.7989946365164,30,2084.951678535097,2024.9516785350968,1.6828069509878223,0,0,498,233,8,6,0,,1471336,0
17764,2071,503.0715037295169,235.9355581294665,25,2033.692268565616,1983.692268565616,1.4636659272581372,1,0,500,234,6,5,0,,1471336,0
17765,2051,502.905130441624,235.5846266321049,26,1945.987283825025,1893.987283825025,1.4765695259897154,1,0,500,233,6,6,0,,1471336,0
17766,2053,503.101169943124,235.70034970374928,20,1435.4542217700914,1395.4542217700914,1.3660847273134158,0,0,501,234,5,5,0,,1471336,0
17770,2035,502.2910641850664,235.0018973131704,31,1842.3011190233976,1780.3011190233976,1.7224440821404503,2,0,498,233,8,6,0,,1471336,0
17771,2044,502.8232865573928,234.76200727492392,18,1017.1648016276704,981.1648016276704,1.244745859236993,0,0,501,233,5,5,0,,1471336,0
17772,2046,502.2355075410944,235.0527944211805,39,2369.957782299085,2291.957782299085,2.042100320973278,2,0,498,232,8,8,0,,1471336,0
17773,2042,502.6500359544914,234.74425875900468,28,1938.8418107833163,1882.8418107833163,1.648304553145159,2,0,498,233,8,6,0,,1471336,0
17774,2052,502.4383100997456,234.69355219647983,36,2435.7502543235,2363.7502543235,1.754600810229748,3,0,498,232,8,7,0,,1471336,0
17775,2052,502.63234492632427,233.9624741922884,21,1330.857578840285,1288.857578840285,1.3392623329400284,0,0,500,232,6,5,0,,1471336,0
17776,2051,502.5510079692052,234.3745446507974,31,2354.179043743642,2292.179043743642,1.7256011041998744,0,0,500,232,6,6,0,,1471336,0
17777,2024,502.3491974505881,234.5630411828793,31,2179.3468972533065,2117.3468972533065,1.628772667221328,1,0,500,232,6,6,0,,1471336,0
17778,2059,502.36382018069673,235.1144799736776,32,2277.102238046796,2213.102238046796,1.6011986799274676,2,0,500,232,6,7,0,,1471336,0
17779,2081,502.2702492049631,234.688444089544,30,2368.9374364191253,2308.9374364191253,1.6060150551262076,3,0,500,232,6,6,0,,1471336,0
17780,2090,502.52845267780464,234.40793359902287,28,1963.961342828077,1907.961342828077,1.5195209543752313,1,0,500,232,6,6,0,,1471336,0
17782,2081,502.4370157115129,235.5551313589676,26,1799.2909460834182,1747.2909460834182,1.440841073161775,1,0,500,233,6,6,0,,1471336,0
17783,2087,502.5318591987942,234.97287808611983,24,1374.1876907426245,1326.1876907426245,1.559708481845213,0,0,500,232,6,6,0,,1471336,0
17784,2083,502.3499329508938,235.0892084030807,30,1998.2014242115968,1938.2014242115968,1.5560284359899783,2,0,500,232,6,7,0,,1471336,0
17785,2072,502.1878804717759,235.1077312229416,26,1953.356052899288,1901.356052899288,1.520839117384028,2,0,499,233,7,5,0,,1471336,0
