frame,label,x,y,area,raw_lum,lum,gyrad,n_sat,n_255,bx,by,bw,bh,tier,ws_neighbor,particle,match_frame
17917,2050,525.6388669347882,250.8750547461944,55,4165.853001017294,4055.8530010172944,2.609233426556347,4,0,520,247,10,8,0,,1497539,0
17918,2021,526.5497756572765,251.3183197359216,60,4712.987792472025,4592.987792472025,2.5349699822482528,4,0,520,248,12,8,0,,1497539,0
17919,2025,526.90732167885,250.9557230137737,44,2874.648524923703,2786.648524923703,1.8705290467087683,3,0,524,247,7,8,0,,1497539,0
17920,2022,526.9438796124716,251.1576338848612,64,4479.1261444557485,4351.1261444557485,2.532594042630403,3,0,520,247,12,9,0,,1497539,0
17921,2009,527.4330544855668,251.325741389362,50,3886.8591047812815,3786.8591047812815,1.98765733557301,3,0,524,248,8,8,0,,1497539,0
17922,2032,527.3355688112877,250.9161210056981,45,3639.101220752797,3549.1012207527974,1.9177646092744287,3,0,524,248,8,7,0,,1497539,0
17923,2032,527.4549365306673,250.6317633242984,47,3556.87995930824,3462.87995930824,2.048582686095393,3,0,524,247,8,8,0,,1497539,0
17924,2313,528.0907878782967,250.8999699264312,43,3514.6093591047816,3428.6093591047816,1.910995546080392,4,0,524,248,8,7,1,,1497539,0
17925,2321,527.6715696768243,250.71671347632176,61,4721.219226856561,4599.219226856561,2.249312321806815,4,0,524,246,8,10,1,,1497539,0
17926,2353,527.5732646547217,250.6689072703761,75,5652.405900305188,5502.405900305188,2.7185495245970555,4,0,521,246,11,10,1,,1497539,0
17927,2383,527.8932799924958,250.41439001229972,50,4056.016276703968,3956.016276703968,2.117055021815955,2,0,524,247,8,8,1,,1497539,0
17928,2344,527.4434002629961,250.62109350017016,65,5646.645981688708,5516.645981688708,2.585782817508808,5,0,521,246,11,10,1,,1497539,0
17929,1997,527.9058061447921,251.16543897222087,34,2248.188199389624,2180.188199389624,1.720127631697327,1,0,525,248,7,7,0,,1497539,0
17930,2002,528.3758394527122,251.6103602884148,34,1990.394201424212,1922.394201424212,1.9211216363886552,0,0,526,248,6,7,0,,1497539,0
17931,2039,528.3038906588957,251.27428332153207,35,2480.4827060020343,2410.4827060020343,1.776214751357827,1,0,526,248,6,7,0,,1497539,0
17932,2039,528.9590012346707,252.4130587781293,30,1929.666327568668,1869.666327568668,1.6658022785710092,0,0,526,249,6,7,0,,1497539,0
17933,2051,528.5661859336609,251.73934731880647,31,1622.4023397761953,1560.4023397761953,1.808228213478542,0,0,526,249,6,6,0,,1497539,0
17934,1980,528.8145120558903,251.5903684619409,37,2810.768565615462,2736.768565615462,1.962049478300192,0,0,526,248,7,8,0,,1497539,0
17935,2038,528.8553837922236,251.0749211439252,30,1695.9506612410985,1635.9506612410985,1.7990506906538637,0,0,526,248,6,7,0,,1497539,0
17936,2043,528.7485676803446,251.1777042554088,34,2295.325534079349,2227.325534079349,1.8401849573951208,0,0,526,248,6,7,0,,1497539,0
17937,2050,528.7953780020224,250.9939441813003,42,3517.127161749746,3433.127161749746,1.905096199363818,4,0,526,248,7,7,0,,1497539,0
17938,2029,528.7999461655451,251.1862139831225,34,2360.198880976602,2292.198880976602,1.7528167515121156,1,0,526,248,6,7,0,,1497539,0
17939,2019,528.8058299873503,250.94698354938248,46,4036.3102746693794,3944.3102746693794,1.9945134652479968,4,0,526,247,8,8,0,,1497539,0
17940,2081,528.782197927083,250.92723419783104,35,2351.5498474059,2281.5498474059,1.8814717020908136,0,0,526,248,6,7,0,,1497539,0
17941,2022,528.7353754451754,250.79182095809853,37,2730.1871820956258,2656.1871820956258,1.8955449071465245,0,0,526,247,7,8,0,,1497539,0
17942,2012,528.9974373565584,250.6294989869964,48,3780.9460834181073,3684.9460834181073,2.050536563259548,3,0,525,247,9,9,0,,1497539,0
17943,2021,529.294524775473,250.70048011994805,41,2979.926754832147,2897.926754832147,1.836368061529967,1,0,526,248,7,7,0,,1497539,0
17944,2044,528.911823056956,250.45918894777628,35,2786.87995930824,2716.87995930824,1.8432305065793944,3,0,526,248,6,7,0,,1497539,0
17945,2040,529.2173673747909,251.2167888229988,43,2726.3148524923704,2640.3148524923704,1.9678395815124905,0,0,526,248,8,7,0,,1497539,0
17946,2033,529.264350444083,251.05989253511385,44,3296.8255340793494,3208.8255340793494,1.9383532990651164,0,0,526,247,8,8,0,,1497539,0
17947,2043,529.0728583975405,250.4916278350833,50,3994.914547304171,3894.914547304171,2.0262775890339992,4,0,526,247,8,8,0,,1497539,1
17948,2029,528.6627744240986,249.86245859228745,47,3754.718718209562,3660.718718209562,2.052012495442252,3,0,525,246,8,9,0,,1497539,0
17949,2028,529.188881624833,250.41038662890853,40,3026.525940996948,2946.525940996948,1.905883790199296,0,0,526,247,8,8,0,,1497539,0
17950,2066,529.1801726795519,250.71946599696685,51,4057.227365208545,3955.227365208545,2.071680483588507,1,0,526,247,8,8,0,,1497539,0
17951,2025,528.9839537075497,249.6442256176719,46,3751.987792472025,3659.987792472025,1.990801269893732,2,0,526,246,8,8,0,,1497539,0
17952,2052,528.8639441293949,249.79335037339345,42,3888.071210579858,3804.071210579858,1.939532893494788,4,0,526,247,7,7,0,,1497539,0
17953,2347,528.8755987986593,249.7477998387652,49,3750.303153611394,3652.303153611394,2.0378041997121925,2,0,526,246,7,8,1,,1497539,0
17954,2357,528.6332228930121,249.33233016991943,49,3984.17497456765,3886.17497456765,2.015771943120076,5,0,525,246,8,8,1,,1497539,0
17955,2355,528.7100978857543,249.7595692161205,44,3525.712105798576,3437.712105798576,1.9757001062933857,3,0,526,246,7,9,1,,1497539,0
17956,2388,528.4869427548947,249.84540913028053,58,4774.226856561546,4658.226856561546,2.188251002808276,6,0,525,246,9,9,1,,1497539,0
17957,2035,528.3898712453953,249.5241839588137,48,3905.8346897253305,3809.8346897253305,1.996823391790984,4,0,525,246,8,8,0,,1497539,0
17958,2354,528.2392120721171,249.3919794189057,72,6306.689725330621,6162.689725330621,2.41831398670128,9,0,524,245,10,10,1,,1497539,0
17959,2055,528.6695850670649,249.79733386012748,44,3635.624109867752,3547.624109867752,1.9111144654096288,4,0,525,247,9,7,0,,1497539,0
17960,2040,528.4575407697674,249.53440497924424,48,3805.829094608342,3709.829094608342,1.932942547473753,5,0,524,246,9,8,0,,1497539,0
17961,2119,528.4459296230558,249.82919210653577,48,4016.8957273652086,3920.8957273652086,2.0309438496132133,5,0,525,246,8,8,0,,1497539,0
17962,2339,528.4265634193983,249.5196849171801,54,4392.198880976603,4284.198880976603,2.098235445338921,7,0,525,245,8,9,1,,1497539,0
17963,2022,528.3099172700839,249.3448146708044,59,5199.910986775178,5081.910986775178,2.195572396027315,8,0,524,246,9,8,0,,1497539,0
17964,2023,528.1557685175077,249.34025517118133,56,5017.95473041709,4905.95473041709,2.1847087797268,8,0,524,246,9,8,0,,1497539,0
17965,2043,528.1504471085765,249.2286878959332,47,3798.795523906409,3704.795523906409,1.969270979013928,3,0,524,245,8,9,0,,1497539,0
17966,2041,527.0835638013579,249.2547873219904,72,4974.433875890132,4830.433875890132,3.3970525526495625,5,0,518,245,15,10,0,,1497539,0
17967,2067,527.9245843142519,249.67050815892705,41,2921.333163784334,2839.333163784334,1.936854649869605,1,0,525,246,7,8,0,,1497539,0
17968,2037,527.7322814720635,249.8213128548004,55,4351.826551373347,4241.826551373347,2.071747549637556,3,0,524,246,8,9,0,,1497539,0
17969,2014,527.837507957869,250.34224621930272,54,4659.58494404883,4551.58494404883,2.093501210012397,6,0,524,246,8,9,0,,1497539,0
17970,2049,527.6436068387969,250.05208155596867,57,4894.877924720244,4780.877924720244,2.2307487169910547,3,0,524,246,8,10,0,,1497539,0
17971,2012,527.7193370624773,250.77370728545915,42,3097.7756866734485,3013.7756866734485,1.9389548844567293,0,0,524,248,8,8,0,,1497539,0
17972,2017,527.4902134276941,250.9772886151498,49,3532.5406917599184,3434.5406917599184,1.933691426587533,1,0,524,248,8,8,0,,1497539,0
17973,2025,527.1594513451878,250.89979365113493,67,5488.537131230925,5354.537131230925,2.432763045486015,6,0,521,247,11,9,0,,1497539,0
17974,2046,527.4298906774898,250.8913003201664,64,5161.35503560529,5033.35503560529,2.32628531219453,3,0,521,247,11,9,0,,1497539,0
17975,2029,527.1589656148566,250.985839745798,70,5550.331129196339,5410.331129196339,2.695374677973858,6,0,520,247,13,9,0,,1497539,0
17976,2027,527.6694685304973,250.93492487301083,52,4101.566632756867,3997.566632756867,2.05309908073229,1,0,524,247,8,9,0,,1497539,0
17977,2044,527.4728529230033,251.0034968612636,61,4623.096642929807,4501.096642929807,2.413181541801895,1,0,521,247,11,9,0,,1497539,0
