frame,label,x,y,area,raw_lum,lum,gyrad,n_sat,n_255,bx,by,bw,bh,tier,ws_neighbor,particle,match_frame
1227,2645,464.9953286656593,241.44340497572875,80,6484.866734486268,6324.866734486268,2.6923294814775494,6,0,460,237,11,10,0,,279679,0
1228,2685,464.8414301330433,244.003476021343,116,10008.402339776196,9776.402339776196,3.269569266247383,13,0,459,238,12,16,0,,279679,0
1229,3187,465.24460460921296,245.26303841625628,92,8052.208545269582,7868.208545269582,3.0503981279467416,6,0,460,240,12,12,1,,279679,0
1230,3255,465.0542735232007,247.9862057745516,128,10933.298067141404,10677.298067141404,3.41881215826969,11,0,460,242,13,16,1,,279679,0
1231,3186,464.8701694679976,249.23119342183395,116,10215.86063072228,9983.86063072228,3.364529949697062,14,0,460,243,12,17,1,,279679,0
1232,3165,465.0171249284231,251.0004028898183,116,9757.835707019329,9525.835707019329,3.2498258621081773,11,0,460,245,11,16,1,,279679,0
1233,2626,464.7631625075402,251.7720887003505,81,7390.892675483215,7228.892675483215,2.835182911519149,5,0,460,247,10,11,0,,279679,0
1234,3178,464.4722590006597,254.20920512285684,88,8142.431841302137,7966.431841302137,2.8323555579822712,11,0,460,248,12,13,1,,279679,0
1235,3209,464.8096999958829,254.61185303450625,86,8055.09460834181,7883.09460834181,2.879190027891548,8,0,460,249,10,12,1,,279679,0
1236,2670,464.62542162852935,255.42171908528343,91,8425.403865717191,8243.403865717191,2.940944635485223,5,0,460,250,10,12,0,,279679,0
1237,3212,464.4654769697663,257.23672901260863,89,7964.562563580876,7786.562563580876,2.904330533234916,9,0,458,252,12,11,1,,279679,0
1238,2719,464.7677252985965,257.14401322882105,92,8678.91403865717,8494.91403865717,2.806681902779961,14,0,460,252,11,11,0,,279679,0
1239,3206,464.3645003940749,259.4035669669946,101,9760.551373346898,9558.551373346898,3.1688729491891534,11,0,458,254,12,12,1,,279679,0
1240,2662,464.7233750548211,260.3994809370458,85,8116.198372329604,7946.198372329604,2.795843394823327,11,0,460,256,10,11,0,,279679,0
1241,2732,464.7458384740425,260.686073174206,87,7634.424211597152,7460.424211597152,2.7409047507727733,7,0,460,256,10,11,0,,279679,0
1242,2671,464.7045952092784,261.5607184919604,99,8748.17497456765,8550.17497456765,2.9914300812053622,13,0,460,256,11,12,0,,279679,0
1243,2674,464.9283427604835,263.5751314455408,104,9645.272634791454,9437.272634791454,3.021320439265069,13,0,460,258,12,12,0,,279679,0
1244,3262,465.46022310075466,263.6917125480351,93,8821.883519837233,8635.883519837233,2.8404409191125555,15,0,460,259,14,11,1,,279679,0
1245,3252,464.84065982416377,264.4785366921714,106,9508.467446592063,9296.467446592063,3.114113672399794,13,0,460,258,12,14,1,,279679,0
1246,3269,464.6658891264004,266.1695110121606,111,10054.661749745675,9832.661749745675,3.268668887793785,13,0,460,261,11,16,1,,279679,0
1247,3239,464.9778039655723,267.0740685598704,111,9070.567141403866,8848.567141403866,3.331151066643929,10,0,460,262,12,16,1,,279679,0
1248,3234,464.8836768556766,267.3557474734483,85,7944.766531027467,7774.766531027467,2.821348213908604,8,0,460,263,11,10,1,,279679,0
1249,2715,465.1721762856898,267.9124016642302,83,7971.938962360122,7805.938962360122,2.8873646243279176,7,0,461,263,11,11,0,,279679,0
1250,2689,464.9867435457511,268.5198842775314,91,8186.879450661241,8004.879450661241,2.955880237320844,8,0,460,263,11,12,0,,279679,1
1251,2679,464.9216991716088,269.9177643379498,80,6634.278229908444,6474.278229908444,2.85009179856238,3,0,460,265,11,11,0,,279679,0
1252,3238,465.0752852645381,270.778064931272,91,8432.768056968463,8250.768056968463,2.906397817137653,10,0,460,265,11,11,1,,279679,0
1253,3263,465.39186226766975,270.37541446479565,85,7918.14038657172,7748.14038657172,2.77017788922616,9,0,461,266,11,11,1,,279679,0
1254,3269,465.1524554997599,271.606835088108,117,10338.937436419124,10104.937436419124,3.3184323280700165,11,0,460,266,13,17,1,,279679,0
1255,3297,465.39614541323056,271.72244260602366,99,8960.061546286877,8762.061546286877,2.8912353829439423,13,0,460,267,12,11,1,,279679,0
1256,3306,465.43604586641726,272.746263594735,95,8662.601220752797,8472.601220752797,3.1624411220838367,8,0,461,267,11,16,1,,279679,0
1257,3332,465.1346329319217,273.49964624314003,107,9396.307222787384,9182.307222787384,3.1416799376842577,10,0,460,268,12,15,1,,279679,0
1258,3300,465.5489604289993,273.69360010388044,85,8429.752797558493,8259.752797558493,2.8016601812337374,11,0,460,268,12,12,1,,279679,0
1259,3319,465.5307435139004,274.0547496162923,91,8263.857578840285,8081.857578840285,2.9117553006516723,8,0,461,269,11,11,1,,279679,0
1260,3235,465.5941552499352,274.57939313909435,89,7470.459816887081,7292.459816887081,2.878295992180865,6,0,461,270,11,11,1,,279679,0
1261,3291,465.9365971801637,274.3092203822104,96,7957.540691759918,7765.540691759918,2.857265797376133,7,0,460,270,13,10,1,,279679,0
1262,3292,465.84158890442944,275.06427007055987,89,8431.691251271617,8253.691251271617,2.865680241536926,9,0,460,270,12,11,1,,279679,0
1263,3260,466.0182228396633,275.8243389409124,100,9507.732451678534,9307.732451678534,3.005145810762076,13,0,460,271,13,11,1,,279679,0
1264,3302,465.5856546082582,276.056824834664,86,8303.246693794506,8131.246693794506,2.9145218818499434,7,0,460,271,12,11,1,,279679,0
1265,3356,465.2326497621597,277.27654370289366,78,7430.805696846389,7274.805696846389,2.816173764870731,3,0,460,272,12,11,1,,279679,0
1266,3318,465.5590133605369,277.0606250725579,83,7001.457782299084,6835.457782299084,2.8599495516682363,3,0,460,272,12,11,1,,279679,0
1267,3287,465.4862491178733,277.572087897444,103,9191.23499491353,8985.23499491353,3.1574923560440338,7,0,459,272,13,12,1,,279679,0
1268,3310,465.9417140620456,277.46480932811835,93,8969.086469989827,8783.086469989827,2.9530261488830085,10,0,460,272,12,11,1,,279679,0
1269,3309,465.9563477249526,277.6812313704029,86,8389.068667344862,8217.068667344862,2.82912216914395,11,0,461,272,11,11,1,,279679,0
1270,3327,466.1596758601098,278.0068624116715,87,8263.201932858596,8089.201932858596,2.834120796435785,11,0,462,273,10,11,1,,279679,0
1271,3287,466.0277037489374,278.15605221976244,85,7656.506612410987,7486.506612410987,2.7340253880181846,9,0,462,273,10,11,1,,279679,0
1272,3309,466.5522052247588,278.49783955048247,95,8644.96439471007,8454.96439471007,2.871463341076717,12,0,462,273,11,12,1,,279679,0
1273,3262,466.7558143221737,278.5087545742287,85,8085.237029501526,7915.237029501526,2.8143271129002225,11,0,462,273,10,11,1,,279679,0
1274,3307,466.7359022515147,278.8598828280993,82,7881.751780264497,7717.751780264497,2.839610547254935,4,0,462,274,10,11,1,,279679,0
1275,3274,466.5799020231615,279.011666742431,94,8805.93031536114,8617.93031536114,3.064987172159652,7,0,462,274,10,12,1,,279679,0
1276,3221,466.7456552220694,279.0864363464635,84,8423.689216683622,8255.689216683622,2.8766803721463483,11,0,462,274,10,12,1,,279679,0
1277,3269,466.6191989017154,277.8401391874232,89,8151.804679552391,7973.804679552391,2.9457749691255515,6,0,462,273,11,11,1,,279679,0
1278,3224,466.7946930704118,275.73022213515674,102,8350.336724313327,8146.336724313327,3.076358250214445,7,0,462,270,11,17,1,,279679,0
1279,3134,466.9954331518816,272.47157183106634,85,7840.57477110885,7670.57477110885,2.754207036368178,12,0,462,267,11,12,1,,279679,0
1280,3173,467.28574480397145,269.23802411688183,101,9352.553407934893,9150.553407934893,3.1600133499593706,9,0,462,264,12,13,1,,279679,0
