frame,label,x,y,area,raw_lum,lum,gyrad,n_sat,n_255,bx,by,bw,bh,tier,ws_neighbor,particle,match_frame
4042,1863,516.8509494417647,253.31442429048823,71,5084.826551373347,4942.826551373347,2.46131373011672,6,0,512,249,12,11,1,,590277,0
4043,1892,517.6526322295773,253.0774153227985,78,5554.725330620549,5398.725330620549,2.63187395079086,7,0,513,249,14,10,1,,590277,0
4044,1936,517.33168622006,252.81010375511443,81,5859.177517802644,5697.177517802644,2.6432728851759144,9,0,512,249,14,9,1,,590277,0
4045,1872,517.3307636410096,252.5128907840836,60,4458.81485249237,4338.81485249237,2.302305828789568,4,0,513,249,10,8,1,,590277,0
4046,1880,518.1432620221343,253.1301038381613,85,5368.319430315361,5198.319430315361,2.987506442270727,8,0,514,249,13,14,1,,590277,0
4047,1872,516.7130552741896,252.061267495044,53,4029.3346897253305,3923.3346897253305,2.1004356180594046,6,0,510,249,12,7,1,,590277,0
4048,1875,517.6786818409596,251.59378398613129,67,4524.0350966429305,4390.0350966429305,2.501923015427856,5,0,514,248,12,10,1,,590277,0
4049,1908,517.3830957422858,252.0922647967272,59,3515.5625635808747,3397.5625635808747,2.194320657471676,3,0,514,249,10,9,1,,590277,0
4050,1854,517.6064426059557,252.5718192818767,65,3620.4491353001017,3490.4491353001017,2.6590465905667986,4,0,514,249,13,10,1,,590277,0
4051,1842,517.55079851027,252.61832926709783,61,4205.122075279756,4083.122075279756,2.2388762761182632,2,0,514,249,10,10,1,,590277,0
4052,1904,517.3749833106345,252.79250141575,49,2792.4837232960326,2694.4837232960326,2.137911904102926,2,0,514,250,10,8,1,,590277,0
4053,1830,517.2403342289765,253.2880545343241,56,4037.29043743642,3925.29043743642,2.116543650405214,4,0,514,250,10,8,1,,590277,0
4054,1845,517.3137261932499,253.18388486538748,59,3645.783316378434,3527.783316378434,2.3897807963713933,3,0,514,250,9,9,1,,590277,0
4055,1910,517.533142103688,253.458307003846,80,5278.788402848423,5118.788402848423,2.684774293958585,5,0,513,250,14,10,1,,590277,0
4056,1874,517.7388736802079,253.2734192442079,100,6624.2441505595125,6424.2441505595125,2.889771570598409,7,0,513,249,14,11,1,,590277,0
4057,1904,517.3928326025589,253.43078977235376,88,4688.745676500508,4512.745676500508,2.799159047812053,4,0,512,249,14,12,1,,590277,0
4058,1919,517.3390952156278,253.33362337090625,87,5666.29501525941,5492.29501525941,2.6973447646290123,6,0,512,249,14,10,1,,590277,0
4059,1886,518.0036767252814,253.53985655044303,90,5719.628179043744,5539.628179043744,2.84292407879118,6,0,513,249,14,10,1,,590277,0
4060,1904,517.8840312948074,253.56000620407136,79,4922.439471007121,4764.439471007121,2.643253507180285,2,0,514,249,12,11,1,,590277,0
4061,1890,517.9135040061379,253.51540652299303,73,4465.68056968464,4319.68056968464,2.63563230883049,1,0,514,249,13,9,1,,590277,0
4062,1866,517.9853552849823,252.53448726161773,91,6029.59003051882,5847.59003051882,3.004736969373741,3,0,513,248,17,10,1,,590277,0
4063,1861,517.7390352790237,253.34612593525392,105,7189.350457782299,6979.350457782299,3.023836825010973,5,0,512,248,15,13,1,,590277,0
4064,1889,517.6210983526937,252.76188734330185,86,5663.674465920652,5491.674465920652,2.7094994839019138,4,0,514,248,13,10,1,,590277,0
4065,1919,517.0804049959146,253.091473882785,75,5018.098168870803,4868.098168870803,2.570936593762404,5,0,513,249,15,9,1,,590277,0
4066,1876,517.0172879196234,252.47774392141096,89,6310.276703967447,6132.276703967447,2.7638252353689814,9,0,512,248,14,10,1,,590277,0
4067,1919,517.1008234449783,252.980448671809,83,5338.895727365209,5172.895727365209,2.801612598048244,6,0,513,249,15,9,1,,590277,0
4068,1894,517.0338319665702,253.1013931774181,71,5025.946083418108,4883.946083418108,2.4330614100634707,6,0,514,249,11,9,1,,590277,0
4069,1927,517.0744450937353,252.8232954906165,68,5087.672939979655,4951.672939979655,2.3834101780364416,6,0,514,249,10,9,1,,590277,0
4070,1902,516.9000761738724,252.5503459696173,75,5106.911495422177,4956.911495422177,2.5677147643697262,6,0,512,248,14,11,1,,590277,0
4071,1881,516.8028505821411,252.56672699152776,70,5087.46541200407,4947.46541200407,2.3185583529077607,7,0,513,249,10,9,1,,590277,0
4072,1893,516.8927897937843,252.9422567771116,105,7291.031027466938,7081.031027466938,2.8309220387708467,8,0,512,248,15,11,1,,590277,1
4073,1852,516.6048287228714,253.3733884341196,63,4311.960325534079,4185.960325534079,2.3018319554227054,4,0,513,250,11,8,1,,590277,0
4074,1902,517.0732039673462,252.77047862680345,83,5604.346897253306,5438.346897253306,2.5825236719695925,6,0,512,248,13,10,1,,590277,0
4075,1879,517.3074671227427,252.67628109898973,78,4685.612919633774,4529.612919633774,2.7395141197699657,4,0,514,249,12,11,1,,590277,0
4076,1913,516.9054257976697,252.74253303963025,82,5821.525432349949,5657.525432349949,2.624037739206063,7,0,513,249,13,10,1,,590277,0
4077,1714,516.0802738703228,252.97583085670576,66,4835.474567650051,4703.474567650051,2.365028013204728,3,0,512,249,10,11,0,,590277,0
4078,1892,516.3338399672789,253.32953854205155,106,7207.859613428281,6995.859613428281,2.865474629298023,9,0,512,248,13,13,1,,590277,0
4079,1887,516.0491847337906,252.90001939408788,71,4983.112919633773,4841.112919633773,2.4793435612292307,5,0,512,249,11,11,1,,590277,0
4080,1874,516.5828058954694,252.85776763337367,88,6418.2258392675485,6242.2258392675485,2.6416424481237155,9,0,512,248,13,10,1,,590277,0
4081,1905,516.1499314798742,252.84201702710223,77,5547.077822990845,5393.077822990845,2.441419101677572,8,0,512,248,12,10,1,,590277,0
4082,1896,516.4449034986804,252.952252590204,80,5887.468972533062,5727.468972533062,2.5782223317635173,6,0,512,249,13,9,1,,590277,0
4083,1890,516.3636716422959,253.021982064432,81,5413.296032553408,5251.296032553408,2.744338457519675,7,0,512,249,14,11,1,,590277,0
4084,1858,516.3884286995881,253.0371557768385,83,5743.504577822991,5577.504577822991,2.549759367486628,5,0,512,248,12,11,1,,590277,0
4085,1862,516.7275418694653,252.98882644584504,94,5939.899287894202,5751.899287894202,2.8958385717364963,6,0,512,248,14,12,1,,590277,0
4086,1887,517.0955755805429,253.11539915384748,101,6990.531536113937,6788.531536113937,3.1414280230983067,7,0,512,249,16,10,1,,590277,0
4087,1849,517.0994730693117,253.13098609880367,90,5674.621566632757,5494.621566632757,3.09286976346211,6,0,513,249,17,11,1,,590277,0
4088,1919,517.1260008157803,253.50215484330624,71,4273.535605289929,4131.535605289929,2.5630797399025056,5,0,514,250,13,9,1,,590277,0
4089,1848,517.1410273877744,253.63852102586395,79,4980.205493387589,4822.205493387589,2.748415524132131,4,0,512,250,16,9,1,,590277,0
4090,1867,517.652104458331,253.85965544850973,116,7046.417090539165,6814.417090539165,3.228323201449503,7,0,512,249,18,12,1,,590277,0
4091,1880,517.236849454861,253.49136229777463,104,7051.875890132248,6843.875890132248,2.985358363186728,9,0,512,249,18,12,1,,590277,0
4092,1873,517.9226564143864,253.92592654676983,91,5492.2319430315365,5310.2319430315365,2.9802579372990934,4,0,513,250,16,11,1,,590277,0
4093,1840,517.966910050113,254.27041669717187,122,7058.706002034588,6814.706002034588,3.333388730809525,8,0,512,249,18,12,1,,590277,0
4094,1855,518.1306076875784,254.1772243390528,124,7480.670396744659,7232.670396744659,3.3942884203986323,9,0,513,249,18,12,1,,590277,0
4095,1911,517.5809258253861,253.57065435430133,121,7551.261444557478,7309.261444557478,3.312192154100431,10,0,512,248,16,15,1,,590277,0
4096,1843,517.4940880892606,253.8211240462757,96,5539.53509664293,5347.53509664293,2.960225708207957,6,0,514,249,15,12,1,,590277,0
4097,1855,517.5257032949285,253.57953592302283,107,5470.489827060021,5256.489827060021,3.357391924075253,6,0,513,249,13,15,1,,590277,0
4098,1855,517.1970615738475,252.77074656926047,82,4703.488809766022,4539.488809766022,2.90859241855258,4,0,513,248,15,12,1,,590277,0
4099,1860,517.7824397394955,253.423995427971,106,6110.845371312309,5898.845371312309,3.356092454045046,5,0,514,248,13,16,1,,590277,0
4100,1864,517.7609657487252,253.55160143034703,120,6597.151068158698,6357.151068158698,3.694784112576917,7,0,513,248,17,18,1,,590277,0
4101,1886,518.2663681541673,253.4286369523855,86,4270.638351983724,4098.638351983724,3.0719652667067763,1,0,514,250,16,10,1,,590277,0
4102,1918,517.9136584250998,253.3218352249027,115,6095.876398779247,5865.876398779247,3.580670686931491,7,0,513,248,18,16,1,,590277,0
