frame,label,x,y,area,raw_lum,lum,gyrad,n_sat,n_255,bx,by,bw,bh,tier,ws_neighbor,particle,match_frame
14959,1313,509.18810167910624,290.95266526412763,27,1329.5172939979657,1275.5172939979657,1.7741460496411583,0,0,506,289,6,8,0,,1158422,0
14960,1361,509.2576637816691,291.3794834233186,32,1494.442014242116,1430.442014242116,1.9276113644132715,0,0,507,289,6,8,0,,1158422,0
14961,2818,509.11542783711104,291.3647223214916,41,1930.004069175992,1848.004069175992,2.157361209010308,0,0,506,288,6,10,0,,1158422,0
14962,1322,509.6970980196071,292.3519806084432,39,1770.0228891149543,1692.0228891149543,2.579780214113975,0,0,508,289,5,9,0,,1158422,0
14963,1341,509.34462919861113,291.3771685883634,30,1137.4898270600204,1077.4898270600204,1.907100027890362,0,0,507,289,5,8,0,,1158422,0
14964,1339,509.47268739204736,291.7033478832872,33,1556.942522889115,1490.942522889115,2.196442714593505,0,0,507,289,5,8,0,,1158422,0
14965,2793,509.2513682968002,291.52492332307247,35,1818.446083418108,1748.446083418108,1.8544709044838457,0,0,506,289,7,7,0,,1158422,0
14966,2768,509.04780684059295,291.1422731942177,28,1444.8189216683622,1388.8189216683622,1.5735542880797142,0,0,506,289,6,6,0,,1158422,0
14967,1343,509.3174142675893,291.39781967784404,27,1275.6754832146491,1221.6754832146491,1.5918865217177105,0,0,507,289,5,7,0,,1158422,0
14968,2808,508.8937291654333,291.82306056084155,22,996.6856561546288,952.6856561546288,1.3772274424496802,0,0,507,290,5,5,0,,1158422,0
14969,2818,508.9488846594369,292.0765141935017,22,1194.6134282807732,1150.6134282807732,1.372157016392814,0,0,507,290,5,5,0,,1158422,0
14970,2799,508.7983007952482,292.4320861927235,29,1777.0864699898268,1719.0864699898268,1.5101561909670966,1,0,506,290,6,6,0,,1158422,0
14971,2820,508.5450953510267,292.99585635116654,33,1738.5564598168871,1672.5564598168871,1.6376745555299614,0,0,506,290,6,7,0,,1158422,0
14972,2819,508.53175222588817,292.99707964499163,34,1974.0768056968463,1906.0768056968463,1.6440806952356612,1,0,506,290,6,7,0,,1158422,0
14973,2797,508.78111035021794,293.1344868194456,34,2185.951678535097,2117.951678535097,1.6551213668158546,1,0,506,290,6,7,0,,1158422,0
14974,1298,509.2634717243546,293.2040368313204,25,1440.9537131230927,1390.9537131230927,1.513348308810154,0,0,507,291,5,6,0,,1158422,0
14975,2739,509.2422696518893,292.97697022613045,26,1590.4043743641912,1538.4043743641912,1.552714815727125,0,0,506,291,6,5,0,,1158422,0
14976,1282,509.283458217415,293.43490430505244,19,719.0798575788403,681.0798575788403,1.4208845986498375,0,0,507,292,5,4,0,,1158422,0
14977,1301,509.0940523425319,292.9656261435451,24,1060.5661241098678,1012.5661241098678,1.4789503789525795,0,0,506,291,6,5,0,,1158422,0
14978,2734,508.78132345787145,293.63532276032856,34,2253.222278738555,2185.222278738555,1.6837232393374877,1,0,506,291,6,6,0,,1158422,0
14979,2714,508.88864194947,293.84718900786964,33,1778.9847405900305,1712.9847405900305,1.6584453744141254,0,0,506,291,6,7,0,,1158422,0
14980,1297,509.17998025146863,293.49603628767625,19,1016.854526958291,978.854526958291,1.3472635339839414,0,0,507,291,5,6,0,,1158422,0
14981,2761,508.8435709604143,293.935848720023,38,2292.489318413021,2216.489318413021,1.7255531491907792,1,0,506,291,7,7,0,,1158422,0
14982,1340,508.5174668638752,293.5970929127874,19,819.1648016276704,781.1648016276704,1.2783836961575263,0,0,506,292,6,4,0,,1158422,0
14983,2772,508.67685822662486,294.1175051233017,29,1373.8021363173957,1315.8021363173957,1.5622518244576984,0,0,506,292,6,6,0,,1158422,0
14984,1326,508.54467629895817,293.97989011854185,24,923.8662258392676,875.8662258392676,1.447490198970915,0,0,506,292,6,5,0,,1158422,0
14985,2809,508.4445785353383,293.83157476133414,29,1437.6607324516783,1379.6607324516783,1.5261089165947783,0,0,506,291,6,6,0,,1158422,0
14986,2730,508.5239822548599,293.4456600498699,31,1959.9308240081384,1897.9308240081384,1.5457595594668103,2,0,506,291,6,6,0,,1158422,0
14987,2747,508.3555731513687,293.7321234103577,30,1595.039165818922,1535.039165818922,1.514497332084456,0,0,506,291,6,6,0,,1158422,0
14988,2760,508.1815609462471,293.32739756640893,31,1641.027975584944,1579.027975584944,1.5935382064726673,1,0,506,291,6,6,0,,1158422,0
14989,2784,508.2669641739545,293.2445971259379,46,3259.022380467956,3167.022380467956,1.948950856912326,2,0,505,290,8,8,0,,1158422,1
14990,2772,508.3176834371955,293.0697361595184,34,1866.8606307222788,1798.8606307222788,1.6323412844733236,1,0,506,290,6,7,0,,1158422,0
14991,2781,507.9358020887241,292.72314340053526,36,2271.412512716175,2199.412512716175,1.692083682426532,1,0,505,290,7,7,0,,1158422,0
14992,2705,507.72943033737766,292.7353407793243,34,2146.4847405900305,2078.4847405900305,1.6786749495209137,0,0,505,290,7,7,0,,1158422,0
14993,1344,507.8258331280701,293.0047046861468,21,968.4938962360122,926.4938962360122,1.484972667108171,0,0,506,291,5,5,0,,1158422,0
14994,1323,507.6580821595484,293.007349463516,24,1288.3896236012208,1240.3896236012208,1.5011084635401843,0,0,505,291,6,5,0,,1158422,0
14995,1281,507.72168840940975,293.4416166110974,22,1097.7965412004069,1053.7965412004069,1.4702080542466578,0,0,506,291,5,6,0,,1158422,0
14996,1353,507.71189490497767,293.34506372852627,27,1560.3763987792472,1506.3763987792472,1.5292522137733366,0,0,505,291,6,6,0,,1158422,0
14997,2761,507.459656573858,293.5340777653359,32,1710.2212614445575,1646.2212614445575,1.6767263893738675,0,0,504,291,7,6,0,,1158422,0
14998,2836,507.8825682796104,293.67992107654,28,1391.821973550356,1335.821973550356,1.646638972972009,0,0,506,291,5,6,0,,1158422,0
14999,2751,507.8370846733391,293.0380619827886,39,2257.427772126144,2179.427772126144,1.7573537553248293,1,0,505,290,7,7,0,,1158422,0
15000,2777,507.85424312932304,293.52772558466137,30,1635.6164801627672,1575.6164801627672,1.6461802680894817,0,0,505,291,7,6,0,,1158422,0
15001,1346,507.61000855167583,293.1615463078397,24,987.35503560529,939.35503560529,1.6083916733576733,0,0,505,291,6,5,0,,1158422,0
15002,2815,507.49609623171887,293.04564895387256,31,1702.9089521871822,1640.9089521871822,1.7244004121174228,0,0,504,290,7,6,0,,1158422,0
15003,1354,507.3552077793162,293.0451320059172,26,1181.106307222787,1129.106307222787,1.6464259941023842,0,0,505,290,5,6,0,,1158422,0
15004,1343,507.2110135478238,293.22913676254154,24,1063.787385554425,1015.7873855544252,1.571421379513999,0,0,504,291,6,5,0,,1158422,0
15005,1364,507.1715722573983,293.4501401759106,23,898.4496439471006,852.4496439471006,1.5469001207302389,0,0,504,291,6,5,0,,1158422,0
15006,1321,507.3775579066703,293.5972313264954,29,1577.5244150559513,1519.5244150559513,1.6109350594588996,0,0,504,291,7,6,0,,1158422,0
15007,1298,507.05739501655165,294.14661198680625,24,1026.1027466937946,978.1027466937946,1.5783747047972765,0,0,504,292,6,5,0,,1158422,0
15008,1364,507.2841152409746,293.81700922232665,24,1001.0427263479144,953.0427263479144,1.6863416740486104,0,0,504,292,6,5,0,,1158422,0
15009,1303,507.0054712067896,294.0082940881068,25,1136.440488301119,1086.440488301119,1.6095197863892752,0,0,504,291,6,6,0,,1158422,0
15010,2799,506.6913432142824,294.41492184242134,33,1871.105798575788,1805.105798575788,1.660104076507962,2,0,504,291,6,7,0,,1158422,0
15011,2751,506.5014056196465,294.2954484306771,29,1364.9613428280772,1306.9613428280772,1.6050411776796791,0,0,504,291,6,6,0,,1158422,0
15012,2809,506.3117532810192,294.23573019683363,35,1846.8382502543232,1776.8382502543232,1.7857515644136523,1,0,503,291,7,7,0,,1158422,0
15013,2797,506.7420085030358,294.443377934108,33,1642.1637843336723,1576.1637843336723,1.7240047671541292,0,0,503,291,7,7,0,,1158422,0
15014,2763,506.2285499411468,293.9877779257721,34,1500.7950152594103,1432.7950152594103,2.2457121502017587,0,0,502,290,8,7,0,,1158422,0
15015,2754,506.7211827066424,294.1757160473377,29,1381.8158697863685,1323.8158697863685,1.737708964583491,0,0,503,291,7,6,0,,1158422,0
15016,1353,505.8972946300107,293.757708143256,37,1603.9272634791455,1529.9272634791455,2.33877612048436,0,0,502,290,8,7,0,,1158422,0
15017,2801,506.20959436370384,293.9546117331042,47,2449.174465920651,2355.174465920651,2.308844867670542,0,0,502,291,8,7,0,,1158422,0
15018,1349,505.90106013221794,293.78947894131807,34,1430.943031536114,1362.943031536114,2.0506793457866057,0,0,502,291,8,6,0,,1158422,0
15019,1324,506.7520344680007,293.60296741093333,38,1949.11495422177,1873.11495422177,2.0525946982963568,0,0,502,291,8,6,0,,1158422,0
