id,dv,sigma_dv,mono,sigma_mono,area,r,sigma_r,q,sigma_q
8717,0.0002939343467611916,1.6487958746141796e-05,32.72403701568599,17.577526735499752,1278.7776,3.5416582772358416e-06,1.504531809526935e-06,87,48.89224058405118
8718,0.0002846911127146426,1.1680242033543879e-05,40.973216005662955,12.520417004517206,1278.7776,4.102222288236285e-06,1.3255073170909997e-06,106,35.77725191758422
8719,0.0003253542207948847,1.3652366018009615e-05,32.7583088208327,12.626711952559447,994.6048,3.5440821319257415e-06,1.2313359043973988e-06,97,39.916169989566804
8722,0.000257829075770044,2.046616238969875e-05,293.8644745055157,55.732590106074795,7104.32,1.4868447278189339e-05,6.159130922552774e-06,692,169.35006918250826
8215,0.0002948691537399211,1.726713581823826e-05,68.87165823194518,23.12679512972035,1989.2096,5.760116570159452e-06,2.093059941823366e-06,185,67.88170554776045
10785,0.0003153656281936731,2.0725841837384876e-05,40.603027099472975,22.216806795978783,1562.9504,4.0779599331706144e-06,1.7873721899292524e-06,117,66.34288406298374
8741,0.0004246596102715631,1.5446109038412225e-05,34.37912485654802,19.555499375237133,1136.6912,3.6577316994208107e-06,1.6233761826604184e-06,133,78.09288993566497
9768,0.00021940883935243604,2.1873082346727607e-05,24.221771871909972,20.938364514808757,1136.6912,2.909426104908341e-06,1.7641398081659267e-06,48,42.760712765224696
8236,0.0003828860873371945,1.9566417942376385e-05,49.63598892050401,26.021793355971553,1847.1232,4.6500907539058945e-06,2.0198229931373494e-06,173,94.35530346491451
9788,0.00036826573107273664,2.267757748737142e-05,586.4398840491364,113.18360883834728,14350.726400000001,2.3355759317907435e-05,1.0856669323531868e-05,1974,477.73142621354947
8257,0.0003766376152482572,1.5676783173535803e-05,63.44615552242516,22.317011841605073,1847.1232,5.459341650391384e-06,1.99423996293396e-06,218,82.59803143474646
12354,0.00045846153846153855,2.6132315317674904e-05,15.865905197599654,11.763654357646786,710.432,2.206556939319079e-06,1.1527354300954955e-06,66,50.22376756397884
8263,0.00028662264340272096,2.2846456341089372e-05,101.69021421569552,25.128391000613497,2841.728,7.430957052729386e-06,2.6454957775415574e-06,266,77.64862915749583
8264,0.00036876540221922126,1.3034411400828446e-05,15.835318724227156,10.41506067994007,568.3456,2.20377573194808e-06,1.0402842181227981e-06,53,35.862951351962536
11343,0.0003577911396225474,2.134757670772405e-05,16.52461819428713,9.30310946643793,568.3456,2.2660105227235354e-06,9.462346098446008e-07,54,31.423159541083066
9312,0.00031388405741441356,1.49150205889108e-05,19.04858086241036,10.993000205200623,781.4752,2.4866181921877635e-06,1.0682292591580086e-06,54,32.46553022320217
9826,0.000349024133571034,1.759865504755668e-05,18.67767091304718,13.028277905854281,852.5183999999999,2.4548641761888024e-06,1.2265744424678907e-06,59,42.415819222346094
11878,0.00038196782785776144,1.2182471220379954e-05,59.691621407113075,19.37246159582359,1705.0367999999999,5.245963723727123e-06,1.8412423565906585e-06,208,73.35306975690466
9337,0.00019961096267042983,1.8222247745157982e-05,36.51092015434953,27.288166894688118,1420.864,3.8044242809170296e-06,2.081391396905183e-06,66,50.932479781954996
8317,0.00037057665475257807,2.4596359843155395e-05,504.3060520269147,84.30361273841596,12077.344000000001,2.1162373291019926e-05,9.510960371626932e-06,1708,381.4898526616522
9858,0.00039440225741932346,1.5486690474426645e-05,49.01968394452276,20.871977435284673,1562.9504,4.6122720011041286e-06,1.7759060866733593e-06,176,79.10787523595278
9352,0.00029634677723951256,1.7761670461337146e-05,71.89927400744402,21.77786187861833,2131.2960000000003,5.924381467090965e-06,2.0930745758150004e-06,194,65.4322672408238
8841,0.00030014801170595107,1.0191315427802363e-05,123.59963623816999,34.99722882401499,3125.9008,8.441683880396075e-06,3.203882387905267e-06,339,106.61917046018048
8343,0.0003473732727359226,2.417747354250358e-05,112.2403398908501,37.18415517879026,2983.8143999999998,7.926185563847601e-06,3.091260805750877e-06,356,129.54786459667602
9370,0.00034160035882475746,1.2793154756127902e-05,51.54661090124699,22.032535639349156,1562.9504,4.76631378125813e-06,1.8502337900883888e-06,160,72.27550836249907
8346,0.0002867222409312707,1.6002947569767118e-05,32.3648952030511,18.53708729348965,1136.6912,3.516205032101099e-06,1.5606752078762159e-06,84,50.091020995817196
8859,0.00019598573005127052,2.3991886736559835e-05,9.749429485716401,8.182081730008205,568.3456,1.605052424984229e-06,9.218289979297282e-07,17,14.993314814799492
8864,0.0003489540901516572,1.1354560819505176e-05,19.528323822091412,11.557201819905824,852.5183999999999,2.5273736947929586e-06,1.1088816507636438e-06,62,37.831601145114035
9898,0.00030371594717456754,1.3733302600801564e-05,38.40888382160715,29.880499343639922,1562.9504,3.9325463696254415e-06,2.2276794201220513e-06,106,84.28992679292254
9388,0.00013219092795690922,1.6057455273229678e-05,16.91856591812297,16.47186616405031,710.432,2.3011746360183556e-06,1.5340892823037138e-06,20,20.240793675137283
8405,0.0003715961657264583,2.052251621297694e-05,52.73802347289287,34.0977982199384,1847.1232,4.8380319237062535e-06,2.428999116754093e-06,179,118.64218397608263
9944,0.00034659915608068213,3.967618029792702e-05,47.643577499322575,29.287502133039546,1420.864,4.5272290256525256e-06,2.1768758267150526e-06,150,96.48096329932555
8921,0.00015088229921364285,2.8642497292250525e-05,89.42962280362238,55.784674291149514,3267.9872000000005,6.8324368292817355e-06,3.4914265845888882e-06,123,82.06663813490884
12510,0.00029536793968572614,1.5094530934903139e-05,17.908486980808856,10.737885960093719,568.3456,2.388307973975259e-06,1.052998570988559e-06,48,29.793653916459707
8417,0.0002785870112092007,1.5385457372932153e-05,31.126988699384103,11.443954614683859,994.6048,3.427710959048034e-06,1.1543517198281035e-06,79,31.28260488922854
8933,0.00036479582688796365,1.7722501651997978e-05,23.342464173056058,23.576740656896536,852.5183999999999,2.839952762975519e-06,1.974227221007591e-06,77,79.38472539598598
8423,0.00040981236481743056,1.4645123599502555e-05,72.2947795406047,23.93364173850813,1989.2096,5.9456612251987156e-06,2.165660850272644e-06,270,97.04447690729396
8944,0.0003604874084662398,1.694642987805619e-05,27.263105271235077,18.786321715254022,1136.6912,3.1432730551344447e-06,1.5859994740496807e-06,89,63.18056644942323
12016,0.0005328678246949188,1.6813662392516417e-05,13.626006834421068,10.153127914349465,568.3456,1.9976296418744213e-06,1.0420042894372104e-06,66,50.275251967091684
8951,0.00033259159350256207,1.3568082414431578e-05,48.83216821064857,13.933865849316318,1420.864,4.600732717938045e-06,1.4940076484833505e-06,148,47.089821923338356
8443,0.00035282375170056566,1.5259049993191072e-05,57.923481118104725,24.579258254268893,1847.1232,5.143872213190182e-06,2.0183111759933268e-06,186,83.43388349005032
12031,0.00043975614485391724,1.4433245318625323e-05,11.115583754772683,8.160716633469209,568.3456,1.748692521519924e-06,8.940342126128812e-07,44,33.36702799262738
9482,0.0001292120025484656,1.9235421047383802e-05,18.21404905443644,12.982709520389657,852.5183999999999,2.4148640473132595e-06,1.2271786830442237e-06,21,15.922446628834301
12048,6.897126765382176e-05,2.265955031738251e-05,8.984447187771393,6.630417668283058,426.25919999999996,1.521579168723647e-06,7.764634860429987e-07,5,4.636984259201188
8465,0.0004012581601346835,1.1415249475436142e-05,26.570886021411955,9.498032140429576,852.5183999999999,3.090878431626475e-06,1.004427497151028e-06,97,37.25382369531789
12069,0.00037817583763152113,3.089362871462527e-05,888.122175691694,115.3737652787985,20602.528000000002,3.063401605314946e-05,1.4903971652170723e-05,3070,622.171199595404
11559,0.0002904853489102316,1.921488283243512e-05,1971.1923134305239,701.0095825033345,42057.574400000005,5.1584025627572926e-05,3.034432539690513e-05,5234,2016.1654341095923
8490,0.00037859625476091975,2.3243596460669156e-05,27.080841580227535,25.673069127338724,1420.864,3.129522519355163e-06,2.0652154109761453e-06,93,89.89803929364687
9004,0.00035123012532887576,1.85625370644379e-05,20.089829516908196,10.677478077024103,852.5183999999999,2.574637267943543e-06,1.0434381746777547e-06,64,35.49354030449354
8493,0.0005089966144438729,1.714363632298356e-05,23.99031701330743,9.576388278725066,852.5183999999999,2.8912250073050692e-06,9.857841183476818e-07,111,47.09381813159088
9545,0.00020813214198068763,2.074693000773825e-05,10.208787397660828,7.652743659042734,568.3456,1.6540849930696543e-06,8.591059586385757e-07,19,14.911685852357296
7500,0.0003283641842362441,2.027862350135743e-05,225.12563064572356,53.928441267051234,5541.3696,1.2491949750031402e-05,5.080937055304266e-06,675,189.58929434922175
12108,0.0004184885031834694,2.032194470907341e-05,8.447136497211432,6.032369859284076,568.3456,1.4614705824100035e-06,7.230033211168358e-07,32,23.522635379714842
12109,0.0003755878927946265,1.5050685327843367e-05,16.22534967033194,14.650309766410698,568.3456,2.2391031428549866e-06,1.3926481012159291e-06,55,50.88688142459705
9045,0.0003583892499601531,1.3892067219096141e-05,46.20877279876202,20.606399729197506,1420.864,4.437647204452444e-06,1.7394375467420564e-06,151,70.66466454095806
10086,0.00019356801602019312,1.783001054794483e-05,39.08110970146676,22.1934102502073,1562.9504,3.9773958820769135e-06,1.7818076007482523e-06,69,40.823272442169326
10101,0.00026002221092559605,2.1567281257665224e-05,22.507816642103727,13.861453257492213,852.5183999999999,2.773164328146836e-06,1.2662790017330789e-06,53,33.991364327522135
8567,0.0003527952038495888,3.725116415895763e-05,30.517324442010505,21.121426046516277,1136.6912,3.383680799766918e-06,1.724360555670733e-06,98,70.12601872632713
8574,0.00038199355292632865,1.7927155458590147e-05,20.940268783530733,15.610756809377667,852.5183999999999,2.6453593714934672e-06,1.404854096648267e-06,73,55.47074281899808
8578,0.0003454652122180145,1.1910446273420226e-05,102.69627418298688,36.97733045759574,2699.6416,7.478925591553835e-06,2.958583650566221e-06,324,124.91545256794582
11653,0.0003894530971552469,1.5284851672113775e-05,20.970846355135663,14.94637155917678,852.5183999999999,2.647883457834497e-06,1.354446706181515e-06,74,54.20021392954336
9612,0.0001201847178631191,1.5475446168209017e-05,15.846392523084953,10.295718750477993,568.3456,2.204782879723517e-06,1.0303202088309052e-06,17,11.759409681002928
8592,0.0002489955313115083,1.7422622703259484e-05,81.59774977558645,46.684490283833014,2415.4687999999996,6.4351763191751215e-06,3.091347401250664e-06,185,109.83929210123343
9621,0.0002838075807140554,1.2549974704157751e-05,13.449324551680279,6.426332207294238,568.3456,1.980661749094165e-06,7.201004396887814e-07,34,17.368858547521423
12187,0.00021074427769374575,1.6934089871450536e-05,8.01427914732461,8.396545729774761,284.1728,1.4120779613928405e-06,9.935699512367705e-07,15,16.35163299754293
10145,0.0003926855393573857,5.1840540523075644e-05,2746.345521752181,387.44781995229357,60244.6336,6.406930143654163e-05,3.674455077425365e-05,9858,2308.786271974866
8616,0.00037503192242465343,1.6479430065973555e-05,84.22530231292846,29.472949221590795,2415.4687999999996,6.569870180986479e-06,2.4983366106335217e-06,288,108.7701677437199
8618,0.00041507902388116175,2.058010152822068e-05,78.41111282420682,37.819133018332884,2557.5552,6.26978851553332e-06,2.7229896985509273e-06,297,149.5347185466683
8620,0.0003381698604502982,2.5256967092879638e-05,55.150687341081195,52.28315319579796,2131.2960000000003,4.981569202415576e-06,3.3753065240716984e-06,170,163.68897985092337
11695,0.0003576496247301649,2.9923734560718432e-05,95.18193610596094,25.956893857453103,2699.6416,7.116566056910625e-06,2.560397655017599e-06,311,97.85656871500503
8634,0.00040629854852412275,2.3779318285492943e-05,27.23135266631083,28.177477138006292,1420.864,3.1408798365706723e-06,2.241066891439978e-06,101,105.67367115158325
12222,0.000258070096971509,1.6002646073029816e-05,9.958282756457251,7.57369689595093,568.3456,1.6274427727640508e-06,8.556187526700531e-07,23,18.19421530308232
8639,0.00021630085945805288,1.897005137443469e-05,25.77639436397049,16.30573151066168,852.5183999999999,3.030156199670696e-06,1.4248342748596236e-06,50,33.241198424011614
8641,0.00030650416587194387,1.276918752361517e-05,49.300677139655555,14.778320743563524,1420.864,4.62953508905946e-06,1.531255668574324e-06,138,45.62744870408934
9165,0.00015535903008637302,1.3704263151285955e-05,24.597186115663874,14.614043235649348,852.5183999999999,2.9388202866744494e-06,1.313158639474942e-06,34,21.485669512058802
8668,0.00020095284623647535,1.4504252004124854e-05,15.323004197005375,16.967531156076074,639.3888,2.156910750439734e-06,1.615706493153919e-06,28,31.456753141865757
10718,0.0002498499010267782,2.2029579133822355e-05,22.679264685513015,11.033085109064922,852.5183999999999,2.7869526666064076e-06,1.071369281731255e-06,51,26.511532887835568
8672,0.00019311897074704852,1.3846547975785115e-05,43.662902880647586,19.218977836127564,1420.864,4.276284686738642e-06,1.6532524430290076e-06,77,35.8576828251798
8685,0.00020277421823705939,1.3707060455951481e-05,22.617370695594797,8.123074440330042,710.432,2.7819791547124205e-06,8.872356381498357e-07,41,16.295338938064447
12270,0.00023827153673116328,2.0836385257464214e-05,17.3777101876457,9.816744456655458,568.3456,2.3418023290798816e-06,9.836554669135716e-07,37,22.209220260336135
7667,0.0003475974708829898,5.585090088390314e-05,69.20999661376761,70.74789876426965,2983.8143999999998,5.7785957076122005e-06,4.208669094871453e-06,219,229.41761653192765
8700,0.00044056524328800326,1.9283428168558322e-05,17.74761423727341,10.403080742792309,568.3456,2.3742636644300494e-06,1.0277505270091678e-06,71,43.065637063236565
8191,0.00026505590512907015,1.6152045082479722e-05,14.619942594281289,14.384729723399857,568.3456,2.0917028273020532e-06,1.402981204109953e-06,35,35.23407828181852
