frame,vx_p_mean,vy_p_mean,vx_n_mean,vy_n_mean,vx_p_median,vy_p_median,vx_n_median,vy_n_median
419.0,0.08370149926631015,-0.05135398161963977,0.07317885222993643,-0.23429866182280581,0.03123778159010726,-0.025436275095245264,0.06685607782372927,-0.2350442396436847
420.0,0.06375307393248958,-0.12999674650469753,0.08935823438425783,-0.3309267800539925,0.031258121441055664,-0.12145681373193895,0.07476487562063028,-0.3335735219485514
421.0,0.09782830467646335,-0.1081756060877391,0.06856504701394768,-0.35578572218538496,0.07802616550429775,-0.1292864522124546,0.07877919875409134,-0.3569436396458059
422.0,0.07349840579905274,-0.2184049052398655,0.1489458149419738,-0.42012115279728024,0.05469558212899983,-0.1747940250156148,0.12368774766525803,-0.3596276630383137
423.0,0.09501535371198783,-0.19227783851271812,0.13210201655813894,-0.393659582835206,0.09521152603423388,-0.1947899592361324,0.10175571374178105,-0.3878319019707135
424.0,0.11930142220409395,-0.21404540663001467,0.12969369120274002,-0.3953255307622398,0.06273203490826518,-0.2097047640169052,0.09257131072098446,-0.3907555210327587
425.0,0.16840668069736692,-0.22839528893579555,0.1036369835181735,-0.4260016047925558,0.08728677238224236,-0.21272866254807354,0.08622955829216039,-0.41339963491807197
426.0,0.14315421327723024,-0.2081980684796229,0.11928357611467305,-0.43908842957141253,0.12852300487673674,-0.19820227976912008,0.09003268351743543,-0.4281174783165511
427.0,0.1384825508775009,-0.2421093436349922,0.11595621132501979,-0.4209112615135643,0.11991921448387188,-0.23973496064178335,0.10830556723390572,-0.42787912387956695
428.0,0.1286049481126798,-0.20902280010056146,0.20073883826259284,-0.4674982316167431,0.1054211535957279,-0.21448933300540318,0.15166041639258765,-0.46610645561062825
429.0,0.1727678080171069,-0.283046491992783,0.13255015266795467,-0.42692947387366825,0.12481754097484554,-0.2601973034891927,0.09098376935409647,-0.43020903453373194
430.0,0.0886968029725637,-0.2015001991208016,0.1367230511080953,-0.5057237561603571,0.053143695863639095,-0.18059701440191134,0.08675181863876524,-0.5170713482594067
431.0,0.16588566722129772,-0.23731747580367435,0.14631025491490995,-0.45066934600062075,0.1182268550226695,-0.24392266215011205,0.128108113515907,-0.44551359002200286
432.0,0.13841980220594505,-0.2548172313265148,0.09909174642731623,-0.4485971425271641,0.08560076538137196,-0.23172845121679586,0.10083422293894273,-0.43307168101398474
433.0,0.11727818193815205,-0.18910669145395712,0.14706579002270953,-0.416936053239628,0.08071942037826996,-0.20562540032317145,0.12451424077454476,-0.38566690533461667
434.0,0.13617684039908753,-0.28136284750602125,0.1673694757672904,-0.4154556558152383,0.12079080680405241,-0.29673613268910515,0.11783520791794899,-0.39599362312034714
435.0,0.14006978521523836,-0.2453320287048484,0.13670196161565792,-0.4456698725208554,0.09465394656180592,-0.1980192133137848,0.10168615145042281,-0.47604589783128404
436.0,0.14293360714918382,-0.21930945697728546,0.16578370174481802,-0.4236602451761765,0.1506950818216808,-0.22634901704371657,0.11635213864951766,-0.42057191788900283
437.0,0.16322052279810542,-0.2390044121632319,0.15689145907088453,-0.4139206789508469,0.13778639681453342,-0.2465106921236213,0.11933953309110734,-0.412041904099425
438.0,0.12816591682918044,-0.26254579680533735,0.17017609814740559,-0.4444291531746517,0.111884101720932,-0.2663272226672291,0.17049714082602208,-0.4668796251460492
439.0,0.09037322712852697,-0.2567910832234614,0.10637526655159837,-0.42683974676490555,0.09101423109518691,-0.2365903240012841,0.09347856076152539,-0.43808353070791384
440.0,0.12143151160575953,-0.2156385060604647,0.155239386456748,-0.4271163241518576,0.06924567963392292,-0.19630597192656296,0.11738483991081239,-0.4397083295548043
441.0,0.16592169477225324,-0.18873567791229184,0.1594066218106489,-0.4513780248554768,0.09088914486159183,-0.1768960992480615,0.1487205964263012,-0.43484235403062144
442.0,0.15055394931682062,-0.2095789780183838,0.10577304536900749,-0.444494914734862,0.11153793836686532,-0.22484475180010577,0.09184577099230751,-0.44725018919629633
443.0,0.1315035575031872,-0.20809819838959884,0.17825771129157128,-0.44537668721705626,0.11206720272582515,-0.21898413001773065,0.15209183087335276,-0.4470580935242978
444.0,0.12280916045270329,-0.27865810630986887,0.1348629479381842,-0.4161813216182247,0.10104819069482573,-0.25374448380128456,0.0955680693087615,-0.43379464669628476
445.0,0.10576842651925965,-0.18729456159844224,0.09924165755133355,-0.4306816441278658,0.035403464623460223,-0.1941072218750577,0.09771634349471015,-0.4502932295593638
446.0,0.15669374787753912,-0.2388085629784739,0.15453114418830954,-0.4418112829812363,0.12066815461315628,-0.2579335427784315,0.12691570793498386,-0.4414458731080835
447.0,0.1251791495389236,-0.1841255151093921,0.13080004797208547,-0.43586322256022875,0.10489760467368114,-0.18585509236811504,0.09304510862469328,-0.4405654351699866
448.0,0.1597187941858053,-0.21906170560989488,0.13964781871087398,-0.4275843101740474,0.12261485694796193,-0.2080117825603338,0.14714781678429745,-0.46630467942344467
449.0,0.12450557438894239,-0.19562301993869383,0.15120024943844457,-0.44527463425453645,0.08632780650236782,-0.18969710338512868,0.1269832055930351,-0.4690539305006496
450.0,0.12322721886602134,-0.21813501462562912,0.16384047522605003,-0.4154070480094278,0.10799208288798923,-0.2283876829278313,0.14056737164766986,-0.4065888705646472
451.0,0.15527411310012224,-0.20713595562443332,0.13282572403347623,-0.45508409995073096,0.10736523734101411,-0.20471650301846012,0.08998014373594287,-0.44287465934836945
452.0,0.12295054541292263,-0.22808862513414374,0.15196544710549836,-0.4616379625085321,0.08775618141748964,-0.20840295525613328,0.10879220782339871,-0.46988402771035
453.0,0.14467204629259692,-0.2036128828175426,0.15522743350621118,-0.40544989627795613,0.07680060241770548,-0.22528664232886442,0.13954866663982557,-0.39629835777256517
454.0,0.1387764619440504,-0.23756123439115412,0.14641772068096048,-0.4722277904444303,0.11447257169430713,-0.24622706185806464,0.1133923489998665,-0.4944801376730368
455.0,0.14275232949184896,-0.24390611651041147,0.17558432522682668,-0.45582210180288685,0.10794172256734669,-0.23249630786693842,0.1422089885331843,-0.46262450701340185
456.0,0.1378860786367868,-0.21926393938374186,0.11955559900408991,-0.43742424708516275,0.09660004503780328,-0.1920099554272383,0.0833981107003865,-0.4342862597882231
457.0,0.1356478381957026,-0.20055194662286915,0.15466386591512069,-0.4472003841551362,0.10164526454106237,-0.20660311914842566,0.1233839588378487,-0.4277720678543915
458.0,0.09478906821204246,-0.26100650518930035,0.12102949317301386,-0.4561959651210739,0.09524396364176368,-0.24431415253926048,0.1297951255826888,-0.41543802118917483
459.0,0.11892189800609435,-0.20272485399028298,0.11302783530692129,-0.45281173543804837,0.08175962735521125,-0.19743771531557286,0.08580042469273508,-0.4822295399676477
460.0,0.12084627601147001,-0.24995745035616948,0.1153031372454787,-0.4435161471115971,0.08514310133469394,-0.2451366925593561,0.11530442218042936,-0.43956725794095064
461.0,0.0928143675575603,-0.17580071849513448,0.14894360944440677,-0.4647298028204043,0.07726679943380077,-0.18063953594179338,0.12497176385437214,-0.4447060279503887
462.0,0.14837978882439418,-0.17210156050873776,0.1792587889140044,-0.4474613588467849,0.11169830684309545,-0.16383823335661418,0.14947395331142843,-0.4348606924294529
463.0,0.1090061655230075,-0.2543588720272581,0.13985646487956327,-0.44033205483417714,0.05846852583712803,-0.2362240707522103,0.10310515472713178,-0.42750996342704184
464.0,0.11113505076593888,-0.18602494018842625,0.13403969202286206,-0.45907749237725587,0.06615921067668751,-0.1875166683209244,0.11201515865847966,-0.4484934953555637
465.0,0.12757641488282256,-0.22589205480431343,0.1820009534150682,-0.4544826094713135,0.08349518109491783,-0.2144019127318586,0.14013094585135377,-0.45410104975532306
466.0,0.11892891807991288,-0.21553661120735246,0.13227173966222378,-0.41933155122655935,0.07078195537127385,-0.21706908453457174,0.1104565930763215,-0.45796968068339794
467.0,0.11200752179617689,-0.2332198574806157,0.15901843464063795,-0.46104583703955393,0.08263704871359323,-0.20812907115313806,0.15207799938873734,-0.44864621832140905
468.0,0.13809305796477295,-0.3729504070468031,0.13126167740768882,-0.2674939608413896,0.13311040538081897,-0.35405030742424515,0.09868821697043018,-0.24846694755597554
469.0,0.11179883730138558,-0.4763135048056628,0.15343975622252398,-0.08284336297528905,0.08670234990461267,-0.48018291747769126,0.12116313971233694,-0.06613356911046253
470.0,0.10284061450415524,-0.47153694122867024,0.16441907794875413,-0.01731424697267798,0.07545489550210505,-0.4820118909589546,0.11461755244530991,-0.025680651127615306
471.0,0.11548422674235544,-0.46196434485867993,0.094983360968709,-5.170461459067654e-06,0.10005248596246474,-0.4477766971019008,0.075717084831183,-0.009955238996298021
472.0,0.1072050799952861,-0.4762920206778281,0.14076751482949892,-0.06504214864803971,0.08286594988769735,-0.456778277516392,0.11383404813767584,-0.031680233731322005
473.0,0.12155551410253856,-0.48792000860326873,0.11524359452011121,-0.046371238114053505,0.10015750822969949,-0.47763208418928116,0.101150610101854,-0.028543460038747526
474.0,0.10422205168172803,-0.4760808214355853,0.10480587395690222,-0.020510175588727794,0.09190436753936737,-0.4703584200191582,0.0652453324163389,-0.012076303812420974
475.0,0.11215004664842182,-0.5220576094157076,0.11764575422699457,-0.03759298824115972,0.06478466468553279,-0.48995361399596504,0.09563500824179982,-0.036920580843641915
476.0,0.10737685915345319,-0.4666561597924174,0.13428421296812604,-0.02044767878670737,0.08794390035558308,-0.4364591826218245,0.09964838925145614,-0.03476009098989152
477.0,0.16254880120146836,-0.4717603645287953,0.1409054971121662,-0.05949546539355541,0.12924519617902774,-0.47955783220614023,0.09129631427137497,-0.04963486359860525
478.0,0.12917254674209552,-0.4906910240673255,0.13836322966992848,0.0061152206777244835,0.10463756987297756,-0.45042436111296524,0.10377719089274251,-0.010073524472943518
479.0,0.12236545707178612,-0.46211171027859316,0.1283748997102042,-0.007583773230331526,0.09230343283138609,-0.4587244334379079,0.09189785772124992,0.0
480.0,0.13375512220518845,-0.48934993007965777,0.14142458226665572,0.014150750984318802,0.10366309739958979,-0.47694051782940505,0.10157530068680387,-0.01352496895762556
481.0,0.11181412336714962,-0.4701900226875259,0.11810728273628755,-0.0117498366013203,0.08114481428560794,-0.4677546501848866,0.08093206741676795,-0.023405991664390058
482.0,0.1591107184671406,-0.4930372113115627,0.11310991449243978,0.00424133501008052,0.13298531269317948,-0.49640395741378995,0.06121760330711368,-0.0029266032042869483
483.0,0.12044363932809128,-0.49271442639366264,0.10432615145356895,0.0035142044168939013,0.07562599767229017,-0.5081672277167968,0.08222533899424889,0.0
484.0,0.11882110939197962,-0.508712229904716,0.11064515544727267,-0.006032373488597843,0.10017873306384217,-0.4669687638272606,0.0939157492398408,-0.0363334404323723
485.0,0.11393020488196431,-0.4899817114076294,0.1248471159009988,0.000991988534759073,0.0890227078201633,-0.45812375146792306,0.10476859008741712,0.0
486.0,0.09257579392334907,-0.5312982026105729,0.12215735655641208,-0.018367521543796984,0.05671114935441324,-0.5037976408000944,0.07981440536710238,-0.03452972697985501
487.0,0.09681577375699209,-0.5073411538685769,0.1225273151908389,-0.005849569436151496,0.0725364920367042,-0.4912951165666577,0.08000968675924014,-0.013250002168149422
488.0,0.10920628104264536,-0.4723770159118641,0.11524916267107806,0.004097426765153417,0.0991968088902695,-0.46001976129045374,0.078983771396679,0.0
489.0,0.14307262257085088,-0.4697200705854913,0.14522508475936027,-0.014897416614154014,0.09723947091265472,-0.46034711365744485,0.11524137569006143,-0.02018991946150095
490.0,0.12345033863774986,-0.48205308110992373,0.1411136401850122,0.009261934935159725,0.08805869970399272,-0.4255551878700885,0.10514214607763961,-0.01899322194176989
491.0,0.14207174477932552,-0.4969160363739191,0.08104749713867279,0.0003024365577611715,0.09236564318690199,-0.46672116081444415,0.0610662497280714,-0.011726145583921266
492.0,0.10900987240350724,-0.4806034731654319,0.13053496656963995,0.011530114256898557,0.08714012756823308,-0.4578695946645226,0.11631351835350756,0.0
493.0,0.10466748369628878,-0.46744802819742876,0.11355817195542361,0.024143747040347857,0.09663114258501082,-0.46209342023132116,0.09261843177387163,0.0
494.0,0.12622240737481327,-0.490250934215845,0.1477452863113233,-0.0005725514649115031,0.06742827032782372,-0.5148560312472199,0.10119380892399477,-0.002277231250715772
495.0,0.11092002171001933,-0.5078616737400754,0.12100395575529964,-0.029303982114718304,0.1134319542482558,-0.4746755243149252,0.09342529611944883,-0.03154345447092055
496.0,0.09817892219908106,-0.47763607806230657,0.12869409311049734,0.033356464309166785,0.08922368887073162,-0.4426639185759811,0.10152365751284265,0.021037069325261934
497.0,0.13350792199967743,-0.5100933749268313,0.15160060417519008,0.006651844886450668,0.08640499864338835,-0.48298228696802425,0.12258361008707652,-0.030496201201003714
498.0,0.10082844379383332,-0.4719289036081189,0.14295857381742638,-0.04127725842009554,0.09131230031979953,-0.470147146914087,0.09311664905497707,-0.026636637693854937
499.0,0.11057354914442197,-0.4972351140014959,0.11410536471362345,0.003730617974257809,0.08105732325603299,-0.49638470954057623,0.10661337760041079,-0.003254605166489455
500.0,0.1393677676334779,-0.49117709533067716,0.13452642936837966,-0.008937994368940917,0.10111019780140396,-0.4804108883184597,0.09470707363004749,0.0
501.0,0.07536082920235464,-0.48619938579738203,0.11524707001598491,0.022560920180220385,0.06780696945349973,-0.44596923577753955,0.08575855736988558,0.0
502.0,0.11354780464883425,-0.5229435253220075,0.1228016509818354,-0.02681062727865113,0.07547347097920465,-0.48613040343171576,0.08444749189678191,-0.0053459414573922
503.0,0.10633547625220444,-0.48534731360529026,0.11197042111944566,0.023846596745480526,0.06641433554136711,-0.44692620766042523,0.08783005085133055,-0.0033796502034988407
504.0,0.160131696670357,-0.47432305436107974,0.11476862048589738,-0.010344091852964067,0.10325900297357293,-0.4909520898954156,0.06298820457760712,-0.004105078164855058
505.0,0.09759979254600754,-0.46329294151835654,0.1317973942618637,0.036144287507092684,0.08579868308899563,-0.4515947691079205,0.07642053675539273,0.0
506.0,0.11061171072128116,-0.48860389919096464,0.12207706405708628,-0.0016932442959582716,0.0838099164500683,-0.4389938910836406,0.0850104014478319,0.0
507.0,0.07164465065940366,-0.4401045739042551,0.12348547022175865,-0.001808850471867737,0.056496250335584364,-0.4353179374378442,0.09890639882173957,-0.010284270505785287
508.0,0.1377007352652899,-0.4694945060854389,0.122972193573423,-0.022593076687987785,0.10506327853704533,-0.4316903576257616,0.08538672600684549,0.0
509.0,0.11234150382738425,-0.45892219679079266,0.09634929754459753,-0.0016606861025589685,0.09099510037776781,-0.4590808674318936,0.08990887354491406,-0.0027732380065614848
510.0,0.12381057460823368,-0.4716674364231274,0.1253787611745561,0.03637506792294319,0.08339706606828656,-0.46085513946226797,0.08572638812593425,0.0
511.0,0.07888038549060318,-0.4694971224184768,0.08527075380921878,-0.025738965862981623,0.061065201629219246,-0.4268542187433013,0.05452926934805191,-0.014148849503726524
512.0,0.10353494766043449,-0.4223732334911591,0.1099628004605429,-0.04882019198986127,0.11250528577397745,-0.4120165540729914,0.09288730772652798,-0.06321296923418629
513.0,0.10208261625121308,-0.4759424155661899,0.14635305743986382,-0.0007127165698624278,0.07758617135588963,-0.44601357979239253,0.07700666382129384,0.0
514.0,0.13554386917416414,-0.43862354794350333,0.11649294710752879,-0.01633135547256782,0.11007364010248466,-0.40060900658794907,0.1066446660687781,-0.018794672735566564
515.0,0.13970155459172548,-0.45854780160776665,0.10265492022380052,-0.030977638307912343,0.09039098285757063,-0.41534426478081343,0.06787374409532276,-0.04037347912827727
516.0,0.1204206342598504,-0.416776484527653,0.11581559687831973,-0.04459281358167691,0.0913886543644935,-0.3890689697313263,0.07172090199520653,-0.022039907543899062
517.0,0.13525431415952635,-0.4636180800512165,0.09655294300978283,-0.021093030208760397,0.11756342373422513,-0.4240406021849594,0.06378152379795665,-0.018621731732849867
518.0,0.11051097777164233,-0.42020671806534604,0.1405185670333345,-0.0531780551799015,0.09069594792287461,-0.40791203193302294,0.08538505609725178,-0.011827290333904728
519.0,,,,,,,,
