frame,vx_p_mean,vy_p_mean,vx_n_mean,vy_n_mean,vx_p_median,vy_p_median,vx_n_median,vy_n_median
419.0,-0.066879166003471,-0.07780617957268156,-0.07058416216090985,-0.31375956511720454,-0.028940435873550996,-0.09178214976256527,-0.06550229480427561,-0.3349412161349079
420.0,-0.06317210687264369,-0.0875217793122028,-0.0276719308923638,-0.3924229151460882,-0.048021692218640055,-0.07531551299820194,-0.05820068772305831,-0.3887830610229912
421.0,-0.03071612122397553,-0.4145327047328635,-0.0902784101254387,-0.627067790710681,-0.021599052941098762,-0.43224144433549205,-0.061039671479420576,-0.6363587364010674
422.0,-0.05694865000053666,-0.4492922278722199,-0.03157558905733778,-0.6770257601911036,-0.05500295911872399,-0.45383197088621974,-0.04921694097635054,-0.6867605282141505
423.0,-0.05878513473794122,-0.425525581681083,-0.10582185328942567,-0.6934755034347637,-0.07016886195393113,-0.44556747066990954,-0.07165123601430423,-0.7038030758793663
424.0,-0.03345958566515873,-0.4210181171724195,-0.117049419171668,-0.6923997141461291,-0.034603718604671485,-0.45780324601731226,-0.12137120557477488,-0.6990565258936445
425.0,-0.04491907940745556,-0.46074945927268146,-0.08415095131734765,-0.7204860191218168,-0.023077948383786406,-0.4809415842501381,-0.07709115756594542,-0.731327457241504
426.0,-0.1252305408030845,-0.47835653703066117,-0.10252769947348737,-0.6779659849803253,-0.08495155108261088,-0.45498316121200943,-0.06365059822405783,-0.6902254752785062
427.0,-0.036677549568562354,-0.4945487178598087,-0.11624247275843975,-0.6990095545406398,-0.03358639645227868,-0.525805095406829,-0.0880134663317449,-0.7005472579652812
428.0,-0.06881635669023753,-0.4489941002689117,-0.1144579217497317,-0.7165566932912191,-0.07058235101908394,-0.46453369682760703,-0.09920314896999116,-0.7049752826216946
429.0,-0.09624153879940933,-0.48922731086088844,-0.08268986737902594,-0.7289896795856249,-0.06905021526176824,-0.47922271063876387,-0.06422435751643718,-0.7529405517497576
430.0,-0.08379701478249028,-0.4906599394177739,-0.16197097669910623,-0.7179748042401093,-0.07071909352569605,-0.4871337845931172,-0.13645036329990035,-0.7023571455964706
431.0,-0.06689491474141777,-0.5058885517535938,-0.044317871102839274,-0.7370137971180604,-0.041927423391598495,-0.5135576546030403,-0.06347534131849386,-0.7363049966550856
432.0,-0.078809383327735,-0.4913254516970965,-0.13267413061709946,-0.7327921138181027,-0.050661817254948005,-0.4662933535181155,-0.1004524308604573,-0.7435173682431158
433.0,-0.07736200445217244,-0.4749149979603315,-0.09990830373119206,-0.7281751230495668,-0.06632580635533714,-0.517873953465593,-0.06909580576154895,-0.7508073050536521
434.0,-0.03371514685470987,-0.4224858833228776,-0.0802545573934243,-0.7120074927889543,-0.024946960678107644,-0.46098220670660206,-0.07406345865510389,-0.7146600892307746
435.0,-0.08529804637348148,-0.5201837255090316,-0.08863073496529668,-0.7489759852319877,-0.05112308763989404,-0.5162974025177185,-0.07724072214301714,-0.7329305407918945
436.0,-0.09330775163287851,-0.4954913362689565,-0.10182471484111014,-0.7025315587540448,-0.079011850714096,-0.489346643433346,-0.06500314747385261,-0.6663076717355301
437.0,-0.10636744500200411,-0.495132489180357,-0.07928049596492949,-0.7634778408558662,-0.07343890323022606,-0.4940587364668927,-0.07484830704078149,-0.793431133977843
438.0,-0.034871560864546666,-0.4763018077606447,-0.10755474594791212,-0.7487506235587748,-0.031906710380553704,-0.4922469235328526,-0.09729958960340923,-0.7534728571489415
439.0,-0.10078671525332115,-0.47407981681980654,-0.05776873820917902,-0.6609412672775072,-0.07403007801065087,-0.4656213168134302,-0.04037527737943236,-0.6577600686482272
440.0,-0.036501104085773166,-0.5132679494695731,-0.10456950500967149,-0.7415722299151006,-0.03052676515062558,-0.5060505902694095,-0.08681476814405187,-0.7337320525104181
441.0,-0.05142355226044167,-0.46064841470395135,-0.10868474712557073,-0.7034597969305407,-0.030810709751335708,-0.45728802211339037,-0.07839011899818615,-0.7032418613864504
442.0,-0.10566728001661249,-0.49124947875395764,-0.13660607636721817,-0.737155173390803,-0.07896976186100346,-0.48266179723064173,-0.09534427852830163,-0.7229565199557095
443.0,-0.08428262355306393,-0.42543093678756216,-0.07210876235145806,-0.6831546089763313,-0.055870059788105664,-0.4263860356026452,-0.059041215935735636,-0.6739985155184467
444.0,-0.042759293522690776,-0.5115969093476707,-0.10520621179225602,-0.7561737113414907,-0.027642713214106607,-0.5290916274959088,-0.057233088014641,-0.7876354059551431
445.0,-0.08873283965057928,-0.4403896700393168,-0.10995572550560793,-0.6736687601416196,-0.05640881364905681,-0.4585693161614284,-0.0976748483537051,-0.6565352162583373
446.0,-0.057785337673173294,-0.5364187549907009,-0.10938947734936394,-0.7397868219974209,-0.05069187641544204,-0.561891528113966,-0.08577549036471055,-0.7333449132078425
447.0,-0.05075146702438352,-0.45531836645293633,-0.08103742370439214,-0.7358606804637491,-0.03713164929405366,-0.43342543915039755,-0.05956722248427582,-0.7223982944217013
448.0,-0.12270224299883051,-0.4666732893737643,-0.10464651820185503,-0.6658409323544594,-0.07174266067788437,-0.4792511348216424,-0.09212802983381607,-0.6504767548562898
449.0,-0.08990489926069911,-0.49822863734482603,-0.07191148466624475,-0.810441664152861,-0.07392842188698978,-0.4890242360725834,-0.061289370562974455,-0.7905535492161162
450.0,-0.09087063071604215,-0.4862780375454461,-0.09661173680466649,-0.7126077166300515,-0.053352645636607576,-0.5081608948963385,-0.051299319522200904,-0.696796276648076
451.0,-0.11889885956771877,-0.45657664165268386,-0.1273743783076714,-0.7615349330003972,-0.0881741494116568,-0.4805404499588626,-0.08885965570345888,-0.7682067658729963
452.0,-0.06100356037517523,-0.485913555082488,-0.04744675745070907,-0.7017556415223778,-0.04023493885205198,-0.4934410475069697,-0.05853251857203645,-0.6945476670440556
453.0,-0.026082867903808406,-0.44139555980160183,-0.09556858771835915,-0.6778907064740599,-0.01899973762630225,-0.4191665374585085,-0.08862734407341577,-0.6717162684964837
454.0,-0.07603435133492879,-0.4413755642443761,-0.11942763427078487,-0.6975646634619678,-0.05649541040634176,-0.4762087880213599,-0.09249756391193387,-0.673892526116596
455.0,-0.050403329259169086,-0.512454369528138,-0.0707471684525546,-0.7144984187517293,-0.025875258382711763,-0.4936231573073826,-0.060783841803981886,-0.7216324190036687
456.0,-0.09976407367651617,-0.47145760562012895,-0.08578125815696325,-0.7464707580497356,-0.059021753511956376,-0.5139113179492885,-0.058075953764273436,-0.7485180338173283
457.0,-0.07872228024011729,-0.4480541128700366,-0.10186798709264729,-0.6900207601434181,-0.08144083538579139,-0.45199581385686294,-0.054147839746889304,-0.6661128681182387
458.0,-0.11117372793984048,-0.4766166249305617,-0.09857338287101709,-0.7120393951937452,-0.10758396793590919,-0.47433702810174694,-0.07873264052483364,-0.707864595777
459.0,-0.12252066214135934,-0.5142204350074069,-0.12106861230035978,-0.7371389750076085,-0.09651794630261179,-0.5044802678831655,-0.06671529894779837,-0.7377714332208125
460.0,-0.07147375310079115,-0.4911021752732929,-0.06190824926808907,-0.7020882236313096,-0.05201281550284875,-0.5067983047806575,-0.07634747955796684,-0.6992686244161046
461.0,-0.08346243294258565,-0.46795061270497285,-0.08396787883706844,-0.6460605028766376,-0.06411565792107865,-0.44218501622721185,-0.06755970948677259,-0.6672962092174366
462.0,-0.07347331169860577,-0.47970762038435133,-0.1118400785895799,-0.7222258607115594,-0.0722172851149594,-0.4769080877538787,-0.09814177316434325,-0.7173996065193027
463.0,-0.10628808927318391,-0.49364185053588383,-0.08660461144540313,-0.6772509215055078,-0.08447431031018482,-0.5107800235569311,-0.06928300697535406,-0.6633484414246222
464.0,-0.041201271279291594,-0.46944071998400605,-0.11593575938943862,-0.7163668394463936,-0.04094511027409453,-0.4866349749193155,-0.10698544676637312,-0.7298526070086773
465.0,-0.04031885080846157,-0.4557557244973873,-0.09463410097670877,-0.6793203489134108,-0.03277959078252479,-0.44864728303998014,-0.0921571389888527,-0.7070831510224078
466.0,-0.08354494237335412,-0.4190159578681494,-0.1330715981122708,-0.6706338661842826,-0.033492604009438764,-0.44262633037945953,-0.10720964975462266,-0.669773113864883
467.0,-0.07428197512132495,-0.5268068484553303,-0.06593866097895258,-0.7199531748932511,-0.04885853283394681,-0.5232061496433449,-0.06656329194316868,-0.7135724806845776
468.0,-0.10051156606110326,-0.7022733539301541,-0.05334080989629091,-0.39486091471432005,-0.08069603412795345,-0.7158105070845444,-0.03600916161752821,-0.39949623018131675
469.0,-0.07302401932481603,-0.7576697891760638,-0.08238979098298,-0.3176828963037026,-0.047182909450754096,-0.7457850541654167,-0.08141216773310589,-0.3138296589137397
470.0,-0.08587778343610925,12.271859121786056,-0.06488627252213121,12.736387959198138,-0.08107985892917213,12.30133479802837,-0.06573478635004903,12.729762467249671
471.0,-0.09782834407368794,-0.7325314839906188,-0.11056502234692461,-0.28628639830257785,-0.06740825444137499,-0.7162941496475717,-0.09022409164452938,-0.2888053471635792
472.0,-0.06457911019309186,-0.7458821755909394,-0.10565186453569521,-0.26930065932460195,-0.060663722441177015,-0.737815978923213,-0.08186290631995519,-0.26096360548382785
473.0,-0.06759986054760223,-0.7784010742912374,-0.04660142112904617,-0.315774829938183,-0.0404745465783094,-0.7669855468748897,-0.03247175201954633,-0.3407744079161551
474.0,-0.031096126794936875,-0.7816110992059371,-0.07158276742248676,-0.2932682399186945,-0.036069919227571745,-0.7394943015688208,-0.04491468302626345,-0.29070888675789297
475.0,-0.07601353267493706,-0.7327662160349508,-0.05908279138153244,-0.3073251594441445,-0.059331624822561935,-0.7245289322448942,-0.04451273296395186,-0.3313451965766421
476.0,-0.08995393850107779,-0.8636132790455385,-0.052172577551329445,-0.34473511141431223,-0.07937588016778818,-0.8424618131555657,-0.0733997793238359,-0.35466536695700723
477.0,-0.06515715403786657,-0.8127484345035582,-0.08914366000838093,-0.3601756031619092,-0.05030302600980008,-0.7787540162025421,-0.06721426327248992,-0.3559176624175975
478.0,-0.03433583771856696,-0.8294517751127187,-0.08687925685785627,-0.3326440970417685,-0.040347362423915456,-0.8274149348003328,-0.04538261308618985,-0.33535940850698376
479.0,-0.05335308770982504,-0.8710396674287275,-0.08381745246618197,-0.33275109842287315,-0.04794082749508277,-0.8302972893355878,-0.03858866245241188,-0.33894822576755024
480.0,-0.0572505959591168,-0.8387216137640641,-0.11535978995570804,-0.3269799494880318,-0.0599575237361023,-0.809229702372178,-0.0794620447314216,-0.32492224662571756
481.0,-0.04879384774063502,-0.8497175391095141,-0.05763889401758948,-0.31815506349897693,-0.03170480714288715,-0.8089433238871888,-0.041919798734241454,-0.3298028707818159
482.0,-0.05376058538258309,-0.886845796893507,-0.07930208030368396,-0.338842236353339,-0.03954267826976832,-0.8734123539951923,-0.044461911174892066,-0.3300179157847669
483.0,-0.03666256862067673,-0.8819347508716786,-0.09343740199386648,-0.3527071510694785,-0.0336146690995065,-0.8411443567710744,-0.07461584880115879,-0.35241886166802017
484.0,-0.05386396874441603,-0.866498498729816,-0.0625969057208748,-0.35650913467210466,-0.04109629398632819,-0.8684070615665211,-0.042714952078938495,-0.3492976279753508
485.0,-0.05883027153603345,-0.8409502965708194,-0.07120599920035753,-0.31118875814595576,-0.0440890508274947,-0.8024816722986552,-0.0631453643582347,-0.33114164827392134
486.0,-0.06553374179621076,-0.8403210074513882,-0.060807818929210965,-0.32296480037220315,-0.05492787532304533,-0.8095842100948198,-0.051796529524722246,-0.34604033906379517
487.0,-0.03205179893189042,-0.8558873055713,-0.07085941065751108,-0.36528088401723335,-0.03547052159922259,-0.8153692502020746,-0.06098197564523389,-0.3608201068058321
488.0,-0.07784924724698869,-0.85005696602582,-0.03786528746749574,-0.3078285405820507,-0.028846516307169168,-0.8368326742442962,-0.036320713204389676,-0.34368618060454015
489.0,-0.06694312742860252,-0.8735410145827096,-0.09272235758080444,-0.3551208028501641,-0.04238614011040909,-0.8252492547953105,-0.07432622374631137,-0.35297341468980026
490.0,-0.038196071957128847,-0.8376016793752514,-0.07118298233493438,-0.3185030122453948,-0.039257397661771165,-0.7920673836986039,-0.05485442208123459,-0.31589586144260107
491.0,-0.06266502817185823,-0.848856639893161,-0.07294275754164176,-0.3486024051314958,-0.04538188967217138,-0.8247173482537624,-0.04379448820446896,-0.34806670862895484
492.0,-0.06725563807960354,-0.8240237780704457,-0.08092737748801601,-0.3063317293298502,-0.045170871119580625,-0.8136178111704799,-0.07290185322477782,-0.3463639281769195
493.0,-0.07176742246436468,-0.8880824117510236,-0.08274446347954267,-0.3459353145216009,-0.07359851051205624,-0.8161789573377485,-0.04796446745228877,-0.34226577947732384
494.0,-0.04697345183990042,-0.840177500330508,-0.09635591100499216,-0.3122283041534494,-0.023443898858204193,-0.8076813278012116,-0.045444685849929556,-0.3486429084959388
495.0,-0.06305709483266897,-0.8477088236654117,-0.08988943857847437,-0.36112757073965107,-0.04778853040454578,-0.8025413568747561,-0.047229932426375854,-0.3878005349981217
496.0,-0.06170946146163393,-0.8663551856717507,-0.062000677969363746,-0.3187332601051213,-0.04101893621106001,-0.8615144442741407,-0.04792053368774418,-0.3171664567110408
497.0,-0.07406500937564608,-0.7820952069909827,-0.09173445061609072,-0.35598826895543006,-0.07350691153908429,-0.782396255001359,-0.052350403308935256,-0.3424212679803418
498.0,-0.06878302664224689,-0.8746996720243554,-0.051231237744906,-0.3745748249987393,-0.041512142338206104,-0.8473194521231893,-0.03609398801813768,-0.39016326385272926
499.0,-0.025441397932378762,-0.872264630324478,-0.06375370525312286,-0.32813782035050365,-0.02721874650023892,-0.8301888907374781,-0.05433117769030105,-0.35869752928717347
500.0,-0.026286162814890417,-0.8637661297834944,-0.045247793056511054,-0.3552561870428447,-0.04926668126327627,-0.8302599489823272,-0.051857710065377205,-0.34464269700445627
501.0,-0.06481244173462539,-0.8052261591680303,-0.10465263304581067,-0.3593349039599269,-0.024751741303973063,-0.7827055076601876,-0.0737328010753231,-0.3381853942364881
502.0,-0.09535691342456107,-0.8342587942282139,-0.07804664515410374,-0.33184544594684157,-0.049598543491526925,-0.8128542459036989,-0.06613584548404106,-0.35207216002627284
503.0,-0.0282995834299248,-0.8121651053681258,-0.0980772131783924,-0.3095277103400519,-0.014165784300843143,-0.7922898144696919,-0.07109950783535623,-0.33140756881264544
504.0,-0.05706897546850695,-0.8462341152592093,-0.10726746039540358,-0.30741348690728526,-0.05993978847436665,-0.816777232433906,-0.0776108914079714,-0.33006177789650337
505.0,-0.05321479487635041,-0.823423671469949,-0.04846842262998948,-0.3491215054063595,-0.014146051954753602,-0.7798371328622729,-0.02196937720491121,-0.378000504934068
506.0,-0.06918397264224979,-0.8587004846868722,-0.048286288696284374,-0.34010591915073785,-0.055157983747363915,-0.8345288091876277,-0.040426152037866814,-0.3390855084574085
507.0,-0.04283065633444166,-0.8303349959005937,-0.11833441089207147,-0.35687857062473294,-0.01848165367724164,-0.7943450860822754,-0.0935673158624013,-0.3643318010519092
508.0,-0.08053380522892595,-0.8075807039432815,-0.059330722872682956,-0.3202117271834203,-0.04103932214792394,-0.7711261889033949,-0.03571019353091742,-0.306601988808481
509.0,-0.019245902260910355,-0.8117871427618661,-0.10373885175211058,-0.3396302751442803,-0.029847129772605285,-0.7898915983355899,-0.06582432080480771,-0.3643411996856578
510.0,-0.0915942638546913,-0.8076443548123842,-0.07377154406831966,-0.31799651034250614,-0.05589867522326131,-0.813570799706202,-0.05578894040195337,-0.3366508774297081
511.0,-0.035755049595809094,-0.8595748196646857,-0.052125437879414795,-0.33147561095207406,-0.012706682413721637,-0.8196618216517013,-0.04903668512332615,-0.3116173148581485
512.0,-0.04651641553843915,-0.8348660226163918,-0.03532666884686401,-0.33520453998676564,-0.028429036344221004,-0.8080325901943368,-0.028728034704215588,-0.32762910774574294
513.0,-0.07514431209995323,-0.8221679850255096,-0.06263340231529183,-0.3369248112099478,-0.027130863427061058,-0.7628325120788233,-0.04846409602970425,-0.3428325327105526
514.0,-0.02692743624177787,-0.7895392309440548,-0.07821336821890093,-0.3328620653678118,-0.01908276637828976,-0.780802987522371,-0.042826841794635584,-0.32765276986930303
515.0,-0.039404230029400765,-0.7642313966537164,-0.07673604184565545,-0.3112442578693501,-0.043768171949068346,-0.7424296235104659,-0.034801270484807745,-0.3436834621536118
516.0,-0.07814605570013528,-0.7869782855068927,-0.05991230345415547,-0.3518107472913519,-0.056996026001684186,-0.7745916987073524,-0.020511413382337196,-0.3537427782607221
517.0,-0.04419159302847495,-0.8036375606683923,-0.07036547619165862,-0.3616986099974131,-0.03085639481741964,-0.8282542193559355,-0.08537922192309111,-0.3679230561170872
518.0,-0.010928534409571627,-0.820665969866092,-0.06744021610345062,-0.4463892554288821,-0.019473192070392997,-0.8105326253316605,-0.03695660548339674,-0.4223700802451802
519.0,,,,,,,,
