frame,vx_p_mean,vy_p_mean,vx_n_mean,vy_n_mean,vx_p_median,vy_p_median,vx_n_median,vy_n_median
13424.0,0.034051757871883345,0.00630216918000732,0.020704410494862272,-0.21299699065222083,0.006715557330494448,0.0,0.0039830908903581985,-0.20042512298653037
13425.0,-0.0027730031202877013,0.006333325043787281,0.04232778933074821,-0.22491555768070323,0.0018449361365071582,0.0,0.037025090663235005,-0.22027717696033733
13426.0,0.030776958831468564,-0.049402460543316234,0.012434673751154694,-0.2701729061673419,0.007348319499612899,-0.0273324167274982,0.012872388721234529,-0.27776683982949635
13427.0,0.016342701397434056,-0.04585088696881688,0.008213867230321352,-0.33673112500694413,0.004632669704577097,-0.04775277451053839,0.010732267535324524,-0.31068919107300985
13428.0,0.03417800151150413,-0.10156885606284392,0.02829816410213553,-0.2765059579102395,0.01810003556698092,-0.060659745295616574,0.017586151351068224,-0.29638652205186133
13429.0,0.02653986351853999,-0.036297365190978176,0.02926101654582457,-0.33233988703278416,0.017634090826049942,-0.020566838401634868,0.002157267693291942,-0.3378405183814266
13430.0,0.012283507324570914,-0.026697886783469623,0.040963294765266924,-0.3450649815877083,0.007015161181584517,-0.02168999590104903,0.025363194179874426,-0.3571371528128111
13431.0,0.010659871853978849,-0.059936483049730524,0.013599567685638608,-0.3712509837670044,0.013850781682322122,-0.04438323076485062,0.0016382527861651397,-0.3668916607520032
13432.0,0.04423803658511492,-0.0610168441104414,-0.0013751676902754228,-0.356258077906464,0.04803155413486593,-0.06422763198807502,0.003780027552863885,-0.34510060378363505
13433.0,0.05792518280639699,-0.055162901282733275,0.05315696048913201,-0.33961742167401365,0.024775092781467833,-0.048407518662713755,0.03140608062146555,-0.3191918205648303
13434.0,0.033640332995024405,-0.05487710698841021,0.009494002504983296,-0.33870365160728777,-0.0009537372798718025,-0.03953302742992487,0.021947501080922693,-0.3353406914899608
13435.0,0.0066155505566391,-0.0755209251718324,0.04484527372275279,-0.33357431906271123,0.0050179960600473805,-0.07981539361441037,0.021374752582687506,-0.3107140193132807
13436.0,0.013567372541285172,-0.03815305379167359,0.01365322202736574,-0.33652502528511047,0.00907749105842015,-0.038484268718665726,0.015185318691877114,-0.3437722169623214
13437.0,0.020400776651790145,-0.11103818078340662,0.041828952572471996,-0.35390294478649176,0.012956379513454408,-0.09402982146620786,0.01915153121979074,-0.36238370337071046
13438.0,0.01026386945598003,-0.05207756764071671,0.02417860849675651,-0.3090332382877701,0.0,-0.06322507786720166,0.002825561215900052,-0.3133938929796045
13439.0,0.04006196269077376,-0.0930067688146696,0.01733744949070714,-0.3664318901003884,0.006601057658713216,-0.095357459538576,0.005037312532053306,-0.3639960832858975
13440.0,0.044878104939030945,-0.09116577887797193,0.013969680658943669,-0.35385222372310554,0.021271508054041988,-0.09046025758515697,0.017091486571644054,-0.3593327203710146
13441.0,0.04405011489586415,-0.08632164687039857,0.04643069188827231,-0.3525210966379902,0.023436630096625777,-0.06301989887577975,0.014102448942168166,-0.35373074953116657
13442.0,0.007829567769648287,-0.08295798522279442,0.0026975667333042673,-0.3788843585965381,0.008084499062224637,-0.09426355393843622,0.008470758761177422,-0.3834952030752561
13443.0,0.05287526070816609,-0.07744138228579991,0.04870243111044551,-0.3361077277577733,0.027705839437061286,-0.06812073181183109,0.019387162692172666,-0.3286530951014086
13444.0,0.0108875455274312,-0.05496912003753503,0.0030868820330065415,-0.37229070603001574,0.006055786116078821,-0.07507880276446599,0.008536223158671419,-0.36837218164674823
13445.0,0.01699900328838985,-0.08426069155562982,0.03525951845351676,-0.3434447930354623,0.00856918963154385,-0.0918599983519357,0.02795867407564856,-0.327585973238115
13446.0,0.023198578321980252,-0.03568054520282602,0.01779608748888414,-0.3558952789490035,0.01745973754213992,-0.052774473583681925,0.002241532625546938,-0.3321265201227277
13447.0,0.038690601821581544,-0.09115763103697057,0.039556126951106295,-0.3748588055305085,0.024393857303266486,-0.07471973826416445,0.018174688508139525,-0.36527254838551926
13448.0,0.03668312576602085,-0.057371021281827105,0.010278735939542429,-0.3348108420068607,0.014200173534447913,-0.04358551340294525,0.019661022702223363,-0.35341309983002134
13449.0,0.0330684719037215,-0.04900182506519689,0.03233570428139179,-0.33266941679365947,0.01186405190884443,-0.060350061499924834,0.011423565366129651,-0.2827431693160811
13450.0,0.04606445604010736,-0.06342614590748749,0.06681486968943737,-0.3342999170177086,0.007926856210985989,-0.07133353496190864,0.044021304293096364,-0.3415659852051647
13451.0,0.02967740149902877,-0.10466186542321877,0.0016565349187028593,-0.35498655392511447,0.01572115143000019,-0.09515219284901377,0.019524507595690466,-0.3504734022405813
13452.0,0.042405423598294315,-0.08526714337613295,0.0326787674670204,-0.37737291383641725,0.020129197999153803,-0.07647637841422039,0.009650891882046153,-0.35105097254240825
13453.0,0.011655245947328193,-0.10483485698388724,0.06123431280671325,-0.3518102722653933,0.002797107633739415,-0.09697463115940508,0.023643720433938142,-0.3353560672096023
13454.0,0.01132982722315416,-0.03645534994997143,-0.018770569659933522,-0.33097947919757204,0.006267272267450608,-0.027103642518511606,-0.0003018951919599999,-0.2927961606694005
13455.0,0.009428579128171464,-0.06691756653972901,0.01600889070151478,-0.3266333422865479,0.005171484746256283,-0.0608830565212628,0.004336254223687774,-0.3235927916257815
13456.0,0.045308753434625995,-0.12164135625575008,0.02592304846638016,-0.33874704281369955,0.011946526325573359,-0.11540394855512659,0.00891238313399123,-0.34734768839236096
13457.0,0.01611002379497172,-0.05480345257045016,0.0117904761990557,-0.39995709152522013,0.01348299171647227,-0.04855375728226363,0.008146470044948728,-0.3735804975962367
13458.0,0.05077822530450483,-0.07730839786871731,0.05023419608710998,-0.31443874773050234,0.026882380483016277,-0.07211653427006226,0.031191439512042507,-0.3223094662032935
13459.0,0.016466392238156893,-0.08449954696169332,0.025503969537645745,-0.384268660798396,0.019943100960475135,-0.07021242010631923,0.016912601073443057,-0.3755732367527287
13460.0,0.05429749439037442,-0.08387628830617987,0.03017327146675465,-0.34884394353000414,0.014782104705659549,-0.05565390053610031,0.01114048744884144,-0.3390128482703929
13461.0,0.031694621370845805,-0.0760047959652949,0.006506925512640711,-0.3127203246876784,0.008896037686042746,-0.0641977969334846,0.005652021549082065,-0.3167696506683626
13462.0,0.057671164963110505,-0.08397523343310924,0.023300627186108987,-0.3782987641143682,0.021077650458096286,-0.05703544517442083,0.01285912727195182,-0.37716742580507656
13463.0,0.04980534613806139,-0.07723485379544756,0.027570449032778298,-0.3384417834602167,0.018250638353492832,-0.05219683590260615,0.018662287254514354,-0.3310588421194325
13464.0,0.019970436521248764,-0.12026153663160516,0.02246334522292547,-0.36472436704311817,0.01426317744808614,-0.08352378457210019,0.020484735160337664,-0.34528098881105507
13465.0,0.015073530943965081,-0.027797268816210283,0.02315722000213687,-0.35349293064827253,0.01931343683003206,-0.033981025193490666,0.015228576414529016,-0.33864828667660163
13466.0,0.04720890633843368,-0.10753409273628964,0.050309628682632876,-0.3596474142817906,0.02021616575851226,-0.09410239664707731,0.029444772219903825,-0.35721511676926987
13467.0,0.02377859370288563,-0.08837893558425282,0.028503343278169207,-0.31758741718026234,0.0066321745163975265,-0.08824399735686939,0.009534980234690238,-0.299021752539673
13468.0,0.05938763069234335,-0.07126939606260954,0.04670672038512159,-0.3502419879686613,0.022120818099217843,-0.07395624967116987,0.02739779300804912,-0.3276948658076009
13469.0,0.0453465389342388,-0.09180937193474438,0.045217524260918365,-0.3138317412561993,0.005347608482395572,-0.06139211006025036,0.033477903755084526,-0.33127508101455305
13470.0,0.01653458275052696,-0.12293595316498351,0.07353553779120574,-0.3240444626269943,0.006755052402354522,-0.11120388394792258,0.02626915950924058,-0.3122956431543571
13471.0,0.04391620171464175,-0.11605888749351366,0.040495322036116645,-0.29540740438390756,0.017847922778223335,-0.10364633866772976,0.007198216949205971,-0.27118584699019266
13472.0,0.06572326770058935,-0.11082116150539861,0.023303843999044487,-0.34142846840320623,0.031701012381375904,-0.10577963709805971,0.02042861685412589,-0.3435513773566399
13473.0,0.023444377782638068,-0.29185273568987496,-0.0009350071712105487,-0.07593658813669946,0.02013967648098003,-0.2837019254641291,0.016771716364189615,-0.06336765094521013
13474.0,0.020055435233667023,-0.3799094994736799,0.012390417580603096,0.013113846243109871,0.007266801675257284,-0.34407938800387683,0.003971617861992627,0.0
13475.0,0.04271990920178247,-0.4126074668383095,0.0349513058477646,0.021552810289858636,0.02091620866019639,-0.3782367798781934,0.008684925106194896,0.0
13476.0,0.0016613443935318691,-0.386110626772655,0.0049924768743257845,0.049848386862185345,0.0014850279592337756,-0.39471282223095727,0.002994397502405377,0.011518713061349217
13477.0,0.03886432886601757,-0.3861914414980057,0.03214118378210653,0.024844632027973847,0.01695356315471397,-0.3536265362983215,0.020082806682410137,0.017589784329288705
13478.0,0.0182507210636111,-0.39015800576717613,0.05006041742877081,0.033516046570463455,0.0,-0.3766754054625281,0.028505551297257625,0.032571892601708896
13479.0,0.048745114933877995,-0.36368399848325705,0.03143786824948794,0.044406957112538795,0.02282104870106849,-0.36184259545036923,0.008577633677731455,0.0
13480.0,0.00930096416114355,-0.3750143911130661,0.02861605726571563,0.00795058823059269,-0.002603269011103748,-0.3538608710487381,0.0,0.008718754511987115
13481.0,0.03794620690055529,-0.39145032461954354,-0.000610347113483891,0.0666447226396401,0.02480392691830957,-0.37678904166078553,-0.006709434133085779,0.01915260019774223
13482.0,-0.0026613309949032127,-0.3822336779296636,0.04338041707637743,0.052261872035113795,0.003357912393042284,-0.3965211387163805,0.0120184594317152,0.010786570467246293
13483.0,0.015226342642370747,-0.40332429970805794,0.0030962773472520792,0.022957865085887062,0.00015258224067338233,-0.3866136541151839,0.0032594680886290917,0.0
13484.0,0.06732645758709255,-0.35975268351955525,0.030364336625808765,0.03618749088838269,0.026273894905699535,-0.379711426616023,0.014896097751961435,0.014577101028136141
13485.0,0.013270236220240372,-0.3548155616437962,0.009545143309857312,0.0289097745847839,0.01187062157319474,-0.37075435578552174,-0.0015212012402088249,0.0
13486.0,0.04435223596520265,-0.3464663970578955,0.021905504534054987,0.056997589558527205,0.022802339148146444,-0.35972018215744583,0.017152126706058368,0.025920373921053397
13487.0,0.020350847329864714,-0.36153802547149205,0.02376140715977669,0.029857713085725508,0.015178413313208239,-0.370943073567787,0.0,0.0
13488.0,0.028194831923401175,-0.36242986702811003,0.014100660717360653,0.03743047843984645,0.015861152394279543,-0.38344151119996184,0.0012106378748057978,0.013742438249209954
13489.0,0.04314438374371645,-0.39271202943005024,-0.007647525663178234,0.0008957873854387247,0.017118012042516284,-0.3751677855482285,0.01121498072998861,0.0
13490.0,0.007493697276709369,-0.3861860707399228,0.04041985617471319,0.04747017086970547,0.0007338344440768196,-0.37126937241532687,0.017019609049043538,0.004345876747152033
13491.0,0.08621272474509234,-0.3645361756828258,0.01897520097682976,0.035461457675225155,0.025632650178579297,-0.3797968896457746,0.0136847985936015,0.03232081988153368
13492.0,0.07461211672408416,-0.3659196256791193,0.0034129205222285597,0.02675526899477294,0.05795977374867789,-0.32153222258965286,0.0073384480737672675,-0.001443673646008392
13493.0,0.0063598762156109765,-0.36199170000436787,0.026533992136463663,0.06022422798164526,0.004059463483145009,-0.37298593017709436,0.023362479209275477,0.02697955545745323
13494.0,0.08348663779421263,-0.3646415857379917,0.012920117265856604,0.02036327106702641,0.025163829246594105,-0.3981567060188098,0.009679945351251718,0.0
13495.0,-0.01298956255975654,-0.31713787170886404,0.036259739357413195,0.011231458248844231,-0.01342662479152068,-0.3528839355578768,0.017161367259291183,0.0
13496.0,0.013054186128649847,-0.38716236393902725,0.011906461050334658,0.008699877838592465,0.014793235729086973,-0.41027593600794887,-0.002448653689384628,0.0
13497.0,0.05328160317591264,-0.3764068141118965,0.014878519310687488,0.03479861108169832,0.02101577625288087,-0.3889176487653998,0.00514919499073585,0.030453381789698142
13498.0,0.05050163714955597,-0.3932958412990733,0.02342569957548418,0.029058447982498823,0.02684167364378709,-0.3869387483386788,0.011942966537588973,0.011064612224444659
13499.0,0.02461032309107082,-0.34210009939049496,0.016890334158772658,0.013138003811955158,0.02351860047002674,-0.32524558430583284,-0.0025645549275168378,0.016994683455532567
13500.0,0.0411016444943946,-0.335143380775787,0.005470153267764929,-0.005558436668835539,0.012343050917479559,-0.3335441077780672,0.012570365739776435,0.010228171013253018
13501.0,0.0016290173299004405,-0.3092515925539916,0.0554334633893372,0.02271578411980027,-0.004592554994246711,-0.31073729998297495,0.024570286397107566,0.059884369378274016
13502.0,0.04575877703023947,-0.3731299849444986,0.017550421178476508,-0.006577039072553631,0.02546771939759651,-0.35807677650382175,0.007946132028394004,0.0
13503.0,-0.03682484158942961,-0.35132841262598385,-0.012712476094400255,-0.015861118419363038,-0.009661208294559742,-0.3740714268872125,0.012381990341495452,0.0
13504.0,0.013465590663884568,-0.3304688446329598,0.03920662187623347,0.020875222221615235,0.01790581492176102,-0.32610592847890985,0.01030648508186971,0.011505196455260602
13505.0,0.023412200543035583,-0.3354041904406519,0.041260427204061215,-0.04767082277056746,0.0036777889921211226,-0.3102799127852336,0.019435918607157987,-0.037843691849957395
13506.0,0.05652626635593392,-0.3146028812049675,-0.0074050216239917015,0.019561333136320913,0.017578622813118727,-0.3952088765931592,0.00031671455406012683,0.007558475271982834
13507.0,0.03851682886537678,-0.31771304760105024,0.045275910125650395,-0.016338994731464832,0.02357300594368894,-0.3278334686927309,0.019505901917511892,0.0
13508.0,0.016306258352610476,-0.3080646720464325,0.04656848260777148,0.018206363206143803,0.01329813908870392,-0.31717274214983604,0.02170207584485695,0.0
13509.0,0.01792407031221166,-0.2980033658572393,-0.026957583487847932,-0.005006209928825866,0.017304062731824388,-0.28086282502258086,-0.005686433903576926,0.01710895022557679
13510.0,0.042948239617376635,-0.35223179231323787,0.02934094951108687,-0.029039849902620866,0.0,-0.33235689602928886,0.01137655978232388,-0.010952584218614447
13511.0,0.010253273954602423,-0.2853294185539696,0.05313539306737085,-0.05522156979092008,0.014491142686154035,-0.29525789070702047,0.01584257515827403,-0.05234244522745968
13512.0,0.03594261555435986,-0.3219396915214034,0.09520135791138944,-0.04975401875076245,0.022295127930703984,-0.313076332190235,0.016810047062790545,-0.06770334553802826
13513.0,0.0302325144921356,-0.30708992102527427,0.030649244689774594,-0.015348780655215551,0.011378734737320428,-0.29681814684124674,0.021722668593213257,-0.014135102121532128
13514.0,0.02136869915034509,-0.29224404129364834,-0.0019487778114940899,0.007730720601993273,0.010448197691175665,-0.2976079940913152,0.0032962525371118545,0.0
13515.0,0.054083875880807396,-0.3028888220337974,0.05282558818508912,-0.08318056023812212,0.017503554818631528,-0.3149507614331592,0.016327526362658773,-0.042467647129011965
13516.0,0.04744307018019281,-0.2720464789380592,0.015001871839943951,0.024363845729286324,0.04321701625974583,-0.25055033883745637,0.01814608411541485,0.0
13517.0,-0.024443233870145104,-0.29482557859258146,0.01929524421988491,-0.02726831215250571,-0.0008697625942204468,-0.2798494681072725,0.005826620775764013,-0.037424967929418074
13518.0,0.08331827553023344,-0.30066174485578545,0.03491393127470294,-0.012030265378825815,0.027750306735075725,-0.3017868165962021,0.008232382047310693,-0.008164215521873075
13519.0,0.006629742340973044,-0.28593852326579333,0.026717580617619287,-0.0508445194865441,0.0033670761754081013,-0.24627488988062396,0.015686711658077,-0.029025145542050268
13520.0,-0.0176587064390567,-0.29399031739867415,0.04066477297398484,-0.002625052785926956,0.005351841937681456,-0.3228817184434547,0.03796771663073173,0.0
13521.0,0.044644733600676965,-0.3304521031438936,0.022204875835100266,-0.044104452059228964,0.044581168318586606,-0.3194760669456116,0.0036707699172211505,-0.04635404195727233
13522.0,0.023000837766095156,-0.3252657914803376,0.05536276364090902,-0.06670547315634884,0.0,-0.28642688454817744,0.06047605012213353,-0.04953667042340726
13523.0,0.010931815859781532,-0.32265888666729825,0.0031704400631663104,-0.04129263253615745,-9.914229769947269e-05,-0.3294682894054972,0.00819302148378398,-0.018859335698778068
13524.0,,,,,,,,
