frame,vx_p_mean,vy_p_mean,vx_n_mean,vy_n_mean,vx_p_median,vy_p_median,vx_n_median,vy_n_median
8530.0,-0.0046076425315194364,0.5134995064785779,0.20702688897894178,0.3326456198783384,-0.0037164471563357893,0.5249208411184263,0.1272575317193514,0.3152640421813686
8531.0,0.09954742668741308,0.3763481281210716,0.10896268008169022,0.23851856097733354,0.10332841287666383,0.4636484156430951,0.09345675257486619,0.18970974871430712
8532.0,0.05814222191472377,0.5425024931977395,0.105995822010001,0.3547185535831559,0.020298406582071493,0.5294112586377651,0.05610119404377656,0.2801382830838861
8533.0,0.07644985930034828,0.45628773599088596,0.20795310632397448,0.34063495731685217,0.07903695653021714,0.543338666720274,0.13674764757433877,0.2908334978653784
8534.0,0.2451633914751786,0.5403723067219873,0.1381261940584757,0.39444335658534674,0.16645687535697107,0.499818239546471,0.14433932897867408,0.41925480523737235
8535.0,0.15225664101584307,0.6647814191813393,0.08927656048073783,0.44118758552017373,0.13245569363940035,0.5615996070259257,0.051579192651843186,0.3817978157425159
8536.0,0.13454699964866482,0.5379023702680547,0.07773581780924133,0.48927501547147056,0.10530201742699319,0.5616415580997369,0.08561568434717515,0.4617425913685196
8537.0,0.14160727840247225,0.6132041695319699,0.06900897554775963,0.4404686035227157,0.05210468993834638,0.693788100785639,0.018502317978402516,0.45723897230800503
8538.0,0.18897768072502047,0.5472733004878158,0.18747623754834128,0.4844497736836167,0.15803591191911437,0.5988188695395777,0.08854973168195102,0.47187532643022223
8539.0,0.10247503907773949,0.7056058895570975,0.16051397334082512,0.3887564223665188,0.03334331962227566,0.6622403824710261,0.08833011014939984,0.34140808083679985
8540.0,0.002225645401482426,0.5005093382563239,0.10496063838415731,0.49874665839485177,0.05338929887091126,0.50308462456195,0.034381870509946566,0.4058929141907299
8541.0,0.15605316262868882,0.514996494642092,0.08966227011111272,0.5030302622374759,0.10532268847953219,0.5078236363544875,0.04092977599935921,0.5000711745346393
8542.0,0.11493699232624102,0.7256468856675683,0.07854497664317919,0.5628256720342848,0.0567195960966842,0.7438808916617177,0.01604927125725908,0.6038278501341949
8543.0,0.033343948180145244,0.4568250790608159,0.2139688006022261,0.4184321376451026,0.11881791138728204,0.47542544650250784,0.22545509867634905,0.36537671323870313
8544.0,0.22248995668194607,0.6406233444094289,0.08578595962786086,0.455561310040962,0.17792003934732747,0.7112910200164606,0.08369135517702375,0.5062214027390723
8545.0,0.1970587713882383,0.6758394052420351,0.14653402278611166,0.4412966522144271,0.13691159388002916,0.6845241441316716,0.06283058944279674,0.47391078828957234
8546.0,0.08899023030916405,0.595328029587123,0.14769776852492558,0.5769674695379733,0.03554142218365541,0.6181708635790812,0.128552274303388,0.5603714817212335
8547.0,0.13170271991798282,0.5650650791931857,0.09613226948605105,0.5113451011996862,0.1025686243765449,0.5316218841701463,0.07707427443222059,0.47757957837675136
8548.0,0.08620456870951491,0.520288449720189,0.153272463706477,0.4427027838409486,0.08452841132674394,0.49913781534121426,0.10880908265482958,0.40906574363933146
8549.0,0.10438138962907757,0.5484540770635543,0.11025031250866345,0.42968624587089965,0.12094153542159347,0.49049465076233023,0.1051979561611347,0.46078800475584103
8550.0,0.2536732426300527,0.5846556521167462,0.20191451248834613,0.4661803888296463,0.20052694057892495,0.6164204262805697,0.1898466204726219,0.4645106468543645
8551.0,0.2015221019274291,0.5683757995969427,0.06636068037636444,0.4322099684720477,0.13340494660758395,0.5527578372532673,0.08177260939078224,0.4331544131156875
8552.0,0.15911814195893612,0.5878133647474051,0.21172297406254034,0.5493805677683324,0.14208835930600117,0.5217754631630527,0.20437769157399543,0.5455993040219766
8553.0,0.08428997249640499,0.6042944380590686,0.03944366062899819,0.4975601370737189,0.06663033364822013,0.6929310176448382,0.04370384333765287,0.5502699441478853
8554.0,0.15002599622297094,0.6769574943221095,0.1800828247478261,0.4374548333340337,0.16914124996634428,0.6903157009849537,0.1799598660336983,0.38065790464028737
8555.0,-0.024710441657953983,0.6502100830744273,0.12649062438106112,0.5321779768058466,0.013854441858256905,0.6122907698112403,0.10651708314685493,0.5231923894779129
8556.0,0.16893828580472905,0.7877672297891076,0.08219384150377372,0.4522662751224884,0.1409643657535753,0.6941516325288717,0.025177546469990375,0.4584193297279171
8557.0,0.10346237622688785,0.6228294246114521,0.22731693393987934,0.48011415074811875,0.08441312881882368,0.6342779703025343,0.08444102557189126,0.4823172012931707
8558.0,0.19518050149362165,0.5660426747102631,0.0472665593481467,0.5223881089035916,0.1832979246682953,0.5801555692746092,0.05361335071347639,0.6082779686175854
8559.0,0.11030527802432548,0.6005540893647058,0.1602222639887295,0.5127074240016251,0.05154787672159955,0.5556711014864391,0.13220132136314078,0.5104265697660253
8560.0,0.15238503643790674,0.604996531931325,0.12386182615124773,0.4609897820816692,0.020891642826086354,0.4874630673447129,0.09268294865603366,0.5005735746886018
8561.0,0.03711351363986362,0.6707256391005687,0.043166516025532495,0.4445397903772848,0.04733095773497098,0.5703613533376028,0.08384788980345093,0.5129176502543373
8562.0,0.16842488642927123,0.5839374602869196,0.12380508218766205,0.6548802918403414,0.18601748554340247,0.5898361218244244,0.07784226446665343,0.6102476035977702
8563.0,0.0919602153606158,0.5353353858018032,0.22498886463892376,0.43679193862189214,0.0773559160440982,0.48650619113556104,0.1759898889254714,0.44195332610206606
8564.0,0.17455369276057947,0.7523120544285103,0.20182219814013863,0.44660682416153347,0.1505258568825809,0.7855994610644288,0.2009011211803795,0.4243165975997272
8565.0,0.12028937042845717,0.6095934670597527,0.2305921065854769,0.40973258089352604,0.16189012086965704,0.5947979713178029,0.2268126251025251,0.46447004252286206
8566.0,0.11019746362890892,0.5061530399956631,-0.033242380955509056,0.5215405939362038,0.12598321000555757,0.501829598411554,-0.005436280518665626,0.5495618852545476
8567.0,0.15065789029000243,0.6205357480274333,0.14934524437509963,0.44110326642300973,0.21553408042262845,0.6292258162266258,0.041875475681194985,0.5216871331903192
8568.0,0.22570666962049218,0.5721840242715766,0.1282457495168547,0.49435404680688916,0.19432188601837197,0.5779232857643706,0.10923766555083603,0.505695117853179
8569.0,0.012055638438883735,0.6403853902368701,0.16471069617594097,0.528434815949418,0.058427887986852056,0.7338191770109717,0.08095915213891658,0.516247555633754
8570.0,0.15340485794488792,0.5849663105060053,0.09061344576573874,0.4833037201263939,0.09338222433967758,0.6878554134361679,0.06852143266701205,0.4244644562889164
8571.0,0.08608491208044922,0.6444508870264237,0.11615501575414555,0.48517877992538194,0.059205340746188995,0.6570587247566237,0.1267784295409342,0.48867635343975024
8572.0,0.27190167659073455,0.7007859412160484,0.19183036262863215,0.4564813734521361,0.1601069564160298,0.634982757127478,0.12777572081927246,0.4888157957497583
8573.0,0.09833227750910069,0.5976999515215018,0.25406422213382757,0.5018535214499706,0.07566831126769102,0.6268007335571895,0.21908264799429844,0.5144715833194482
8574.0,0.12025751276700469,0.6160643164569254,0.04446134064551803,0.47492134696218624,0.08268047589808702,0.6989121490500452,0.07191099620882824,0.473204529376801
8575.0,0.22698219871104974,0.6120776821463109,0.1503470877862119,0.46140973374026556,0.17667185852639022,0.500298732130716,0.11227943549076258,0.47277866484625974
8576.0,0.07464564785449251,0.570751978124543,0.14867057088261504,0.554444062608245,0.0609842499280262,0.5260524005622162,0.07100475127785444,0.5526369402123521
8577.0,0.13726786176708763,0.5914940744993336,0.03090515388377501,0.39042442040236636,0.0999879703699662,0.6188866409100342,0.046081732224593,0.42114865855540984
8578.0,0.1007612400461913,0.6736045478958235,0.10190574333392688,0.34448149422911184,0.0802067983569259,0.6128973666832138,0.09610409599446257,0.33563620367394265
8579.0,0.08209850387471901,0.7735399630910743,0.09707907886906685,0.4175605651848595,0.08647578037624726,0.7346522115494167,0.14069272804619004,0.39945190176966605
8580.0,0.012182810219785876,0.6140136965407881,0.04972418246678456,0.5281836684533641,0.047137617037606105,0.6128290969126056,0.030643875266832765,0.5067721688192464
8581.0,0.1778919211157862,0.5128667315567569,0.1375040897392179,0.5819224835037745,0.17249809710108366,0.5456144278565382,0.15830995219880606,0.633196139704495
8582.0,0.07702551470994722,0.5525382235642352,0.21916699241774937,0.4618963196394291,0.05624567885047327,0.5088630990434808,0.18939428149150217,0.46601889621314996
8583.0,0.07205958224005228,0.5542544493078033,0.22819179022662775,0.4408821280692475,0.03792202000255429,0.5388837927646648,0.21515926441117017,0.42882613299606476
8584.0,0.09730997597602703,0.5884451337681257,0.12349825167126198,0.4663779803821096,0.010576449251288977,0.5217295461891354,0.07879230263910131,0.41145828033685916
8585.0,0.19805386658087595,0.7086504738320542,0.06347925039587037,0.4443567223138085,0.13116685700606467,0.6455618351519092,0.027904223247560367,0.4554716108143566
8586.0,0.20783985377612588,0.5864937857958852,0.14796071464277596,0.5836773143127595,0.1522985682705098,0.4806866936604379,0.14184801407657233,0.5879855389189856
8587.0,0.2557415596814536,0.6036479852679745,0.1317014682159513,0.46712577470622746,0.18731483994116616,0.6420147738172428,0.05298675318221058,0.4860421806400268
8588.0,0.10615877256063706,0.6073459153166676,0.11173757614776235,0.4585468849867491,0.0892010802899108,0.601543420133325,0.1183385924199456,0.4797026696672333
8589.0,0.07294791858086813,0.751636197193972,0.12185250615387262,0.42895099146756704,0.0455152399341614,0.6978889773008916,0.09887953411248418,0.4095880417399229
8590.0,0.1709916240220488,0.584604321837427,0.11388429757084038,0.5547842096873279,0.08935130092777399,0.6412352548567668,0.053295900686180175,0.5818615901327178
8591.0,0.03424870573044012,0.6973547361570962,0.09250046296234904,0.5392143054070563,0.0667620753415008,0.7586423810723772,0.16348312391619402,0.5146625130573739
8592.0,0.20012227707224742,0.5921081712687727,0.1131310927521478,0.46034067558911146,0.1447805292407338,0.5555507373062767,0.08128454604332092,0.4546277699739676
8593.0,0.1915038706373835,0.6522535895264174,0.17707332510251145,0.5050832304097134,0.19693138341779104,0.6304379396768525,0.15115037493890782,0.5150188451386324
8594.0,0.19028403422507836,0.6603128273070211,0.11971238110636982,0.46223682077112505,0.1827247891611421,0.6020966247016837,0.10864861818379268,0.5125698488581065
8595.0,0.08298837669799326,0.49977810949943846,0.13134339021839458,0.5503397395042162,0.052676152305025425,0.5300798607415622,0.05145856878016275,0.5552269714467286
8596.0,0.13863589750981578,0.702211131712544,0.14867288431321785,0.517762812958937,0.1540453313980379,0.6456644753692444,0.0941851499271138,0.5038002810461677
8597.0,0.16228565611067297,0.5034639645808319,0.14419870949881486,0.4552353487741864,0.08331101688662557,0.4839410278173162,0.11585974187937609,0.4412642049911426
8598.0,0.09626898659985689,0.655766469290186,0.16927898166014307,0.5233530884580889,0.07024020084736549,0.6143566205856246,0.14596615379997502,0.5466442471773121
8599.0,0.17468541353365508,0.47068955609504937,0.11876550662955271,0.35226951321227806,0.14947892227155535,0.4973397803298951,0.13019342801916878,0.3439056536698928
8600.0,0.12983341645629917,0.6233602692522636,0.15002483405352895,0.5524898115617862,0.06816625049293634,0.6823452263278398,0.11577015849888994,0.5726256307359066
8601.0,0.12998175801829023,0.6634717714690704,0.11848213838293947,0.4934336916079129,0.05278238523891332,0.6180412778424227,0.13912069226040558,0.5039792941828125
8602.0,0.16734572376177229,0.6001586332381958,0.09181917570480379,0.47822990644164004,0.1778770030471719,0.5827430182889035,0.03019729004461169,0.45594400643375366
8603.0,0.2852385226960244,0.624640061443162,0.13963728961161984,0.4651884243576987,0.2768165056270391,0.6052257514142525,0.13045126496152193,0.3923974143314126
8604.0,0.1582372269899679,0.5624245940142301,0.22682960291864068,0.44726251468339484,0.16634019958189583,0.523580432293258,0.16078741307921973,0.4756756521469043
8605.0,0.08420898224145747,0.6218521543747456,0.11915908571885488,0.5416711189965813,0.06940373959480439,0.6445654616165921,0.0667780484129139,0.5011545612585735
8606.0,0.11115035980973416,0.6163614032632538,0.1853385060765412,0.4592456347454758,0.06862152551047984,0.5603347159066274,0.19500015866196918,0.46595099913037075
8607.0,0.1602075926889534,0.5121054187437573,0.13285295669678968,0.4572207820167869,0.14083477320127713,0.533653238100726,0.09784235964440313,0.4843003746910597
8608.0,0.14953074808465125,0.6567172499192542,0.17745893168701082,0.4465090254105009,0.1105432092109595,0.6398025818411259,0.08556819340958555,0.481646620234784
8609.0,0.29999096084827054,0.6701052518866034,0.15980048047435594,0.4415371899609148,0.2902394461008271,0.6318105495456194,0.11034959056200933,0.42747774482181455
8610.0,0.042080869558150345,0.5690995622429736,0.12494658276402504,0.5341041821623561,0.029467706346110845,0.5464280576492015,0.07125084304249185,0.5485156024873845
8611.0,0.029682829438253105,0.5976344105636356,0.09254502734150379,0.4971458864111017,0.025262212513382565,0.688694593581328,0.07746085746288145,0.4335845135569514
8612.0,0.12474938054689648,0.6685042672524985,0.11868062847072094,0.49372041605696776,0.14706596258554328,0.598327637643493,0.09630482033367116,0.495022703679183
8613.0,0.13912561510679952,0.6189666969215868,0.10687032478322407,0.4261143201314202,0.0922411702686361,0.6633347084202654,0.11382530785283507,0.5287794793660652
8614.0,0.190237137439896,0.5393205536035629,0.20028432465243995,0.5286898016140132,0.15544715349039961,0.5106967850176716,0.13390917961413606,0.5119964784525024
8615.0,0.08212593991014216,0.6730802846909171,0.18060668754320092,0.5377571371937566,0.049913058305321556,0.7195898493425261,0.18470311057097888,0.54861933884618
8616.0,0.07737759945717017,0.7197805057676783,0.1018427662875629,0.42912097564051355,0.10900526585839998,0.7331847306074408,0.08568652409877586,0.3667848549979027
8617.0,0.09328863337757122,0.5895549703936993,0.13153843301718784,0.557743813877618,0.06665388013311713,0.5860637291059447,0.07694027995512442,0.5539556700668982
8618.0,0.07506840885494853,0.603064761915665,0.15689960009438572,0.5145108838738344,0.08600359604560026,0.5525485303721922,0.10683284511583224,0.47415568550582066
8619.0,0.1475414744676371,0.6187962190828075,0.21103903013634295,0.45137222371320546,0.10018855886784195,0.5988439716403846,0.2217720419286877,0.4760463226649563
8620.0,0.10818528072922125,0.6743343573045193,0.07874302576259447,0.5785164597248695,0.08808497751857658,0.6361723743674617,0.06365022034185586,0.531946900323021
8621.0,0.08307807295439033,0.6867793211629422,0.15621722613655675,0.4906933656825795,0.004358982075530093,0.6935875742839244,0.106602857110488,0.5000830586023994
8622.0,0.19607374503532635,0.5886990323004507,0.08582801497201445,0.48843154150937895,0.09418055270145942,0.5065569835634989,0.06812137099331039,0.4727934633602615
8623.0,0.17871255687906673,0.6307209936481575,0.17517564595747281,0.5324754502274781,0.09412997334015927,0.6123591820764318,0.13240521512449277,0.5039150499069365
8624.0,0.1757219357316813,0.6653396243005063,0.12246080409607665,0.574717728182179,0.08019930473494696,0.6372318432796575,0.07461529264529076,0.5480648812569768
8625.0,0.1669597485112014,0.6674192019538346,0.09918869309106043,0.5093722259398631,0.14017884244708512,0.620165076962536,0.10914132840611046,0.4843955089768315
8626.0,0.0830903041740302,0.6812801479243759,0.21043972403919883,0.5364114532237915,0.023529529628262935,0.6328542104847656,0.1376221343132329,0.4933742402640746
8627.0,0.21086645116200461,0.7334781679934721,0.15448174673240478,0.4598172967569034,0.177906648657995,0.7050394249913268,0.16681254575053117,0.4247037802643092
8628.0,0.14255716092321685,0.5287481417270921,0.09984026774504441,0.6897486545582172,0.08506254211715714,0.5293482432647778,0.08364416227203719,0.6722745823043681
8629.0,0.07769617717863948,0.5181373831773349,0.17956023877694324,0.7227363369082422,0.0741585684063466,0.5722422434595842,0.1816112137997834,0.6444768687196074
8630.0,0.1522776392998694,0.5890476914851238,0.04842436055135271,0.6898063171547694,0.2107082069084072,0.5527923760800206,0.033758782116592556,0.6729400699039445
8631.0,0.10369082330886424,0.43499264735948273,0.16798865957799974,0.7523294741330371,0.04261532954001268,0.4436810101916677,0.10989407529973505,0.7787733116871323
8632.0,0.20086428398165676,0.5906327258310479,0.2502324711937582,0.6966754191668081,0.1787153031062303,0.5372103544002229,0.1674862259276324,0.7026195970665299
8633.0,0.1084443188940182,0.5658140030880825,0.09697147733916196,0.6607435021854268,0.0796151658644817,0.5618993087517197,0.12897904497202717,0.6404810921428634
8634.0,0.14223233889557158,0.720692711093755,0.12881846169237626,0.7558444652288008,0.11474941701794705,0.7278921824145925,0.09417591393119551,0.7066617288216435
8635.0,0.17996344533155964,0.5883717561450087,0.12431310738193943,0.7414652488664426,0.19543544601617668,0.613224922058464,0.18883703478360303,0.754252553297448
8636.0,0.2168335246804839,0.6493703061128161,0.2092706651946813,0.6169736644852032,0.08435650857961718,0.5717187963905559,0.15548630578348366,0.6035403977297733
8637.0,0.14023687033826693,0.5599114886693783,0.08101697523011539,0.7144835732695745,0.11135423842034697,0.5967023462388568,0.07182008019378827,0.7072460946811248
8638.0,0.1834900795728886,0.5992033222276426,0.09991094596006371,0.7830293772217446,0.12437454247856294,0.5078459936121362,0.048092866044157745,0.696164630058945
8639.0,0.05098242964183157,0.5769691518053165,0.19268177375002773,0.626154774261125,0.04624245013513928,0.6196652132896716,0.24987174365492137,0.6256907630455544
8640.0,0.24637482511582906,0.5236205274477453,0.2348840563175509,0.768891205184416,0.1602566129451759,0.5226258953014451,0.1901264649602581,0.7630551143845423
8641.0,0.08667340146063009,0.5154242497222614,0.16824977871280566,0.7489346382447887,0.12049148879373206,0.567863256866822,0.15654542082921807,0.7388282197297542
8642.0,0.08043547565637163,0.5651527217966369,0.1675461760868262,0.6386080134887847,0.08169968750746648,0.5650791334722669,0.15271775692150413,0.7504971166911218
8643.0,0.1887125233263525,0.5994928882631264,0.08259020802960228,0.686822241374303,0.07956099314134235,0.6149824156010606,0.04884942284502358,0.6707429712764466
8644.0,0.13380740977242672,0.5428733318043545,0.1451555502424486,0.7411951036507398,0.09839368919062963,0.573636891817273,0.09139314688309241,0.7109907510962898
8645.0,0.21901251017151938,0.581073297255019,0.17770125991812905,0.7738916071504625,0.1572345291241959,0.5221750877083764,0.10211945436839187,0.7637715229626849
8646.0,0.08458951757174164,0.548379959972456,0.18046178849525785,0.6942798916683983,0.06834746069682751,0.5446143245486041,0.1894654742942521,0.644246408204026
8647.0,0.17048298025453335,0.5976617179668838,0.15734354304967724,0.7619509556857763,0.17806735885989156,0.5771684697787975,0.17063579584237232,0.7623981389737366
8648.0,0.1853382410573848,0.4628470391485877,0.16254551382523216,0.7174997910822792,0.16176949179026678,0.4944309712560653,0.09763879105929618,0.6670233993950774
8649.0,0.10297434397209582,0.6444609019006505,0.1590299096693304,0.7179984116665609,0.06519091832768709,0.6330081963806862,0.13511968477649816,0.7428740120162161
8650.0,0.15807658277553593,0.5859313283697554,0.11846326581785217,0.6262789933469485,0.08324424683269172,0.6005593216841447,0.08446602603669362,0.6609595211024271
8651.0,0.14635558530964296,0.5324783605541812,0.17617711369950317,0.7655514307042549,0.046516606141324246,0.5277148532288152,0.1776115636882878,0.777758732767154
8652.0,0.16308047472864912,0.5358033970389919,0.1525599094309582,0.7784516671875583,0.09910372214255858,0.5726182069269683,0.12814343555430696,0.7333986924149656
8653.0,0.16644795652070138,0.5729612795942778,0.15693316125242432,0.7307727768246098,0.12815353402677943,0.5709707634104859,0.1733008876334452,0.7226400904252444
8654.0,0.13388299695649902,0.5281005525728703,0.17516428248621946,0.6980818583321712,0.07317002694372832,0.5269156269497302,0.12757219972496614,0.7565282547259216
8655.0,0.1204616717779721,0.5194803777959186,0.1488216956634787,0.7682943013750898,0.0516277179192457,0.5627683400731343,0.1421993466203162,0.6986582612015084
8656.0,0.17465166322138304,0.502472867854648,0.15271211518179895,0.6906011159813158,0.16142984407343874,0.4793391455543201,0.15464532003989007,0.6821377895291789
8657.0,0.10196299591907501,0.6595985998953107,0.16792618642306678,0.6599225905789923,0.0817505489405903,0.6440709995273828,0.11005052860565456,0.6241354552751943
8658.0,0.16286742754120884,0.5705180289046685,0.19686695968148857,0.7147983891191491,0.1659723866995364,0.5215685095788274,0.1602496560199711,0.6704219200047703
8659.0,0.15759834918111437,0.4883868267800232,0.1992444302546485,0.7118903957153264,0.11641134483971882,0.49123125774464427,0.15690174956080227,0.6471039362892839
8660.0,0.1217653199709506,0.5184375602819742,0.17726708299251057,0.7253826271195001,0.11308182269954159,0.5597135775040414,0.12212398642043354,0.7188380609739511
8661.0,0.17899981775342264,0.6569443918555118,0.14882199251072625,0.7546878210059352,0.1494253698646162,0.6453423973921417,0.13334354506230284,0.7596936457319998
8662.0,0.09545354500656344,0.5230551262680884,0.10088755696028517,0.6791467594862128,0.0913227989922234,0.5275384596557302,0.013182366562773495,0.6639098157964725
8663.0,0.09416697388758653,0.5324376111936677,0.14070075033218254,0.6382810439690645,0.04871212329237551,0.5542219449015846,0.14976636623879358,0.6771675502754704
8664.0,0.159860929781234,0.6561911280388996,0.1527183390332637,0.8073527516645115,0.16685983863374076,0.6486259242007009,0.12973895515017375,0.8366311725507387
8665.0,0.07883674636994661,0.5470185301282621,0.18601718251913557,0.7055370631645523,0.02494282134568948,0.5630000417115752,0.14071584460961617,0.7412745200385302
8666.0,0.10156072988348447,0.4731133676298605,0.17713281043394127,0.72530861885816,0.04322232482388699,0.4985650300633324,0.19919269845240706,0.6958204437741387
8667.0,0.16339922968995613,0.6755511495610904,0.16309359796148448,0.8081631867197963,0.15857597532721002,0.6092010800549019,0.1444997271662487,0.757042740119374
8668.0,0.2499743204435477,0.47750343264157175,0.07008322871128268,0.8395108279294938,0.19508188987839503,0.4779084165439045,0.08819320875761605,0.8179607611964244
8669.0,0.12867784236642543,0.6678895594107539,0.026539726773625816,0.8027996675779339,0.15469405511947798,0.589667996776754,0.012137074178951934,0.7669488957643864
8670.0,0.21391665444670677,0.5401265809150078,0.17829648794277209,0.67019014791708,0.19592917551889855,0.49715957763631735,0.13909944081990488,0.745373122936229
8671.0,0.07451905566484168,0.5822611856466346,0.04898447042362545,0.7808127060481361,0.15567785215375807,0.5638252189588115,0.09712084411762589,0.7412258961348357
8672.0,0.19324589030102984,0.6340736537480988,0.1477307982748077,0.6759217363395369,0.11391343056527603,0.6384703850779943,0.14717147848352852,0.7352782551426458
8673.0,0.1312055126430956,0.5836213717598977,0.2181604700092211,0.7745190581746731,0.09957519547617721,0.5867303845482468,0.16543332129532473,0.795030946585598
8674.0,0.14609918444369302,0.5648757322241936,0.1567309580280597,0.7708868739690395,0.1322556509729793,0.5360646764135168,0.16646758977435638,0.8483631060620382
8675.0,0.19477901354125726,0.5348109021588381,0.11686362602661189,0.7698057588068243,0.15393796261275838,0.49679061230921207,0.09925874545643865,0.8252239168378139
8676.0,0.13973373311151885,0.5512861732764965,0.2179918582987784,0.8351022496186009,0.14922886547640246,0.5745899412189601,0.23973442430428804,0.7571128777923946
8677.0,0.13770789010025347,0.5106093812181727,0.16792249999753395,0.6928181677063157,0.12075875448368834,0.47278903839998065,0.13808115739749383,0.7017706932565204
8678.0,0.11196929529426432,0.5772737707457039,0.1774261257471685,0.6812317266902596,0.08206642670813835,0.5704734795733657,0.16147014338119448,0.6924749042962475
8679.0,0.1530109459601399,0.5937399960271168,0.18224726201991792,0.6561827492962553,0.11920377909589774,0.5883256550208671,0.1662852113555573,0.6670384271164949
8680.0,0.1357372637552571,0.6495035732713247,0.14535597500302497,0.7893794007685524,0.10967299630067373,0.5921042738863207,0.11041849454173303,0.780846447535481
8681.0,0.16271091381765404,0.5811263104533467,0.17684536221293862,0.7784723706619906,0.12489027430297028,0.5356991436396044,0.1975713095718845,0.762084590875844
8682.0,0.12469535401114473,0.5914871816515053,0.14402252045815422,0.7050682223437005,0.1180714139364909,0.5156057388560953,0.13233513198974833,0.713963461409918
8683.0,0.12311924218634528,0.595267247860086,0.20432206408831324,0.7024317048489287,0.1403069854634964,0.5685151870031291,0.13544473023125647,0.6366702042479915
8684.0,0.15893878636490305,0.5880609605125745,0.09482261152651257,0.6913821653613127,0.10705099913411686,0.5596979460851799,0.11061005167402982,0.6684185478892175
8685.0,0.23939335321671076,0.6018128195872834,0.13981622592139223,0.711797923798825,0.20110206163712974,0.601449234591243,0.10370139443716653,0.7742346979476338
8686.0,0.09637061367294741,0.5347281856478039,0.17297328644108784,0.7472320977078941,0.07352141088267672,0.5326646588568753,0.10223798077902302,0.6994141685747195
8687.0,0.07254824634207604,0.6052957536534649,0.14625534831506073,0.6787656377097606,0.09992860744597465,0.5936608033359789,0.1153500962632279,0.7080535691139289
8688.0,0.15431818882212936,0.5915412036757548,0.09544294653917795,0.7768484571899554,0.11951688693250162,0.5888248393299591,0.07015739070180871,0.7920570626494339
8689.0,0.16597541441411867,0.5671030761930304,0.14650775702362104,0.6791302990060216,0.1568159654127328,0.5392115376771969,0.09620312688892341,0.7572876806152635
8690.0,0.14637337798564562,0.5241230876220315,0.2705549060862385,0.7804105827180378,0.11046770376543691,0.5285329174847675,0.23689290866980173,0.8049234508208372
8691.0,0.16236933996779526,0.6537998024988352,0.07398608542147835,0.6958209321026112,0.2170363082636868,0.6065823662226748,0.012698994116419726,0.753858606770109
8692.0,0.10909023179446346,0.5953320446374002,0.14794612498108375,0.8334155073377125,0.11310208853308268,0.6237561842877426,0.04422987005381174,0.7863635553551873
8693.0,0.17998478414367103,0.6195086632893799,0.1824630518272298,0.7952398637215158,0.1914031182772078,0.6255440578671596,0.1326727412345008,0.8411640344041871
8694.0,0.13626728279179665,0.6526383231334497,0.10382830092828586,0.8052089442076685,0.08386802603939714,0.663636866619413,0.045763200496594436,0.8519355604240104
8695.0,0.13967304017225418,0.6456523022069957,0.17486194496804353,0.7171671324553112,0.1515636127278981,0.6157671702009111,0.07839323644088836,0.7212738844664841
8696.0,0.1248128250099365,0.5214910485718875,0.11218214605676148,0.7290535938777514,0.11144521511920402,0.5319970069525581,0.14553956568880722,0.7451577134937679
8697.0,0.17078570838343304,0.5539348339036049,0.13668042292525612,0.660299734331557,0.06733755273467068,0.6277492852863702,0.17485107357003926,0.677850907231516
8698.0,0.12779586060629422,0.5773995067104974,0.17600373738808295,0.6612135695255832,0.07922278460347343,0.5601207108355695,0.1732184606435112,0.7244193262316969
8699.0,0.22671226594940638,0.5394005851044076,0.09200292231416475,0.696869199945663,0.1622421319445948,0.5524355997653956,0.1462279780012068,0.6442652140295877
8700.0,0.18265647183352046,0.6197207501613067,0.1382013788954188,0.8803064525947568,0.1671367513191626,0.6450991497337668,0.11928829908063676,0.8418597371989733
8701.0,0.19508400231180487,0.5668046245511779,0.1476579781464729,0.7905067848878982,0.20557633521764274,0.4991112844163581,0.12645523304865947,0.7426000071109229
8702.0,0.09577829512570404,0.6049536488271023,0.17787900767484902,0.6947818670097723,0.07780079686256158,0.5610298027297063,0.16780787072545422,0.746353364700596
8703.0,0.18494100303775068,0.5584882641003159,0.1862391601891444,0.7651803400960244,0.15466288002909323,0.5230908188565877,0.12388571073609,0.7377485471170644
8704.0,0.12318046668117709,0.6371537674023716,0.16877743052126387,0.7824960924587222,0.1228459917587088,0.5933613702225671,0.12447769627465277,0.7854315217351768
8705.0,0.1738460203166257,0.5729408841184391,0.07315550954993849,0.6597305914886017,0.1586717505923616,0.5289362348765749,0.0786674616055052,0.6853849850140818
8706.0,0.23675396303821786,0.5388565745200973,0.15727900594030025,0.6944966926647722,0.19010711629596244,0.5144298295095666,0.06851033284772257,0.7429599029662199
8707.0,0.20043338149444795,0.586916086619939,0.16364074484410399,0.7631155692938856,0.07307524764735263,0.5920918438085536,0.101555899525124,0.730818204404386
8708.0,0.13782531393013386,0.5364880999648529,0.22167108881992334,0.7571186062801397,0.06314967768025781,0.5497025619610412,0.19288482357876546,0.7504052288327756
8709.0,0.14109510384660862,0.6333368797471144,0.1539516273633621,0.7707001456639394,0.1027900985682777,0.5270250855520899,0.08477308206281009,0.8050997541283209
8710.0,0.09253649431541858,0.5555650512647203,0.13562537484838844,0.7040522442935445,0.042098772524127526,0.6026766179891752,0.16198502863028352,0.7471468986220771
8711.0,0.09490088926003182,0.6091096354799065,0.09633273363210855,0.7644522582612469,0.08021497421123058,0.6125214006245869,0.1566857107867463,0.7300157501023818
8712.0,0.09577121520479957,0.5857907155785529,0.15038587265968403,0.756169938249273,0.04993423121644014,0.5845830919199386,0.09696020457380428,0.7012727696052394
8713.0,0.2211652894049104,0.5739746214868847,0.14084254806890525,0.7810168619507843,0.15598877840380965,0.6353852723247257,0.05897982590272477,0.7338084799417004
8714.0,0.18439224307411634,0.543011137240381,0.06469867285881495,0.7620576024124821,0.11205391489903604,0.4848272601706114,0.03899875285731014,0.795427072356091
8715.0,0.12169478791082611,0.5874902282519067,0.1490812892737821,0.7455156035798545,0.08114036834552962,0.5518524405876093,0.07049633138785794,0.6516125808693971
8716.0,0.09088594681874486,0.5403867101712061,0.12829578569165456,0.6645762557593691,0.13570337876404892,0.5840524476414188,0.10560131481156532,0.6890203906812644
8717.0,0.08324389585400999,0.5495348512477152,0.1666965773821534,0.7286471694264757,0.10710980166658146,0.6996191357572883,0.08221343886350496,0.7622199564809762
8718.0,0.26044218923198337,0.5551091398983408,0.07847971523937043,0.8101035812959796,0.14245342766707836,0.5700934253881087,0.07833311841352497,0.7586484625813625
8719.0,0.13249401753999873,0.5354150064298051,0.15722158662912644,0.8181666475024105,0.13427969018277963,0.461778498635276,0.17668092826517068,0.8628859118352352
8720.0,0.24188381979708795,0.5994494401815579,0.1869214067193843,0.7908624702066311,0.14942515718632876,0.5550823001800609,0.1502452764664497,0.742606813915927
8721.0,0.15249627032856594,0.5840823508171665,0.2433009574233205,0.6485939269956701,0.11575556546870303,0.5495345402859755,0.22542080245727902,0.663087610528379
8722.0,0.13566077597784812,0.6528231236577814,0.10244376592333541,0.6992501260238365,0.09303066776016067,0.6473252678193262,0.09203346907133891,0.6840396775601789
8723.0,0.1487715070383164,0.47597740505692954,0.18344638936340604,0.7067929588537261,0.16449501640920516,0.39068949456026303,0.09613901449267814,0.6975418952388281
8724.0,0.15101325207723543,0.6123294773671312,0.1575268863201525,0.6429153516777942,0.1403668001584606,0.5601397990505887,0.12276432137662141,0.6957490746764847
8725.0,0.23389389852007794,0.6160040652126197,0.1090485644596963,0.6948870120131967,0.2000894532068287,0.6353342292719049,0.08255835672247258,0.7067957278887889
8726.0,0.11801755980067785,0.6332068984883734,0.11164922585417347,0.8120142505831329,0.1076103038351448,0.6442182882460941,0.1137014351926382,0.796620830456817
8727.0,0.1350681683378609,0.5446868877879449,0.10609609542586096,0.742247436434528,0.08470940572181007,0.5866653355960239,0.09103580830975488,0.7396828519078156
8728.0,0.10415295597656536,0.5538988753183833,0.203697528602578,0.6475063312697518,0.08709606570579354,0.5769309577615047,0.1611453020244653,0.655940822931143
8729.0,0.14150324217720822,0.48614776934469667,0.18996825131025794,0.7276893945920102,0.16845327208557137,0.4902960594964796,0.18280820027675304,0.7256625643509551
8730.0,,,,,,,,
