frame,label,x,y,area,ex,max_ex,gyrad,sharpness,q84_grad,max_grad,bx,by,bw,bh,particle,mass_frame
129863,192,478.9731646968592,921.9638234779824,2738,171470.77845077708,215.9324424408373,24.491867554684536,153.52935610119505,16.214714753017027,76.7896481198825,457,865,47,110,6972,0
129864,212,479.1539305456362,921.8399812855796,2828,174165.28195684002,220.00512028441543,24.67564866915419,148.87686059527798,15.618704413042822,78.82376597105342,457,864,48,111,6972,0
129865,203,479.287593418861,922.0766092526152,2751,171651.72485527996,214.6213002852371,24.557741187543048,144.30695832565252,16.230731371595127,80.16698597371281,457,865,48,111,6972,0
129866,205,479.4119662880586,922.1200738083944,2728,172056.37802157667,215.86752265831615,24.54275302095576,141.16391821693358,16.257924093696822,80.16540843992408,457,865,48,111,6972,0
129867,243,479.5720883105102,921.9186416958014,2849,175830.52574392033,217.31777865755456,24.78437378202576,129.72494147575975,15.63249940920332,77.46955032139593,457,864,50,112,6972,0
129868,250,479.7419272126076,921.930243945504,2862,176031.35103618068,219.9157232623067,24.8261324962498,129.44539889784062,15.6363753840745,74.7721308779734,457,864,50,112,6972,0
129869,236,479.9108101943756,922.0751221037729,2818,174433.61076071794,222.61451991571735,24.76888444842697,134.8000379426224,15.616474089796608,72.0752332385554,458,865,48,111,6972,0
129870,226,480.0361613321629,922.2410865352708,2755,171915.4710567855,222.61452605084168,24.706957904392084,142.3144155122322,16.244886136227986,72.87679979681651,458,865,48,111,6972,0
129871,265,480.2136864764552,921.8800336902664,2936,178126.42665538774,221.2651376937121,25.003470648978293,130.90008556234102,15.527288933802048,73.00530947462994,458,863,49,113,6972,0
129872,160,480.295191855748,922.1971903665404,2770,173593.9552349653,219.91574984784015,24.747260472771643,136.95734442187631,16.184903462774532,73.00686777647628,458,864,48,112,6972,0
129873,209,480.4112125198379,922.1842533443722,2776,173648.500289889,219.91575649421725,24.74932287134897,139.89926880164415,16.192589339742494,73.27807692810502,458,864,48,112,6972,0
129874,197,480.5442620092897,922.1087675314884,2790,174347.86052390607,218.56636941523,24.79033012424491,143.99306958176797,16.120961387522364,77.33415549367973,458,865,48,111,6972,0
129875,187,480.65397711755554,922.1260617832272,2769,173572.2541576515,218.5663763172317,24.77812419986877,142.75743949571725,16.202868754907698,73.26435534087025,458,864,48,112,6972,0
129876,188,480.751322137456,922.202323726644,2734,172661.96135401382,217.21699000512825,24.70893992899965,141.7860148610322,16.21719964524145,75.00971271482264,458,865,48,111,6972,0
129877,165,480.8720293218073,922.0093125266584,2768,173973.84209836862,217.21699716275424,24.774633214312743,139.19485299400498,16.25290292542554,75.00655424391668,458,864,48,112,6972,0
129878,212,480.97295366600673,921.8501355944444,2821,176409.76276015828,217.21700432037755,24.87661092758356,136.98278299380397,16.20668053724207,73.65817261527847,458,864,48,112,6972,0
129879,181,481.0877279221916,921.8318003251,2776,174344.0320439407,214.5182265835694,24.743216792923786,142.40230076616504,16.22601020451469,75.67992334240138,458,864,48,111,6972,0
129880,197,481.1784289812369,921.781389644152,2781,174739.8666430361,213.16884206086056,24.75513908032123,140.42270749251117,16.22386270351901,74.3268257081944,458,864,48,111,6972,0
129881,213,481.2285441701972,921.598161703026,2847,176942.4592654802,213.1374515103664,24.89415650016347,137.60925980919592,15.638628810546246,70.95353680103936,458,863,48,112,6972,0
129882,167,481.2848950482207,921.6239275573946,2802,175363.90139845028,211.7870549066467,24.78098186100342,138.32582844809275,16.194383867162713,70.31823288080975,458,863,49,112,6972,0
129883,278,481.34937148022544,921.366257287218,2950,179576.50002829317,211.7870630929121,25.0127148883234,133.61452874765575,15.504959127693844,71.66357820604789,458,862,49,113,6972,0
129884,212,481.3985557586572,921.3724591646748,2857,176967.6605001189,211.78707127917443,24.88318544278595,139.3360938044363,15.654269509892895,71.66204745759455,458,863,49,112,6972,0
129885,201,481.4439732414282,921.355614912538,2890,178175.4574541979,211.7870794654336,24.929535640231084,138.84587487011683,15.978522668500087,77.72297277159885,458,862,49,113,6972,0
129886,252,481.5193089371986,921.2925218232344,2927,179954.84942608373,210.5235326896843,25.037461771205347,140.2804444432074,15.614303299080117,73.66260965175354,458,862,49,113,6972,0
129887,215,481.622179920216,921.241523732133,2931,179953.5595219127,213.1395511365712,25.039984785737836,135.46795292598924,15.580338507860027,71.62862895461211,458,862,49,113,6972,0
129888,206,481.7186889133245,921.2505100182424,2888,178911.18744475773,214.4898958709149,25.0012670868468,138.8067114463467,16.08124426728626,71.69444375107585,458,862,49,113,6972,0
129889,193,481.8012269766627,921.2537030704638,2839,176773.94892001024,214.48990354514507,24.876616877152568,149.06499960594005,16.23062601444905,74.38978864854663,459,862,47,113,6972,0
129890,197,481.94327982884414,921.1012208276398,2905,180106.6981903467,213.16930198494268,24.96785635592167,147.17305535330823,16.273910090266515,71.68341687878406,459,862,48,113,6972,1
129891,231,482.063483396464,921.1593940448022,2910,180843.33451328895,213.18220587182515,24.945808728246256,143.94779715668668,16.22357983237489,73.72682921698208,459,862,48,113,6972,0
129892,205,482.2048791535357,921.1452049430372,2938,181658.7550234888,214.53898470918097,24.948915315416325,150.31921730282187,16.178912576100164,80.46213595054009,460,862,47,113,6972,0
