id,dv,sigma_dv,mono,sigma_mono,area,r,sigma_r,q,sigma_q
5632,8.918084299172394e-05,1.714118824098366e-05,37.95699449265443,27.69146701810605,1420.864,3.90224434772554e-06,2.0989759463871935e-06,61,47.403963830805075
5636,9.105166060586562e-05,2.1790245336086712e-05,300.8549435610133,54.800311660578224,7530.5792,1.5098675881082203e-05,6.258186510718329e-06,500,164.5624887907444
8196,2.5413056989604878e-05,1.907315648170118e-05,22.48485008177164,12.200721092965978,852.5183999999999,2.771314533387884e-06,1.1501228631053515e-06,10,9.773587179349299
5642,4.633242993967441e-05,1.817466269202924e-05,94.93277563166053,26.284365475912022,2699.6416,7.104384557083678e-06,2.5644987393686825e-06,80,40.05081179899654
5646,8.362618915302333e-06,2.037963979521478e-05,49.16965202278425,29.49705534018995,1705.0367999999999,4.621489687484128e-06,2.1904929636354408e-06,7,18.89363456825559
5146,1.363492334347426e-05,1.807694949451239e-05,43.96652436894479,24.028615653715786,1420.864,4.2956968225860595e-06,1.894670234007897e-06,10,15.783828041136935
5147,1.8047345217704993e-05,2.3267076689266106e-05,67.22946015052533,26.36526700808434,1989.2096,5.669973130111971e-06,2.185650397391524e-06,22,30.03629379790298
8221,-7.600204324189551e-06,1.52472436749222e-05,10.484742192348682,6.535263080994993,568.3456,1.6831731692663516e-06,7.453893507058896e-07,-1,3.066646788859092
5667,1.905584238656493e-05,1.8269901979907025e-05,82.41503885977615,41.36690406447756,2699.6416,6.477231144759538e-06,2.889358997833974e-06,28,31.304587016357587
5159,-0.00010822515287075262,1.9580938706557583e-05,42.79652945007373,25.986899525006795,1420.864,4.220633926726905e-06,1.995414450389895e-06,-84,54.81120273472702
4648,7.266874287052158e-05,1.3648617061905196e-05,41.47216007799373,13.833700983177161,1136.6912,4.13480352736067e-06,1.3866094311500297e-06,55,22.317480336163904
6706,0.00010740363045749376,1.9292611947576902e-05,12.142286921060196,6.201622592723836,568.3456,1.8526386402616928e-06,7.033685669544305e-07,23,13.289019045252557
5171,-1.926773356857066e-05,1.7907569795527845e-05,14.786868539764729,13.09029942325899,568.3456,2.1072815343577442e-06,1.2841559021248506e-06,-5,6.721379653949479
4665,4.1180498234548517e-05,1.4691564513754922e-05,25.40419365830957,18.71337805945776,781.4752,3.0014866748188955e-06,1.5926380208674054e-06,19,15.857999113528152
5180,-1.5800308490641934e-05,1.7117625863806827e-05,152.59260419785994,40.53517417000278,3978.4192,9.68821247847026e-06,3.7566567109000837e-06,-44,49.514689126440985
6205,-1.177169564122215e-06,1.4929619638198821e-05,70.86031310721182,22.591467891497604,2273.3824,5.868287135675791e-06,2.103199492941682e-06,-1,19.348897786301958
5696,1.1872459877291063e-05,2.0775600084543973e-05,105.13767295689301,52.32118106739062,2983.8143999999998,7.594659012750986e-06,3.463511102810276e-06,22,41.62835727432646
5697,1.2307818879047947e-05,1.767294865054477e-05,95.8379251617718,40.37825904447532,2841.728,7.148584778200885e-06,2.9802721160517602e-06,21,32.39777271799435
3650,4.358306351706799e-05,1.750720074507211e-05,17.90325274147736,14.470272584699238,710.432,2.3878517106445294e-06,1.3504956727950008e-06,14,13.013425087709578
5189,1.0245408991773049e-06,1.4936208152255585e-05,25.197076232244978,14.030058716562865,852.5183999999999,2.985470038998079e-06,1.273550405784333e-06,0,6.886024038490857
5701,2.2984814054308685e-05,2.0370678513842537e-05,19.424867479386176,18.027454865206742,994.6048,2.518614393742939e-06,1.6140438118221367e-06,8,10.53066642128698
8775,-2.5648705323478533e-05,1.792270948544901e-05,78.15702967243988,36.77566864895656,2415.4687999999996,6.256502225030699e-06,2.6814502904738204e-06,-36,31.254030428196117
5194,4.5760877614474686e-05,1.995616029587696e-05,14.722490956694324,9.00898789873367,568.3456,2.10128061771962e-06,9.313195762391563e-07,12,9.39795318241353
8267,-0.0001921335718647297,2.3137594414952717e-05,8.73263398673494,7.568944951023408,568.3456,1.4935687076828234e-06,8.81411819132187e-07,-30,27.14843740891219
8269,1.4670287725208346e-05,1.749288945140657e-05,13.415123960674126,10.74434133830685,568.3456,1.9773683566997385e-06,1.0985026094336546e-06,3,5.190294963850403
4686,5.9357760064039065e-05,1.7200705324791382e-05,98.04935567225972,27.330259942640765,2557.5552,7.25596966504019e-06,2.638178547056388e-06,106,45.04163410006571
5710,6.566971201523805e-06,1.776985901410555e-05,10.604693510362193,13.885448543750918,568.3456,1.6957342674850157e-06,1.4809502788879653e-06,1,3.831151833531678
5728,3.094169019874904e-05,1.7809913512005612e-05,79.90677000787984,42.41465458371876,2415.4687999999996,6.347698104097022e-06,2.911670625476327e-06,45,35.895486453980844
6245,-1.7166492863214164e-05,1.590521740231974e-05,590.5569693540629,130.25345919355973,13924.467200000001,2.3462798351134187e-05,1.1040492881999003e-05,-185,178.22436731038152
5222,6.906331973642795e-06,2.264885581872715e-05,167.8451776098469,39.399284136446944,4262.592000000001,1.0310658173903331e-05,3.975193624645056e-06,21,69.73647565660721
5225,-3.053442463957196e-05,1.530252912447393e-05,16.890080261897122,13.293710553264624,639.3888,2.2986415638987125e-06,1.2675897185169687e-06,-9,8.886063510903806
8297,-2.1868868930783837e-05,1.5891403844872766e-05,14.956945710968153,9.925511054718621,568.3456,2.123091806324589e-06,1.0069215589296209e-06,-5,5.9379496829275205
5227,7.533941218920053e-06,1.0870228708614689e-05,1636.26190210833,187.5436829520425,34811.168,4.5672521010678535e-05,2.42663479734204e-05,225,327.5737048777546
8298,-9.74384123956312e-05,1.6965785817133425e-05,16.921085118345438,13.08274210530651,568.3456,2.301398583449932e-06,1.249702400032754e-06,-30,24.220747850494803
5229,-0.00014913230774467938,1.3764535091740291e-05,28.889030921535902,25.207272970330337,1136.6912,3.264562745842903e-06,2.0089047477662996e-06,-78,69.89435538091885
5234,-0.0001909366456313707,1.4105186885006176e-05,36.13382347652479,28.681650181334373,1136.6912,3.778696207218935e-06,2.169063765962729e-06,-126,101.93263605793484
5748,-1.4877617706919397e-06,1.8289457143759395e-05,53.247418220351506,38.042324133755876,1847.1232,4.868523781413558e-06,2.6303506000762e-06,-1,17.836114667981544
5237,-5.088635912866936e-05,1.7629233722516272e-05,22.393927427805774,15.618858986388721,852.5183999999999,2.763984919187361e-06,1.3934226690888839e-06,-20,16.457470769765887
8312,-3.7303174448874656e-05,1.4706990300671113e-05,21.412222696587524,14.170730416301266,852.5183999999999,2.684176993270228e-06,1.293672336215143e-06,-14,11.4143187208177
4730,-3.6322531603684184e-05,1.8356490524642015e-05,269.62140070380934,53.9236720057004,6678.0608,1.4054840670897615e-05,5.76542723687093e-06,-179,100.15872346787032
5248,-1.0945356642377758e-05,1.4076934350427016e-05,75.01386005210739,33.738984038993465,2273.3824,6.0908832536917935e-06,2.539252212067788e-06,-15,20.548812245762655
4740,3.377424510996678e-05,1.1871156421756977e-05,40.09610704339896,25.865939441288255,1136.6912,4.044611458255304e-06,1.9878757226295774e-06,24,18.481634058260585
4743,-3.440113018041162e-05,1.6489479550871023e-05,16.37544237333942,11.7759591600617,710.432,2.2526193447591813e-06,1.1479205290395743e-06,-10,9.004764479485164
5769,5.719341923119418e-05,1.9748433473602185e-05,65.35971508646644,42.42840176891635,2273.3824,5.566405095168084e-06,2.848011494261059e-06,68,51.058874883402225
5116,-5.031323869179342e-05,1.742297642009134e-05,23.25189758979302,11.487364582605418,852.5183999999999,2.83274611630735e-06,1.1029824031559734e-06,-21,13.21098960134163
7308,5.8463457047110844e-05,2.140913798641236e-05,11.742695476584615,9.085980040202385,568.3456,1.8125593085995539e-06,9.724706780253084e-07,12,10.872191410074143
5264,-1.6956066649454993e-05,1.5778426456847277e-05,42.11225057692356,17.860079557361647,1420.864,4.176403556225069e-06,1.5753893126556759e-06,-13,13.46185754257732
7827,7.837853503104199e-05,2.7128857325912812e-05,78.1398759663314,40.14632535774403,2557.5552,6.255604699931488e-06,2.810558638706934e-06,111,70.93141735493303
6292,1.5482234643511064e-05,1.5272262821610777e-05,16.66280923405275,14.090845870975997,568.3456,2.2783783037128064e-06,1.3375616295900033e-06,4,6.15993032669137
7834,-2.7330946700642427e-05,1.4070045506142275e-05,39.21541957057162,22.293048985657652,1136.6912,3.986324623328145e-06,1.787602741388507e-06,-19,15.250519283497159
5275,1.8503610115639588e-06,1.2369304003462328e-05,47.05330129171768,20.55995601226266,1562.9504,4.490489960422585e-06,1.7443484621526552e-06,1,10.665703400024814
7835,8.341127332048161e-05,1.9474747943087182e-05,10.494462922535751,9.66639908225371,568.3456,1.6841929546551835e-06,1.0552671622535116e-06,16,15.35419428127447
5280,3.3209192406207774e-05,1.5830778829108108e-05,22.566595013372233,12.224317744043457,710.432,2.777895536807706e-06,1.1517466087376647e-06,13,10.051656730083618
5281,-3.707317028810507e-05,1.804173264682215e-05,17.773099997827966,9.412059384611974,568.3456,2.3764915207136636e-06,9.518842031310243e-07,-12,8.809611478424573
6315,3.0423825324751585e-05,1.0293050717342848e-05,61.21122434555095,14.740739505145116,1847.1232,5.332870387454999e-06,1.7193565797314375e-06,34,14.839875558075756
4779,0.00010821910989625231,1.4984032983460732e-05,32.29201643195079,14.576991243585347,994.6048,3.5110280207681013e-06,1.3316342997434373e-06,63,31.33014649714098
5293,2.431540445444992e-05,2.2315379548684815e-05,51.27188455048388,20.10722091450427,1562.9504,4.749695233142974e-06,1.7653843094965127e-06,22,22.947276065577924
6828,0.00013740270535272613,1.8384959944172812e-05,19.743550758412795,14.286934741560296,710.432,2.54554490889191e-06,1.314933981726698e-06,49,37.08429883705313
5296,-8.768934417069243e-06,1.8744078480380596e-05,107.48341333648575,32.69380878552555,3125.9008,7.704983919521295e-06,2.910889418388788e-06,-17,37.27491538856527
5299,-4.103838642198342e-05,1.9851854768783288e-05,27.40097584736816,21.079766059865694,994.6048,3.1536532916339847e-06,1.7408625866084159e-06,-20,18.88009179887526
4789,2.5503140845948633e-05,2.0147508276338185e-05,162.5171492552247,37.65022639008285,4120.5056,1.0095544338660703e-05,3.8622719680759045e-06,75,63.18564948319026
5303,-5.312468963988402e-05,1.9465418688700735e-05,92.01917369520564,32.61562108069652,2557.5552,6.961105145927925e-06,2.69454264710495e-06,-89,47.073061161771875
4795,-3.066732358999538e-05,1.9349090162447645e-05,38.30946888137896,20.42937534177638,1136.6912,3.925890615498934e-06,1.682862104449068e-06,-21,17.97074944675143
5308,-3.948045854241268e-05,1.4730582474053675e-05,21.423670369683283,13.777258221902438,852.5183999999999,2.685114846716126e-06,1.2647614764636912e-06,-15,11.677928231512636
7869,-5.31575888024555e-05,1.7718601939997645e-05,24.882220713273707,22.646449790724816,1136.6912,2.961034232957664e-06,1.8798407035938804e-06,-24,23.656487481656807
5822,1.5559149181309166e-05,1.84214524162735e-05,88.72391737592983,53.4771156444688,2841.728,6.797149276654878e-06,3.3968989914132986e-06,25,33.69720148469305
5309,-1.3783747784808748e-05,1.9370746011902117e-05,17.90991126362015,11.032094447603482,568.3456,2.388432119266932e-06,1.07584952693481e-06,-4,6.951085810203639
6332,6.402706624097119e-05,2.610897340582385e-05,38.97235680705705,25.069642070940784,1847.1232,3.9701583440499404e-06,1.943351942309474e-06,45,35.26681668931106
5314,4.829023619703675e-05,1.6713909630317664e-05,22.209411589602876,21.675405921507696,852.5183999999999,2.749078639462274e-06,1.8503197486152428e-06,19,20.469780864128314
4815,-2.6209693065005865e-06,1.1205096588232963e-05,56.75268504015231,19.926853957861425,1562.9504,5.075676507910603e-06,1.8224345958564358e-06,-2,11.671106135962953
4322,6.219746406702961e-05,1.4793591175184098e-05,49.26412648201078,20.843269429119534,1705.0367999999999,4.62729149623188e-06,1.7768934220345686e-06,56,28.18302356879428
4837,-4.636164110052924e-05,1.4074856370141715e-05,23.548228530449922,16.3841839818463,852.5183999999999,2.8562901337614557e-06,1.4408877946575098e-06,-19,15.38058225562923
7406,-8.115383962310646e-05,1.475917574484307e-05,27.897053550541205,24.529800181782132,1136.6912,3.1908541711713515e-06,1.9739512684722364e-06,-41,37.56726996407501
5360,-0.00014223287463650084,2.1948473843207192e-05,9.570957947693925,12.137584812856023,568.3456,1.5857872144650204e-06,1.3415761932866854e-06,-24,31.965787720408475
5873,-0.00017543129732591224,2.2013278483337503e-05,36.596626372519026,37.08728144552089,1705.0367999999999,3.810258874944369e-06,2.6928642188905303e-06,-117,120.86391929011349
4848,2.665526218914408e-06,1.7960223643502047e-05,126.4334605336574,29.06103172937229,3410.0735999999997,8.567687466008246e-06,3.129927216428561e-06,6,41.54833115717501
4856,0.00017005365832033987,1.995205801771677e-05,28.26373516030837,12.228758544820282,852.5183999999999,3.218204482945696e-06,1.1726148058307627e-06,87,41.07382874053077
4862,-7.489330700397666e-05,1.6392875093376246e-05,19.216067619250747,11.186654734166467,568.3456,2.50088662356902e-06,1.0822226773742937e-06,-26,16.730771148807978
5374,-3.782702659969696e-05,1.74789059252478e-05,43.456435283615654,26.473467914920988,1420.864,4.263057399564667e-06,2.0224747341060703e-06,-30,23.321206779429634
7426,-0.00011620545160110088,1.706224729108891e-05,12.168627251301528,12.862661422694368,568.3456,1.8552644119569797e-06,1.3249862999028155e-06,-25,27.801285363526926
6404,-5.188443393204578e-05,1.4857305999600823e-05,101.4598720780393,34.86632267059777,2983.8143999999998,7.419951342429631e-06,2.8833234532661626e-06,-96,44.896268553377084
4871,-3.252915073549477e-05,1.4740105929167396e-05,27.295365276910843,12.432304891273315,852.5183999999999,3.145703528287177e-06,1.1787290788014432e-06,-16,10.648582838569242
4872,-0.00017002376758477742,1.5315424296963695e-05,35.912596748860835,26.983454528854217,1420.864,3.763559347604392e-06,2.0659202255305395e-06,-111,85.7612899762801
5900,2.985149874856609e-05,2.661248500335946e-05,41.72486345578723,40.004260254818796,1847.1232,4.1512533227623765e-06,2.8088282705721733e-06,22,29.96516426302061
6926,-6.144486966404963e-05,1.6269483156670257e-05,21.692272304357843,18.93868216132563,994.6048,2.707070575434195e-06,1.6491741238153415e-06,-24,22.465077548512944
8462,0.00010448987415715265,3.149301591441846e-05,19.248416642602223,11.804273160066606,781.4752,2.503637510090831e-06,1.1285457656658653e-06,36,25.593743226409703
5393,5.7272037540381946e-05,1.6151372581611195e-05,16.243874248646307,18.110165027891945,710.432,2.240773660586209e-06,1.6911212109192004e-06,17,19.68942210731192
6424,8.377962314173275e-05,1.63916390734916e-05,79.38567833783347,28.518313426516745,2273.3824,6.320611966239665e-06,2.40594098654076e-06,121,52.27918545119896
5403,-2.8606107191950093e-05,1.4867056972964588e-05,24.778693156427913,17.242800629639877,852.5183999999999,2.952976140067888e-06,1.4938828650817607e-06,-12,11.385425834222799
4893,4.503265142662324e-05,1.4455867880552902e-05,65.69602386528277,17.665469215118,1847.1232,5.585108690662843e-06,1.8762625739162965e-06,54,23.754107078476128
4894,0.0001144373140449455,1.8006176472926787e-05,21.29945510500347,12.104321626902431,710.432,2.674929177238383e-06,1.1443358116189219e-06,44,26.93159243531268
5406,-7.334296476902468e-05,3.1924498710698485e-05,35.55187932336596,33.25971924262455,1562.9504,3.7388087346854362e-06,2.462243603853635e-06,-47,49.59254354281968
5932,-6.581486924317064e-05,1.6413611261301795e-05,39.282414273307765,26.359414452562596,1705.0367999999999,3.990774381442463e-06,2.0170119327833767e-06,-47,34.41093812421572
5425,9.365656387295948e-06,1.61913674897128e-05,43.97855955870022,33.52186272036967,1491.9071999999999,4.296465337694794e-06,2.411942433286916e-06,7,14.262800607376937
5427,-1.0787170920190641e-05,2.2689656055934688e-05,88.38897946931932,44.79522746750926,2699.6416,6.780367291894136e-06,3.0633055731131667e-06,-17,37.786298770231305
5945,-1.4110347403313828e-05,1.3629567595656153e-05,81.13900608560438,48.59606199250978,2557.5552,6.411507058204338e-06,3.1666000636718735e-06,-20,23.95082561690757
6980,6.135657473203788e-05,2.0003956781881104e-05,343.4402874772426,63.79326954128324,8383.0976,1.646329260036103e-05,6.991531989662159e-06,385,153.28911935669237
4439,-1.967104676750798e-05,1.5252669182702839e-05,42.03428889654045,19.245806643706953,1420.864,4.171348533476598e-06,1.6419558932392075e-06,-15,13.75904098956267
5977,-9.01340527977103e-05,2.217896951522901e-05,44.95814566923666,30.25056496330757,1705.0367999999999,4.358775570274669e-06,2.227360512502816e-06,-74,53.97693433821805
5979,-2.4476175928679872e-05,2.8650699495857218e-05,67.54463613312916,41.67610598737,2415.4687999999996,5.687332382532754e-06,2.8191948669858234e-06,-30,40.19489191322376
5981,-1.5112107368568708e-06,2.0140679069815364e-05,108.84303370814523,42.66471449227283,3125.9008,7.768547643875887e-06,3.197621017854722e-06,-3,40.09844352954469
4958,-6.223992224970289e-05,1.7503555197863657e-05,17.235771503732867,12.211949598904186,710.432,2.3292829368382156e-06,1.1747877104204126e-06,-19,15.174517904790271
4966,-7.398395345897037e-05,1.7331559591648526e-05,21.934427087580215,8.647974425317116,639.3888,2.7267838977062025e-06,9.134161701611638e-07,-29,14.161851067845115
8559,7.881211219854713e-05,1.4292036799810984e-05,37.89188696464324,19.36074850776111,1278.7776,3.897868204519478e-06,1.623248778417427e-06,54,30.471133135322425
7024,-5.329007292666503e-05,2.4574155402018594e-05,14.156774725816655,10.767140523702723,710.432,2.0481504193444925e-06,1.0891542731243346e-06,-13,12.403011245228804
5491,6.865528391231106e-05,1.859805544122415e-05,41.05029641105656,38.01908337124851,1491.9071999999999,4.107264606842124e-06,2.6964687476666015e-06,51,50.18691244269127
4981,5.673549784379263e-05,1.5047150774630152e-05,42.16061388013449,13.289546763777869,1420.864,4.1795377957217665e-06,1.3731326487486364e-06,43,18.922261740205702
8566,3.336144740127905e-05,1.9567085422430686e-05,22.138304270249122,13.117130217571393,852.5183999999999,2.74332272807474e-06,1.2145778444303873e-06,13,11.398581892869597
4983,3.6414859591696834e-05,2.5257614815258744e-05,447.47207604530786,77.56030774741917,10656.48,1.957151044371369e-05,8.644162761442664e-06,297,216.60668110138403
7034,-5.83161613863912e-05,1.7162679375898538e-05,17.072201524623537,18.13661662216712,852.5183999999999,2.3148112215831028e-06,1.6721570627492391e-06,-18,20.209376959184567
4987,-7.20382635726288e-06,1.0177303677810567e-05,732.8626909473653,90.71885846818962,16624.1088,2.7018509415900757e-05,1.2735552213278523e-05,-96,137.4809467633255
8059,2.0786523677988774e-05,1.7526127133955844e-05,16.309693918063147,13.242817938665732,852.5183999999999,2.246703846262e-06,1.2715571390735727e-06,6,7.301598704606734
4990,-2.7431493271557717e-05,1.8049886815914895e-05,163.06888080924898,36.38160701248673,4262.592000000001,1.0117932162516218e-05,3.851099616142897e-06,-81,57.844085463536636
4993,-0.00016116806325006821,1.3491832473843049e-05,36.62682116811841,18.991949045301503,1136.6912,3.812313308265479e-06,1.5977569343264074e-06,-107,58.4581900106583
7046,5.504281389365724e-05,1.958691363032081e-05,13.10617031360215,12.805404461284482,710.432,1.9474841469981193e-06,1.2946729619458706e-06,13,13.82528027635805
4999,-0.00029698007915501443,2.0678873329806385e-05,11.144336464025642,6.973905050724597,426.25919999999996,1.7516476347562038e-06,7.803416327027653e-07,-60,38.931960324803846
5512,-5.359270770295023e-05,1.744705160830601e-05,55.6781526767081,27.081009121473908,1847.1232,5.012657775693107e-06,2.1064325795668264e-06,-54,32.73600340512305
8073,3.9553432563989496e-05,1.6493641175460462e-05,27.114232110384762,16.749093748014324,994.6048,3.132043996886468e-06,1.450922423232303e-06,19,14.842115721321015
6538,4.361272893433025e-05,2.4336074909989875e-05,42.11583798925451,45.48520477417026,1989.2096,4.176636085406774e-06,3.135892954418136e-06,33,41.06432986287579
5002,0.00010621921316252396,1.2766741937235268e-05,51.93983758190962,21.502403559472533,1562.9504,4.79004728248148e-06,1.831151959386035e-06,100,45.48463638609596
4493,-9.315692841408055e-05,1.3071845160865574e-05,46.67675652348232,30.795750881608452,1562.9504,4.46697021987436e-06,2.2557079761026146e-06,-79,54.646010905645674
6542,0.00010738412659426632,1.8259972015426467e-05,35.055855030798334,27.61604116372781,1278.7776,3.704631490840781e-06,2.110288355545376e-06,68,56.209797152835556
5014,9.926331931623064e-05,1.8291974991924468e-05,78.07152819492451,22.204227092775263,2273.3824,6.252027894448171e-06,2.1981338633518603e-06,141,51.547182164388474
5533,4.114774580493584e-05,1.8577427368138943e-05,30.01703620277657,15.891035755687412,1136.6912,3.3473217668609926e-06,1.3974855698463687e-06,22,15.993463348004962
7071,-0.00016644880788084962,1.7352427584769874e-05,38.95078782423353,31.367851125167185,1705.0367999999999,3.968722090778471e-06,2.313675588952639e-06,-118,97.52370898762064
5027,2.759263725016318e-05,1.1745020181540668e-05,32.721384288949956,13.224565489993283,994.6048,3.5414706279302643e-06,1.2620029441024175e-06,16,9.932251561202264
6051,-1.7389171882561816e-05,1.822573795213359e-05,93.29271397445761,45.74949220032781,2841.728,7.023923310852462e-06,3.1373198277078193e-06,-29,34.54491255546454
5542,-3.571683839798653e-05,1.784749671824978e-05,20.917097482544524,11.791079396967193,852.5183999999999,2.643445800039759e-06,1.1225588000697797e-06,-13,10.446859100724177
5031,-5.863677448775406e-05,2.2402418535362238e-05,37.0893392075504,20.574423934305706,1278.7776,3.843709793951802e-06,1.6870970895857608e-06,-39,27.293911509957535
5543,-1.6932480213564534e-05,1.6559752300562044e-05,63.784120030009646,29.663550017157075,1989.2096,5.478331201988369e-06,2.279837392085533e-06,-19,21.542543402086515
5545,-4.701643546067593e-05,1.5712529343934505e-05,20.01649675566179,11.092111355037186,710.432,2.5684908605050006e-06,1.073455872214319e-06,-17,11.364851382856628
5034,1.451053548791913e-05,2.371223932375747e-05,128.63522372456364,49.77177449867638,3552.16,8.664912706221352e-06,3.631809059910892e-06,34,57.486413635683284
5038,6.830093376130263e-05,1.6622155161835794e-05,23.080867929459547,14.058183601621169,781.4752,2.819110209566553e-06,1.2783489410816534e-06,28,19.285369027131274
8622,3.59089834847202e-05,1.3391321043123317e-05,22.516397946041756,12.092664249876035,710.432,2.7738553239591997e-06,1.142700247071633e-06,14,9.861333875436632
8112,0.00014886189445007688,2.064197938921684e-05,11.192432714209463,9.241488367233908,568.3456,1.7565849196694123e-06,9.975332017115981e-07,30,25.82066202982093
4528,9.722626304361384e-06,1.7038910426693174e-05,48.70311038441037,18.526759415001163,1420.864,4.592781879997871e-06,1.6711053317850229e-06,8,15.567502345313283
5554,3.503496182138332e-05,1.680199079806314e-05,33.72044746693082,25.024159512829378,1278.7776,3.6117749149228828e-06,1.9563967312908327e-06,21,19.29758419934906
6067,0.00012904339882177494,1.6672828202834112e-05,26.12091057248692,17.650447086622492,852.5183999999999,3.056565721525457e-06,1.51473398833564e-06,61,43.17406889137633
4530,-5.257743050234696e-06,8.90740840616207e-06,4462.222963640552,466.22432114812506,90793.2096,8.798835773710472e-05,5.3462284087529255e-05,-428,730.2754063481245
5042,-3.246339900473754e-05,2.5375663903268465e-05,47.84969792741926,29.184196371951643,1491.9071999999999,4.540020858800762e-06,2.171857768458676e-06,-28,28.407244808867524
7100,-5.769622876061046e-05,1.7749521237492752e-05,15.840045562807132,7.748950555498229,568.3456,2.2042056616770886e-06,8.255428295609545e-07,-16,9.90587323655457
5057,7.733351770968994e-05,2.0160033460068226e-05,75.287642815508,41.39045196829773,2273.3824,6.1054036763164475e-06,2.8417930814642548e-06,106,66.28128019955108
8650,2.4955828916860696e-05,1.6125211481888417e-05,13.869327749195193,7.547986116196375,568.3456,2.0208730473479647e-06,8.12840698946073e-07,6,5.411149527880424
6092,1.4202867189639473e-05,1.776203789183744e-05,74.46300977307257,45.26275595492054,2273.3824,6.061612443043363e-06,2.999838104794674e-06,19,27.007717854381532
5070,2.6390821514884233e-05,1.431310888280036e-05,65.64450043458427,18.903455210833446,1989.2096,5.582245403565851e-06,1.912364486179179e-06,31,19.895969674763318
5075,3.5849971186149366e-05,2.3296042847574578e-05,121.15063535475856,27.61336390916192,3125.9008,8.331982866451528e-06,3.015989330700096e-06,79,55.68291972646403
5076,-0.00020960061088896647,1.2716871680892675e-05,69.58728913047891,24.61061888524632,1847.1232,5.799165551224534e-06,2.152123450044294e-06,-266,101.98839479085092
8665,7.755842096904633e-05,2.0931773017804664e-05,12.65172617735668,9.917735843143834,568.3456,1.9030794617503293e-06,1.0353481093391547e-06,17,15.061659765159709
4070,7.206423284082257e-05,2.1055654843656853e-05,108.54820716620776,35.3539731380638,2983.8143999999998,7.754787648220598e-06,2.993144625632473e-06,143,65.37626761451779
5611,9.303005992614892e-05,1.7908423674427984e-05,20.87813444588811,22.71193452453283,994.6048,2.6402264324504914e-06,1.9581630791557246e-06,35,39.51033268306232
5612,3.713111349015737e-05,1.707996572598972e-05,30.279380194849008,23.17112886499623,1136.6912,3.366413879912411e-06,1.8591526170385867e-06,20,18.553624052074884
5100,3.755285453439043e-05,1.3804449804411302e-05,103.38386451367329,36.249698630159735,2841.728,7.511616006936288e-06,2.9471239830840443e-06,70,37.26224695895002
6126,6.188157333426671e-05,1.5096406805203074e-05,34.20189066421785,15.24391115159828,1136.6912,3.645396061310256e-06,1.3807152807949977e-06,38,20.316949066020445
5103,0.00012913859605903928,1.8576427371208063e-05,14.74992620434684,14.632619640421122,568.3456,2.1038390865670807e-06,1.4221370942295493e-06,34,35.21213159624372
5108,6.43822701319431e-05,1.867087360423727e-05,34.21759338221235,21.071116677832293,994.6048,3.6464898753073196e-06,1.7126905480961022e-06,40,27.928735015229346
5621,4.905175321634149e-05,1.720267441050484e-05,71.82834472344166,30.122042449108005,2131.2960000000003,5.920560908298108e-06,2.373500770083914e-06,64,36.23207127049804
5109,-0.00020231475299497677,2.1271912783725066e-05,10.980187870024222,8.38144951943729,568.3456,1.7347411942703596e-06,9.176539802445242e-07,-40,31.752998089878492
5111,2.9555437193554587e-05,1.3266290183439045e-05,45.61450859928551,17.686617417664337,1420.864,4.4002629791737134e-06,1.6014618019394754e-06,24,14.979372635345472
5113,5.2590820109790425e-05,1.4107774357293814e-05,40.72745600657449,14.733321170620881,1278.7776,4.086123578648577e-06,1.4167547527304942e-06,39,18.38183586826278
5628,4.358030230695704e-05,2.457706577681422e-05,121.10411471743474,45.65917032145567,3267.9872000000005,8.329891617263793e-06,3.429854039141743e-06,96,66.69148420512272
5629,5.2561564929433935e-05,2.710312436275993e-05,87.90561349023706,41.63266749270009,2557.5552,6.7561094633583116e-06,2.9447206016332868e-06,84,60.19152460566412
