id,dv,sigma_dv,mono,sigma_mono,area,r,sigma_r,q,sigma_q
5632,0.0004230041588990556,1.7130917950597e-05,37.95699449265443,27.69146701810605,1420.864,3.90224434772554e-06,2.0989759463871935e-06,195,145.3183359488514
5636,0.0004246672225383524,2.1997386106431532e-05,300.8549435610133,54.800311660578224,7530.5792,1.5098675881082203e-05,6.258186510718329e-06,1557,359.77419605573914
8196,0.000361242786966152,1.887965976498383e-05,22.48485008177164,12.200721092965978,852.5183999999999,2.771314533387884e-06,1.1501228631053515e-06,99,55.53636270414278
5642,0.0003799479918721616,1.8407251717880194e-05,94.93277563166053,26.284365475912022,2699.6416,7.104384557083678e-06,2.5644987393686825e-06,439,136.5847776923808
5646,0.0003421906405326558,2.045639875972142e-05,49.16965202278425,29.49705534018995,1705.0367999999999,4.621489687484128e-06,2.1904929636354408e-06,205,126.57982222322678
5146,0.00034725048527596103,1.7964488013279635e-05,43.96652436894479,24.028615653715786,1420.864,4.2956968225860595e-06,1.894670234007897e-06,186,105.08192886163393
5147,0.00035166290715019175,2.3366410455851924e-05,67.22946015052533,26.36526700808434,1989.2096,5.669973130111971e-06,2.185650397391524e-06,288,120.79692316379963
8221,0.0003261046845907208,1.560030505222168e-05,10.484742192348682,6.535263080994993,568.3456,1.6831731692663516e-06,7.453893507058896e-07,41,26.62978933317767
5667,0.00035267140431905213,1.8230038701757192e-05,82.41503885977615,41.36690406447756,2699.6416,6.477231144759538e-06,2.889358997833974e-06,354,184.80450722181467
5159,0.00022545239844006833,1.96413990808235e-05,42.79652945007373,25.986899525006795,1420.864,4.220633926726905e-06,1.995414450389895e-06,117,73.80142553973023
4648,0.0004062843048030086,1.3633528443624293e-05,41.47216007799373,13.833700983177161,1136.6912,4.13480352736067e-06,1.3866094311500297e-06,205,74.02098717811766
6706,0.00044136207522640686,1.9308845007999786e-05,12.142286921060196,6.201622592723836,568.3456,1.8526386402616928e-06,7.033685669544305e-07,65,34.582102780620204
5171,0.0003129998605024483,1.7718833186583107e-05,14.786868539764729,13.09029942325899,568.3456,2.1072815343577442e-06,1.2841559021248506e-06,56,50.59555687276344
5177,0.0003342245362356927,2.2463825305524413e-05,90.30332238890682,34.56878044448144,2557.5552,6.875991288562423e-06,2.732603857313853e-06,367,151.03892397450952
4665,0.00037506513688352795,1.4841981371343817e-05,25.40419365830957,18.71337805945776,781.4752,3.0014866748188955e-06,1.5926380208674054e-06,116,87.0393684731659
5180,0.00031781525344184514,1.7325558957250786e-05,152.59260419785994,40.53517417000278,3978.4192,9.68821247847026e-06,3.7566567109000837e-06,591,178.36374284747794
6205,0.000332438392368365,1.515819769324249e-05,70.86031310721182,22.591467891497604,2273.3824,5.868287135675791e-06,2.103199492941682e-06,287,99.97364668987338
5696,0.00034581622505456476,2.0569870875158506e-05,105.13767295689301,52.32118106739062,2983.8143999999998,7.594659012750986e-06,3.463511102810276e-06,443,229.71639018157342
5697,0.00034684903695661587,1.7870867730204696e-05,95.8379251617718,40.37825904447532,2841.728,7.148584778200885e-06,2.9802721160517602e-06,405,180.13973653542806
3650,0.0003764676150045856,1.7309726746496204e-05,17.90325274147736,14.470272584699238,710.432,2.3878517106445294e-06,1.3504956727950008e-06,82,67.38840352628209
5189,0.0003346401028316645,1.50866397849931e-05,25.197076232244978,14.030058716562865,852.5183999999999,2.985470038998079e-06,1.273550405784333e-06,102,59.00188959405346
5701,0.0003563224415102412,2.0553802232868187e-05,19.424867479386176,18.027454865206742,994.6048,2.518614393742939e-06,1.6140438118221367e-06,84,79.23588977382381
8775,0.00030992849161583545,1.7880278399055475e-05,78.15702967243988,36.77566864895656,2415.4687999999996,6.256502225030699e-06,2.6814502904738204e-06,295,145.31508532546908
5194,0.00038007005356295207,1.9983445589408414e-05,14.722490956694324,9.00898789873367,568.3456,2.10128061771962e-06,9.313195762391563e-07,68,42.849392890485525
8267,0.00014056147608696625,2.337517781847123e-05,8.73263398673494,7.568944951023408,568.3456,1.4935687076828234e-06,8.81411819132187e-07,14,13.351586557368494
8269,0.00034845309964185036,1.75510211741704e-05,13.415123960674126,10.74434133830685,568.3456,1.9773683566997385e-06,1.0985026094336546e-06,56,46.34046123815814
4686,0.00039297332199652625,1.7230071754530522e-05,98.04935567225972,27.330259942640765,2557.5552,7.25596966504019e-06,2.638178547056388e-06,469,146.3669330742353
5710,0.0003404071450125005,1.8024672582716052e-05,10.604693510362193,13.885448543750918,568.3456,1.6957342674850157e-06,1.4809502788879653e-06,43,57.952110075776545
5728,0.00036455725213123603,1.785972028181636e-05,79.90677000787984,42.41465458371876,2415.4687999999996,6.347698104097022e-06,2.911670625476327e-06,355,195.01324971970902
6245,0.00031705363661862183,1.5866929291355754e-05,590.5569693540629,130.25345919355973,13924.467200000001,2.3462798351134187e-05,1.1040492881999003e-05,2282,598.0219442809871
5222,0.00034045668928945553,2.3053548902819113e-05,167.8451776098469,39.399284136446944,4262.592000000001,1.0310658173903331e-05,3.975193624645056e-06,696,193.5232357361297
5225,0.00030310806832064673,1.5356859126378725e-05,16.890080261897122,13.293710553264624,639.3888,2.2986415638987125e-06,1.2675897185169687e-06,62,49.902637309509196
8297,0.00031125055745107895,1.5626163694640253e-05,14.956945710968153,9.925511054718621,568.3456,2.123091806324589e-06,1.0069215589296209e-06,56,38.5013923578544
5227,0.00034114950315140716,1.1124997752014244e-05,1636.26190210833,187.5436829520425,34811.168,4.5672521010678535e-05,2.42663479734204e-05,6803,1211.6632725482518
8298,0.00023733964951846135,1.6767797031164596e-05,16.921085118345438,13.08274210530651,568.3456,2.301398583449932e-06,1.249702400032754e-06,48,38.55197499588234
5229,0.00018460593777826058,1.3626367421547852e-05,28.889030921535902,25.207272970330337,1136.6912,3.264562745842903e-06,2.0089047477662996e-06,65,57.56736448796387
5231,0.0003329736223017844,1.613377117377854e-05,17.188333984349267,12.07897763662931,568.3456,2.325090859441083e-06,1.1644665078169673e-06,69,49.99825060335974
5234,0.00014287387505299565,1.4097860800900077e-05,36.13382347652479,28.681650181334373,1136.6912,3.778696207218935e-06,2.169063765962729e-06,62,51.01569421196061
5748,0.0003318778983165102,1.8582214879001707e-05,53.247418220351506,38.042324133755876,1847.1232,4.868523781413558e-06,2.6303506000762e-06,215,156.9673615927333
5237,0.0002822309425071335,1.7475102637006612e-05,22.393927427805774,15.618858986388721,852.5183999999999,2.763984919187361e-06,1.3934226690888839e-06,77,54.89499847971673
8312,0.00029634213971627333,1.4605759296471521e-05,21.412222696587524,14.170730416301266,852.5183999999999,2.684176993270228e-06,1.293672336215143e-06,77,52.33680896842696
4730,0.00029729303032880296,1.8622254850048405e-05,269.62140070380934,53.9236720057004,6678.0608,1.4054840670897615e-05,5.76542723687093e-06,976,242.16267894957969
5248,0.000322670205290109,1.4068966387815536e-05,75.01386005210739,33.738984038993465,2273.3824,6.0908832536917935e-06,2.539252212067788e-06,295,138.91335291417064
4740,0.00036800321708168525,1.1902518448824857e-05,40.09610704339896,25.865939441288255,1136.6912,4.044611458255304e-06,1.9878757226295774e-06,179,118.57887096031789
4743,0.00029960476528537985,1.67552341207704e-05,16.37544237333942,11.7759591600617,710.432,2.2526193447591813e-06,1.1479205290395743e-06,59,43.85271115394429
5769,0.0003908089811636813,2.0036387313480224e-05,65.35971508646644,42.42840176891635,2273.3824,5.566405095168084e-06,2.848011494261059e-06,311,206.87728283010964
5116,0.0002830090135283562,1.7398914431581947e-05,23.25189758979302,11.487364582605418,852.5183999999999,2.83274611630735e-06,1.1029824031559734e-06,80,41.317729802421056
7308,0.0003928996651385649,2.1600598196896243e-05,11.742695476584615,9.085980040202385,568.3456,1.8125593085995539e-06,9.724706780253084e-07,56,44.251664717283724
5264,0.00031665949528303204,1.5704181007370067e-05,42.11225057692356,17.860079557361647,1420.864,4.176403556225069e-06,1.5753893126556759e-06,162,72.65990141187672
7827,0.00041199409696352873,2.718868646166721e-05,78.1398759663314,40.14632535774403,2557.5552,6.255604699931488e-06,2.810558638706934e-06,392,209.78445231144386
6292,0.0003488408837936221,1.5060856257895296e-05,16.66280923405275,14.090845870975997,568.3456,2.2783783037128064e-06,1.3375616295900033e-06,70,60.7187448969438
7834,0.0003062846152318446,1.4084656222779459e-05,39.21541957057162,22.293048985657652,1136.6912,3.986324623328145e-06,1.787602741388507e-06,146,85.71394600458501
5275,0.00033546592294405117,1.2325758900176299e-05,47.05330129171768,20.55995601226266,1562.9504,4.490489960422585e-06,1.7443484621526552e-06,192,88.12178252127991
7835,0.0004164289135616011,1.9690460045976763e-05,10.494462922535751,9.66639908225371,568.3456,1.6841929546551835e-06,1.0552671622535116e-06,53,49.63122169198141
5280,0.0003660438677349708,1.581246035671079e-05,22.566595013372233,12.224317744043457,710.432,2.777895536807706e-06,1.1517466087376647e-06,100,56.31163592440598
5281,0.00029646979706808487,1.7962521182146982e-05,17.773099997827966,9.412059384611974,568.3456,2.3764915207136636e-06,9.518842031310243e-07,64,35.27209823581127
6315,0.0003640393872572386,1.0442330108334835e-05,61.21122434555095,14.740739505145116,1847.1232,5.332870387454999e-06,1.7193565797314375e-06,271,75.03785456174334
4779,0.0004418644240613999,1.4984049579462278e-05,32.29201643195079,14.576991243585347,994.6048,3.5110280207681013e-06,1.3316342997434373e-06,173,82.02380283159435
5293,0.00035793096638693674,2.2381116183087752e-05,51.27188455048388,20.10722091450427,1562.9504,4.749695233142974e-06,1.7653843094965127e-06,223,93.63179770248955
6828,0.0004710329281326494,1.8206688854803536e-05,19.743550758412795,14.286934741560296,710.432,2.54554490889191e-06,1.314933981726698e-06,113,83.49984227609853
5296,0.0003248466275154177,1.8906180611309594e-05,107.48341333648575,32.69380878552555,3125.9008,7.704983919521295e-06,2.910889418388788e-06,425,143.32612383601304
5299,0.00029229482915212767,2.0080217997500765e-05,27.40097584736816,21.079766059865694,994.6048,3.1536532916339847e-06,1.7408625866084159e-06,97,76.49755040064713
4789,0.0003585933268258482,2.0196835847409557e-05,162.5171492552247,37.65022639008285,4120.5056,1.0095544338660703e-05,3.8622719680759045e-06,710,193.69370400538602
5303,0.00028049087229260294,1.9308057694356e-05,92.01917369520564,32.61562108069652,2557.5552,6.961105145927925e-06,2.69454264710495e-06,314,120.97871399483314
4795,0.00030297465144306845,1.9536381285453586e-05,38.30946888137896,20.42937534177638,1136.6912,3.925890615498934e-06,1.682862104449068e-06,141,78.26401189938404
5308,0.00029387998366274315,1.4938289842532792e-05,21.423670369683283,13.777258221902438,852.5183999999999,2.685114846716126e-06,1.2647614764636912e-06,76,50.53470289269448
7869,0.00028066663091904986,1.7838948003806157e-05,24.882220713273707,22.646449790724816,1136.6912,2.961034232957664e-06,1.8798407035938804e-06,85,78.47317283969916
5822,0.00034910950649712176,1.82954610000707e-05,88.72391737592983,53.4771156444688,2841.728,6.797149276654878e-06,3.3968989914132986e-06,377,233.8119560174361
5309,0.0003203761996609278,1.937475603851951e-05,17.90991126362015,11.032094447603482,568.3456,2.388432119266932e-06,1.07584952693481e-06,69,44.265072205181326
6332,0.00039735601711000403,2.6202457089434168e-05,38.97235680705705,25.069642070940784,1847.1232,3.9701583440499404e-06,1.943351942309474e-06,188,124.58347965233682
5314,0.0003823741292844941,1.6634228301462645e-05,22.209411589602876,21.675405921507696,852.5183999999999,2.749078639462274e-06,1.8503197486152428e-06,103,102.04411918550444
4815,0.00033099459262598657,1.1391581885683968e-05,56.75268504015231,19.926853957861425,1562.9504,5.075676507910603e-06,1.8224345958564358e-06,228,86.27337633610036
4322,0.0003957808363786267,1.4754978848149835e-05,49.26412648201078,20.843269429119534,1705.0367999999999,4.62729149623188e-06,1.7768934220345686e-06,237,105.72391014183911
4837,0.00028727801162870426,1.396586883831262e-05,23.548228530449922,16.3841839818463,852.5183999999999,2.8562901337614557e-06,1.4408877946575098e-06,82,58.535287418377685
7406,0.0002524790501590598,1.5028839992178174e-05,27.897053550541205,24.529800181782132,1136.6912,3.1908541711713515e-06,1.9739512684722364e-06,85,76.50798604297302
5360,0.00019042638149393559,2.2292875400006474e-05,9.570957947693925,12.137584812856023,568.3456,1.5857872144650204e-06,1.3415761932866854e-06,22,28.443734960626635
5873,0.0001580639659389426,2.2097547150920094e-05,36.596626372519026,37.08728144552089,1705.0367999999999,3.810258874944369e-06,2.6928642188905303e-06,70,72.72904294732407
4848,0.0003362810881514016,1.8021147416100918e-05,126.4334605336574,29.06103172937229,3410.0735999999997,8.567687466008246e-06,3.129927216428561e-06,518,140.22546353155863
4856,0.0005036692202528267,2.0045346385896903e-05,28.26373516030837,12.228758544820282,852.5183999999999,3.218204482945696e-06,1.1726148058307627e-06,173,78.80887170394372
4862,0.00025839453954358007,1.6311649908011085e-05,19.216067619250747,11.186654734166467,568.3456,2.50088662356902e-06,1.0822226773742937e-06,60,36.332241412940014
5374,0.0002957848629623837,1.7699302344365162e-05,43.456435283615654,26.473467914920988,1420.864,4.263057399564667e-06,2.0224747341060703e-06,156,98.11696714583161
7426,0.00021740237158917943,1.699905974359523e-05,12.168627251301528,12.862661422694368,568.3456,1.8552644119569797e-06,1.3249862999028155e-06,32,34.442262390314085
6404,0.00028173112800044126,1.468698408545983e-05,101.4598720780393,34.86632267059777,2983.8143999999998,7.419951342429631e-06,2.8833234532661626e-06,348,129.57814896060614
4871,0.0003010864111969923,1.4797224084108449e-05,27.295365276910843,12.432304891273315,852.5183999999999,3.145703528287177e-06,1.1787290788014432e-06,100,47.765444434462694
4872,0.0001635917943477096,1.5466523179258035e-05,35.912596748860835,26.983454528854217,1420.864,3.763559347604392e-06,2.0659202255305395e-06,71,55.04970982731332
5900,0.000362804661835301,2.669081808328611e-05,41.72486345578723,40.004260254818796,1847.1232,4.1512533227623765e-06,2.8088282705721733e-06,184,179.09396369932287
6926,0.0002725190627014618,1.6184117444574685e-05,21.692272304357843,18.93868216132563,994.6048,2.707070575434195e-06,1.6491741238153415e-06,72,63.76935552006225
8462,0.0004394480716076159,3.161527305553077e-05,19.248416642602223,11.804273160066606,781.4752,2.503637510090831e-06,1.1285457656658653e-06,103,65.1058759838621
5393,0.0003916920003492566,1.60687351189291e-05,16.243874248646307,18.110165027891945,710.432,2.240773660586209e-06,1.6911212109192004e-06,77,87.12596109198849
6424,0.00041739518507421955,1.6610834266080947e-05,79.38567833783347,28.518313426516745,2273.3824,6.320611966239665e-06,2.40594098654076e-06,403,155.4506138143841
5403,0.00030503443475887016,1.4864685873398492e-05,24.778693156427913,17.242800629639877,852.5183999999999,2.952976140067888e-06,1.4938828650817607e-06,92,65.41082756087022
4893,0.00037864821335911004,1.426901052049335e-05,65.69602386528277,17.665469215118,1847.1232,5.585108690662843e-06,1.8762625739162965e-06,303,91.58416000408303
4894,0.00044813560246097163,1.814195309686033e-05,21.29945510500347,12.104321626902431,710.432,2.674929177238383e-06,1.1443358116189219e-06,116,68.04763144558216
5406,0.0002599371201214718,3.20900950131206e-05,35.55187932336596,33.25971924262455,1562.9504,3.7388087346854362e-06,2.462243603853635e-06,112,107.32915115267933
5932,0.00026772062703929635,1.667479932946881e-05,39.282414273307765,26.359414452562596,1705.0367999999999,3.990774381442463e-06,2.0170119327833767e-06,128,88.03384057007771
5424,0.00033421439212796134,1.8432749166474955e-05,107.33341855292154,39.19753104891858,2983.8143999999998,7.697954490714561e-06,3.0802495588068236e-06,437,171.53950613869043
5425,0.00034325747359944614,1.6182165434701913e-05,43.97855955870022,33.52186272036967,1491.9071999999999,4.296465337694794e-06,2.411942433286916e-06,183,142.61152146503144
5427,0.0003230472026935927,2.2592842175064e-05,88.38897946931932,44.79522746750926,2699.6416,6.780367291894136e-06,3.0633055731131667e-06,348,183.9126965609051
5945,0.00031929107838149056,1.374877391958321e-05,81.13900608560438,48.59606199250978,2557.5552,6.411507058204338e-06,3.1666000636718735e-06,315,194.15990480847782
6980,0.00039497213666452486,1.998380379767394e-05,343.4402874772426,63.79326954128324,8383.0976,1.646329260036103e-05,6.991531989662159e-06,1653,386.2541434536481
4439,0.0003139445151649788,1.5298086312433947e-05,42.03428889654045,19.245806643706953,1420.864,4.171348533476598e-06,1.6419558932392075e-06,160,77.05900471608538
5977,0.00024297183152782116,2.246397450692845e-05,44.95814566923666,30.25056496330757,1705.0367999999999,4.358775570274669e-06,2.227360512502816e-06,133,92.12880682097052
5979,0.00030898209627252046,2.880572491641888e-05,67.54463613312916,41.67610598737,2415.4687999999996,5.687332382532754e-06,2.8191948669858234e-06,254,162.26618398350337
5981,0.0003321043511956302,2.0406620090549262e-05,108.84303370814523,42.66471449227283,3125.9008,7.768547643875887e-06,3.197621017854722e-06,440,184.2781816917156
4958,0.00027123791691202284,1.7325889981413053e-05,17.235771503732867,12.211949598904186,710.432,2.3292829368382156e-06,1.1747877104204126e-06,56,41.23190740884855
4966,0.0002596236734372184,1.7339148208016644e-05,21.934427087580215,8.647974425317116,639.3888,2.7267838977062025e-06,9.134161701611638e-07,69,29.236385978657232
8559,0.0004129727269670062,1.4328725780391582e-05,37.89188696464324,19.36074850776111,1278.7776,3.897868204519478e-06,1.623248778417427e-06,190,100.88632790477064
7024,0.0002793794416644244,2.4881504059309575e-05,14.156774725816655,10.767140523702723,710.432,2.0481504193444925e-06,1.0891542731243346e-06,48,37.46236975645781
5491,0.0004022386562239081,1.880790474156867e-05,41.05029641105656,38.01908337124851,1491.9071999999999,4.107264606842124e-06,2.6964687476666015e-06,201,188.5248921177847
4981,0.00039027022401365866,1.4877539598418113e-05,42.16061388013449,13.289546763777869,1420.864,4.1795377957217665e-06,1.3731326487486364e-06,200,68.9867479457904
8566,0.00036848642118274125,1.9648267730203806e-05,22.138304270249122,13.117130217571393,852.5183999999999,2.74332272807474e-06,1.2145778444303873e-06,99,60.5972672849925
4983,0.0003700304215241838,2.528037929237086e-05,447.47207604530786,77.56030774741917,10656.48,1.957151044371369e-05,8.644162761442664e-06,2018,461.2072354092875
7034,0.0002767427233188374,1.740514900565874e-05,17.072201524623537,18.13661662216712,852.5183999999999,2.3148112215831028e-06,1.6721570627492391e-06,57,61.755693586078635
4987,0.0003264117355752242,1.027791897104459e-05,732.8626909473653,90.71885846818962,16624.1088,2.7018509415900757e-05,1.2735552213278523e-05,2915,536.2731114471804
8059,0.00035409162452207566,1.7814911370427536e-05,16.309693918063147,13.242817938665732,852.5183999999999,2.246703846262e-06,1.2715571390735727e-06,70,58.016629564843086
4990,0.0003061840686609293,1.7970859591455523e-05,163.06888080924898,36.38160701248673,4262.592000000001,1.0117932162516218e-05,3.851099616142897e-06,608,161.8544604972643
4993,0.00017244749868241873,1.3250152711812336e-05,36.62682116811841,18.991949045301503,1136.6912,3.812313308265479e-06,1.5977569343264074e-06,76,41.62107672108507
7046,0.0003883534180449299,1.9584020165543315e-05,13.10617031360215,12.805404461284482,710.432,1.9474841469981193e-06,1.2946729619458706e-06,62,61.24743925716842
4999,3.693949282445458e-05,2.0991376839179683e-05,11.144336464025642,6.973905050724597,426.25919999999996,1.7516476347562038e-06,7.803416327027653e-07,5,4.29303688075697
5512,0.00028002285422953655,1.7668682145167003e-05,55.6781526767081,27.081009121473908,1847.1232,5.012657775693107e-06,2.1064325795668264e-06,190,96.53748130382388
8073,0.0003718592029926894,1.626633554332919e-05,27.114232110384762,16.749093748014324,994.6048,3.132043996886468e-06,1.450922423232303e-06,122,77.8226127160366
6538,0.00037642266388513947,2.4291459373139068e-05,42.11583798925451,45.48520477417026,1989.2096,4.176636085406774e-06,3.135892954418136e-06,193,210.6188003476321
5002,0.00043983477509501124,1.2887326928308785e-05,51.93983758190962,21.502403559472533,1562.9504,4.79004728248148e-06,1.831151959386035e-06,278,121.29488815818428
4493,0.00024045863351840663,1.2947326324113376e-05,46.67675652348232,30.795750881608452,1562.9504,4.46697021987436e-06,2.2557079761026146e-06,136,92.34967990564438
6542,0.00044099968852675343,1.8210074201793212e-05,35.055855030798334,27.61604116372781,1278.7776,3.704631490840781e-06,2.110288355545376e-06,188,150.72145096430648
5014,0.0004328136766320432,1.8298383759545643e-05,78.07152819492451,22.204227092775263,2273.3824,6.252027894448171e-06,2.1981338633518603e-06,411,130.3642740740448
5533,0.00037459369701510015,1.8298856298216335e-05,30.01703620277657,15.891035755687412,1136.6912,3.3473217668609926e-06,1.3974855698463687e-06,137,75.08637779739286
5021,0.0003340556812768383,1.5253724151632818e-05,27.78222074888078,16.223266225408445,852.5183999999999,3.1822633783538865e-06,1.4158842272798535e-06,113,67.92742949505683
7071,0.00016716675405163743,1.7335606968745734e-05,38.95078782423353,31.367851125167185,1705.0367999999999,3.968722090778471e-06,2.313675588952639e-06,79,65.29073960545354
5027,0.00036120819918265037,1.1792360438226019e-05,32.721384288949956,13.224565489993283,994.6048,3.5414706279302643e-06,1.2620029441024175e-06,144,61.44481797871929
6051,0.00031622639004992494,1.8192189841687903e-05,93.29271397445761,45.74949220032781,2841.728,7.023923310852462e-06,3.1373198277078193e-06,359,183.81052522403985
5542,0.0002977257635437616,1.780502715447675e-05,20.917097482544524,11.791079396967193,852.5183999999999,2.643445800039759e-06,1.1225588000697797e-06,75,44.18520500866393
5031,0.0002749787874447329,2.246611081468032e-05,37.0893392075504,20.574423934305706,1278.7776,3.843709793951802e-06,1.6870970895857608e-06,124,71.61618339295795
5543,0.00031668308171892243,1.6689398593812137e-05,63.784120030009646,29.663550017157075,1989.2096,5.478331201988369e-06,2.279837392085533e-06,246,119.74942308597079
5545,0.0002869228590459133,1.5705870677423395e-05,20.01649675566179,11.092111355037186,710.432,2.5684908605050006e-06,1.073455872214319e-06,70,40.06561138377763
5034,0.0003484230234915073,2.3871929738283956e-05,128.63522372456364,49.77177449867638,3552.16,8.664912706221352e-06,3.631809059910892e-06,546,226.50545498589693
5038,0.00040182467820593147,1.6947782848624842e-05,23.080867929459547,14.058183601621169,781.4752,2.819110209566553e-06,1.2783489410816534e-06,113,70.61992806299864
8622,0.0003706605299730856,1.3236501483400997e-05,22.516397946041756,12.092664249876035,710.432,2.7738553239591997e-06,1.142700247071633e-06,101,56.38386117638962
8112,0.00048383416724109916,2.087403188108423e-05,11.192432714209463,9.241488367233908,568.3456,1.7565849196694123e-06,9.975332017115981e-07,66,55.268294008626455
4528,0.00034319612045085565,1.7119653986184173e-05,48.70311038441037,18.526759415001163,1420.864,4.592781879997871e-06,1.6711053317850229e-06,203,82.68168188260655
5554,0.00036895639010277835,1.699412879839423e-05,33.72044746693082,25.024159512829378,1278.7776,3.6117749149228828e-06,1.9563967312908327e-06,151,114.52345193600702
6067,0.0004621335848016746,1.657757193628788e-05,26.12091057248692,17.650447086622492,852.5183999999999,3.056565721525457e-06,1.51473398833564e-06,147,101.4466730890057
4530,0.00032835781888225236,8.998243913380385e-06,4462.222963640552,466.22432114812506,90793.2096,8.798835773710472e-05,5.3462284087529255e-05,17858,3050.7628061183746
5042,0.0003009515788221621,2.5275713474441492e-05,47.84969792741926,29.184196371951643,1491.9071999999999,4.540020858800762e-06,2.171857768458676e-06,175,110.53105233596894
7100,0.0002758384974092556,1.8020081726722985e-05,15.840045562807132,7.748950555498229,568.3456,2.2042056616770886e-06,8.255428295609545e-07,53,27.212357305086275
5057,0.00041086901399215743,2.011345385327929e-05,75.287642815508,41.39045196829773,2273.3824,6.1054036763164475e-06,2.8417930814642548e-06,377,213.99792624585513
8650,0.0003596747570758257,1.632925762613063e-05,13.869327749195193,7.547986116196375,568.3456,2.0208730473479647e-06,8.12840698946073e-07,60,34.16576927293079
6092,0.00034770419523512874,1.80095819308279e-05,74.46300977307257,45.26275595492054,2273.3824,6.061612443043363e-06,2.999838104794674e-06,315,196.99720579487507
5070,0.00036000638344737125,1.4376186328759064e-05,65.64450043458427,18.903455210833446,1989.2096,5.582245403565851e-06,1.912364486179179e-06,288,92.00970126854517
5075,0.00036946553311863634,2.332971185761092e-05,121.15063535475856,27.61336390916192,3125.9008,8.331982866451528e-06,3.015989330700096e-06,545,147.8609063042648
5076,0.0001240149510435205,1.2894202071792352e-05,69.58728913047891,24.61061888524632,1847.1232,5.799165551224534e-06,2.152123450044294e-06,105,41.19786626282956
8665,0.00041284313854736946,2.11377863937462e-05,12.65172617735668,9.917735843143834,568.3456,1.9030794617503293e-06,1.0353481093391547e-06,63,50.71673502034452
4070,0.00040567979477330976,2.1107358164922074e-05,108.54820716620776,35.3539731380638,2983.8143999999998,7.754787648220598e-06,2.993144625632473e-06,536,190.7487315513246
5611,0.00042691666415268814,1.7911098754060863e-05,20.87813444588811,22.71193452453283,994.6048,2.6402264324504914e-06,1.9581630791557246e-06,108,119.14009257917077
5612,0.00037074667542264444,1.727055230430502e-05,30.279380194849008,23.17112886499623,1136.6912,3.366413879912411e-06,1.8591526170385867e-06,136,106.45254206318623
5100,0.0003711684164668772,1.383766619667973e-05,103.38386451367329,36.249698630159735,2841.728,7.511616006936288e-06,2.9471239830840443e-06,467,176.15155424985028
6126,0.00039549713526675344,1.5099688748835324e-05,34.20189066421785,15.24391115159828,1136.6912,3.645396061310256e-06,1.3807152807949977e-06,164,76.91288607297241
5103,0.0004618034939223299,1.835743822610495e-05,14.74992620434684,14.632619640421122,568.3456,2.1038390865670807e-06,1.4221370942295493e-06,83,83.15806871016845
5108,0.0003977427123370987,1.8686963696798418e-05,34.21759338221235,21.071116677832293,994.6048,3.6464898753073196e-06,1.7126905480961022e-06,165,104.77354955717959
5621,0.0003826673151488283,1.7308978236619233e-05,71.82834472344166,30.122042449108005,2131.2960000000003,5.920560908298108e-06,2.373500770083914e-06,335,148.10136222521655
5109,0.00013070039368280503,2.1629775838456507e-05,10.980187870024222,8.38144951943729,568.3456,1.7347411942703596e-06,9.176539802445242e-07,17,13.85699000959327
5111,0.00036317099912604135,1.339063826604297e-05,45.61450859928551,17.686617417664337,1420.864,4.4002629791737134e-06,1.6014618019394754e-06,201,83.05935944525834
5113,0.0003862063820422776,1.4103094898621984e-05,40.72745600657449,14.733321170620881,1278.7776,4.086123578648577e-06,1.4167547527304942e-06,191,74.18056472046574
5628,0.00037719586423944377,2.440622421178191e-05,121.10411471743474,45.65917032145567,3267.9872000000005,8.329891617263793e-06,3.429854039141743e-06,556,225.3715496883976
5629,0.0003861771268619207,2.7307927440619004e-05,87.90561349023706,41.63266749270009,2557.5552,6.7561094633583116e-06,2.9447206016332868e-06,413,205.56248042767712
