y,x
-0.26329549220961806,-0.07834228908081914
-0.5149509535409176,-0.15159794374311658
-0.7882211669712536,-0.25691131271152906
-1.0448716991413902,-0.34254428551783345
-1.3162369520088364,-0.39873672438549307
-1.5601946520908274,-0.44984759486078607
-1.7885813006339317,-0.5183857660022301
-2.0618840920833468,-0.5897409800839237
-2.321765198670028,-0.6665490666700785
-2.5994493301395254,-0.7272788491750919
-2.8647743062418933,-0.796530290644876
-3.1358654090439746,-0.8831981694219894
-3.380745552666766,-0.9343000927166236
-3.654791907087524,-1.0011306405221332
-3.9106566542125534,-1.0660837978361475
-4.21314302868314,-1.127438696652811
-4.4709657822000395,-1.1896266400928461
-4.734371298673931,-1.2542916038163923
-5.0181066986657346,-1.305457242732239
-5.2448974156530275,-1.3629307545891474
-5.524079100875908,-1.4427946383342325
-5.777492462278819,-1.4979352824257022
-6.042397321658923,-1.5641243462174867
-6.279316837653791,-1.6387508457933109
-6.563711336254496,-1.7182909003131814
-6.801227661403525,-1.7905359852773044
-7.079646513931323,-1.863844313790271
-7.34616893368036,-1.92630031086271
-7.574239949649315,-2.008285348281504
-7.8669734876887745,-2.067513392976254
-8.13779579455409,-2.1120766422649897
-8.398142978740825,-2.148597146465532
-8.658689631019723,-2.232486274800257
-8.891223327818013,-2.3192887750158238
-9.130264703192475,-2.3845681846949756
-9.395188581890247,-2.4675725932644563
-9.662245379811457,-2.518994455432093
-9.914532845045507,-2.5761319577597654
-10.17221155024498,-2.655369999561519
-10.433788029241324,-2.726767947772191
-10.686809742914074,-2.789198448930751
-10.913347349302306,-2.8712380795207277
-11.191009736004007,-2.915462165919345
-11.440922732463383,-2.955471635940426
-11.698042593801333,-3.024160878388992
-11.939589618215072,-3.0784091540279293
-12.152897284075733,-3.136577726300341
-12.406254450955867,-3.2042774168366828
-12.672357967770894,-3.2605772120527896
-12.940853588028796,-3.303818179125996
