INFO:root:9717, 9776
INFO:root:9717, 9882
INFO:root:9717, 10008
INFO:root:9717, 10014
INFO:root:9717, 10037
INFO:root:9717, 10061
INFO:root:9717, 10064
INFO:root:9717, 10116
INFO:root:9717, 10171
INFO:root:9717, 10180
INFO:root:9717, 10226
INFO:root:9717, 10229
INFO:root:9717, 10264
INFO:root:9717, 10290
INFO:root:9717, 10310
INFO:root:9717, 10326
INFO:root:9717, 10330
INFO:root:9717, 10411
INFO:root:9717, 10442
INFO:root:9717, 10453
INFO:root:9717, 10459
INFO:root:9717, 10479
INFO:root:9717, 10539
INFO:root:9717, 10550
INFO:root:9717, 10587
INFO:root:9717, 10679
INFO:root:9776, 9882
INFO:root:9776, 10008
INFO:root:9776, 10014
INFO:root:9776, 10037
INFO:root:9776, 10061
INFO:root:9776, 10064
INFO:root:9776, 10116
INFO:root:9776, 10171
INFO:root:9776, 10180
INFO:root:9776, 10226
INFO:root:9776, 10229
INFO:root:9776, 10264
INFO:root:9776, 10290
INFO:root:9776, 10310
INFO:root:9776, 10326
INFO:root:9776, 10330
INFO:root:9776, 10411
INFO:root:9776, 10442
INFO:root:9776, 10453
INFO:root:9776, 10459
INFO:root:9776, 10479
INFO:root:9776, 10539
INFO:root:9776, 10550
INFO:root:9776, 10587
INFO:root:9776, 10679
INFO:root:9882, 10008
INFO:root:9882, 10014
INFO:root:9882, 10037
INFO:root:9882, 10061
INFO:root:9882, 10064
INFO:root:9882, 10116
INFO:root:9882, 10171
INFO:root:9882, 10180
INFO:root:9882, 10226
INFO:root:9882, 10229
INFO:root:9882, 10264
INFO:root:9882, 10290
INFO:root:9882, 10310
INFO:root:9882, 10326
INFO:root:9882, 10330
INFO:root:9882, 10411
INFO:root:9882, 10442
INFO:root:9882, 10453
INFO:root:9882, 10459
INFO:root:9882, 10479
INFO:root:9882, 10539
INFO:root:9882, 10550
INFO:root:9882, 10587
INFO:root:9882, 10679
INFO:root:10008, 10014
INFO:root:10008, 10037
INFO:root:10008, 10061
INFO:root:10008, 10064
INFO:root:10008, 10116
INFO:root:10008, 10171
INFO:root:10008, 10180
INFO:root:10008, 10226
INFO:root:10008, 10229
INFO:root:10008, 10264
INFO:root:10008, 10290
INFO:root:10008, 10310
INFO:root:10008, 10326
INFO:root:10008, 10330
INFO:root:10008, 10411
INFO:root:10008, 10442
INFO:root:10008, 10453
INFO:root:10008, 10459
INFO:root:10008, 10479
INFO:root:10008, 10539
INFO:root:10008, 10550
INFO:root:10008, 10587
INFO:root:10008, 10679
INFO:root:10014, 10037
INFO:root:10014, 10061
INFO:root:10014, 10064
INFO:root:10014, 10116
INFO:root:10014, 10171
INFO:root:10014, 10180
INFO:root:10014, 10226
INFO:root:10014, 10229
INFO:root:10014, 10264
INFO:root:10014, 10290
INFO:root:10014, 10310
INFO:root:10014, 10326
INFO:root:10014, 10330
INFO:root:10014, 10411
INFO:root:10014, 10442
INFO:root:10014, 10453
INFO:root:10014, 10459
INFO:root:10014, 10479
INFO:root:10014, 10539
INFO:root:10014, 10550
INFO:root:10014, 10587
INFO:root:10014, 10679
INFO:root:10037, 10061
INFO:root:10037, 10064
INFO:root:10037, 10116
INFO:root:10037, 10171
INFO:root:10037, 10180
INFO:root:10037, 10226
INFO:root:10037, 10229
INFO:root:10037, 10264
INFO:root:10037, 10290
INFO:root:10037, 10310
INFO:root:10037, 10326
INFO:root:10037, 10330
INFO:root:10037, 10411
INFO:root:10037, 10442
INFO:root:10037, 10453
INFO:root:10037, 10459
INFO:root:10037, 10479
INFO:root:10037, 10539
INFO:root:10037, 10550
INFO:root:10037, 10587
INFO:root:10037, 10679
INFO:root:10061, 10064
INFO:root:10061, 10116
INFO:root:10061, 10171
INFO:root:10061, 10180
INFO:root:10061, 10226
INFO:root:10061, 10229
INFO:root:10061, 10264
INFO:root:10061, 10290
INFO:root:10061, 10310
INFO:root:10061, 10326
INFO:root:10061, 10330
INFO:root:10061, 10411
INFO:root:10061, 10442
INFO:root:10061, 10453
INFO:root:10061, 10459
INFO:root:10061, 10479
INFO:root:10061, 10539
INFO:root:10061, 10550
INFO:root:10061, 10587
INFO:root:10061, 10679
INFO:root:10064, 10116
INFO:root:10064, 10171
INFO:root:10064, 10180
INFO:root:10064, 10226
INFO:root:10064, 10229
INFO:root:10064, 10264
INFO:root:10064, 10290
INFO:root:10064, 10310
INFO:root:10064, 10326
INFO:root:10064, 10330
INFO:root:10064, 10411
INFO:root:10064, 10442
INFO:root:10064, 10453
INFO:root:10064, 10459
INFO:root:10064, 10479
INFO:root:10064, 10539
INFO:root:10064, 10550
INFO:root:10064, 10587
INFO:root:10064, 10679
INFO:root:10116, 10171
INFO:root:10116, 10180
INFO:root:10116, 10226
INFO:root:10116, 10229
INFO:root:10116, 10264
INFO:root:10116, 10290
INFO:root:10116, 10310
INFO:root:10116, 10326
INFO:root:10116, 10330
INFO:root:10116, 10411
INFO:root:10116, 10442
INFO:root:10116, 10453
INFO:root:10116, 10459
INFO:root:10116, 10479
INFO:root:10116, 10539
INFO:root:10116, 10550
INFO:root:10116, 10587
INFO:root:10116, 10679
INFO:root:10171, 10180
INFO:root:10171, 10226
INFO:root:10171, 10229
INFO:root:10171, 10264
INFO:root:10171, 10290
INFO:root:10171, 10310
INFO:root:10171, 10326
INFO:root:10171, 10330
INFO:root:10171, 10411
INFO:root:10171, 10442
INFO:root:10171, 10453
INFO:root:10171, 10459
INFO:root:10171, 10479
INFO:root:10171, 10539
INFO:root:10171, 10550
INFO:root:10171, 10587
INFO:root:10171, 10679
INFO:root:10180, 10226
INFO:root:10180, 10229
INFO:root:10180, 10264
INFO:root:10180, 10290
INFO:root:10180, 10310
INFO:root:10180, 10326
INFO:root:10180, 10330
INFO:root:10180, 10411
INFO:root:10180, 10442
INFO:root:10180, 10453
INFO:root:10180, 10459
INFO:root:10180, 10479
INFO:root:10180, 10539
INFO:root:10180, 10550
INFO:root:10180, 10587
INFO:root:10180, 10679
INFO:root:10226, 10229
INFO:root:10226, 10264
INFO:root:10226, 10290
INFO:root:10226, 10310
INFO:root:10226, 10326
INFO:root:10226, 10330
INFO:root:10226, 10411
INFO:root:10226, 10442
INFO:root:10226, 10453
INFO:root:10226, 10459
INFO:root:10226, 10479
INFO:root:10226, 10539
INFO:root:10226, 10550
INFO:root:10226, 10587
INFO:root:10226, 10679
INFO:root:10229, 10264
INFO:root:10229, 10290
INFO:root:10229, 10310
INFO:root:10229, 10326
INFO:root:10229, 10330
INFO:root:10229, 10411
INFO:root:10229, 10442
INFO:root:10229, 10453
INFO:root:10229, 10459
INFO:root:10229, 10479
INFO:root:10229, 10539
INFO:root:10229, 10550
INFO:root:10229, 10587
INFO:root:10229, 10679
INFO:root:10264, 10290
INFO:root:10264, 10310
INFO:root:10264, 10326
INFO:root:10264, 10330
INFO:root:10264, 10411
INFO:root:10264, 10442
INFO:root:10264, 10453
INFO:root:10264, 10459
INFO:root:10264, 10479
INFO:root:10264, 10539
INFO:root:10264, 10550
INFO:root:10264, 10587
INFO:root:10264, 10679
INFO:root:10290, 10310
INFO:root:10290, 10326
INFO:root:10290, 10330
INFO:root:10290, 10411
INFO:root:10290, 10442
INFO:root:10290, 10453
INFO:root:10290, 10459
INFO:root:10290, 10479
INFO:root:10290, 10539
INFO:root:10290, 10550
INFO:root:10290, 10587
INFO:root:10290, 10679
INFO:root:10310, 10326
INFO:root:10310, 10330
INFO:root:10310, 10411
INFO:root:10310, 10442
INFO:root:10310, 10453
INFO:root:10310, 10459
INFO:root:10310, 10479
INFO:root:10310, 10539
INFO:root:10310, 10550
INFO:root:10310, 10587
INFO:root:10310, 10679
INFO:root:10326, 10330
INFO:root:10326, 10411
INFO:root:10326, 10442
INFO:root:10326, 10453
INFO:root:10326, 10459
INFO:root:10326, 10479
INFO:root:10326, 10539
INFO:root:10326, 10550
INFO:root:10326, 10587
INFO:root:10326, 10679
INFO:root:10330, 10411
INFO:root:10330, 10442
INFO:root:10330, 10453
INFO:root:10330, 10459
INFO:root:10330, 10479
INFO:root:10330, 10539
INFO:root:10330, 10550
INFO:root:10330, 10587
INFO:root:10330, 10679
INFO:root:10411, 10442
INFO:root:10411, 10453
INFO:root:10411, 10459
INFO:root:10411, 10479
INFO:root:10411, 10539
INFO:root:10411, 10550
INFO:root:10411, 10587
INFO:root:10411, 10679
INFO:root:10442, 10453
INFO:root:10442, 10459
INFO:root:10442, 10479
INFO:root:10442, 10539
INFO:root:10442, 10550
INFO:root:10442, 10587
INFO:root:10442, 10679
INFO:root:10453, 10459
INFO:root:10453, 10479
INFO:root:10453, 10539
INFO:root:10453, 10550
INFO:root:10453, 10587
INFO:root:10453, 10679
INFO:root:10459, 10479
INFO:root:10459, 10539
INFO:root:10459, 10550
INFO:root:10459, 10587
INFO:root:10459, 10679
INFO:root:10479, 10539
INFO:root:10479, 10550
INFO:root:10479, 10587
INFO:root:10479, 10679
INFO:root:10539, 10550
INFO:root:10539, 10587
INFO:root:10539, 10679
INFO:root:10550, 10587
INFO:root:10550, 10679
INFO:root:10587, 10679
INFO:root:5238, 5274
INFO:root:5238, 5660
INFO:root:5238, 5665
INFO:root:5238, 5668
INFO:root:5238, 5679
INFO:root:5238, 5689
INFO:root:5238, 5784
INFO:root:5238, 5891
INFO:root:5238, 5902
INFO:root:5238, 5943
INFO:root:5238, 5947
INFO:root:5238, 6022
INFO:root:5238, 6033
INFO:root:5238, 6042
INFO:root:5238, 6046
INFO:root:5238, 6066
INFO:root:5238, 6115
INFO:root:5238, 6120
INFO:root:5238, 6131
INFO:root:5238, 6146
INFO:root:5238, 6223
INFO:root:5238, 6224
INFO:root:5238, 6234
INFO:root:5238, 6290
INFO:root:5238, 6302
INFO:root:5238, 6310
INFO:root:5238, 6391
INFO:root:5238, 6395
INFO:root:5238, 6443
INFO:root:5238, 6465
INFO:root:5238, 6551
INFO:root:5238, 6594
INFO:root:5238, 6642
INFO:root:5238, 6754
INFO:root:5238, 7197
INFO:root:5238, 7333
INFO:root:5238, 7656
INFO:root:5238, 7855
INFO:root:5238, 8053
INFO:root:5238, 9075
INFO:root:5238, 10322
INFO:root:5238, 10788
INFO:root:5238, 11204
INFO:root:5238, 11400
INFO:root:5238, 11571
INFO:root:5238, 11736
INFO:root:5238, 12072
INFO:root:5238, 12246
INFO:root:5238, 12394
INFO:root:5238, 12499
INFO:root:5238, 12844
INFO:root:5238, 12902
INFO:root:5238, 12936
INFO:root:5238, 13091
INFO:root:5238, 13119
INFO:root:5238, 13199
INFO:root:5238, 13248
INFO:root:5238, 13458
INFO:root:5238, 13534
INFO:root:5238, 13650
INFO:root:5238, 13672
INFO:root:5238, 13837
INFO:root:5238, 13918
INFO:root:5238, 13936
INFO:root:5238, 14231
INFO:root:5238, 14268
INFO:root:5238, 14453
INFO:root:5238, 14659
INFO:root:5238, 14727
INFO:root:5238, 14742
INFO:root:5238, 14816
INFO:root:5238, 15228
INFO:root:5238, 15524
INFO:root:5274, 6033
INFO:root:5274, 6131
INFO:root:5274, 6224
INFO:root:5274, 6234
INFO:root:5274, 6465
INFO:root:5274, 6754
INFO:root:5274, 7333
INFO:root:5274, 7855
INFO:root:5274, 11204
INFO:root:5274, 13534
INFO:root:5274, 13672
INFO:root:5274, 13837
INFO:root:5660, 6033
INFO:root:5660, 6131
INFO:root:5660, 6224
INFO:root:5660, 6234
INFO:root:5660, 6465
INFO:root:5660, 6754
INFO:root:5660, 7333
INFO:root:5660, 7855
INFO:root:5660, 11204
INFO:root:5660, 13534
INFO:root:5660, 13672
INFO:root:5660, 13837
INFO:root:5665, 6033
INFO:root:5665, 6131
INFO:root:5665, 6224
INFO:root:5665, 6234
INFO:root:5665, 6465
INFO:root:5665, 6754
INFO:root:5665, 7333
INFO:root:5665, 7855
INFO:root:5665, 11204
INFO:root:5665, 13534
INFO:root:5665, 13672
INFO:root:5665, 13837
INFO:root:5668, 6033
INFO:root:5668, 6131
INFO:root:5668, 6224
INFO:root:5668, 6234
INFO:root:5668, 6465
INFO:root:5668, 6754
INFO:root:5668, 7333
INFO:root:5668, 7855
INFO:root:5668, 11204
INFO:root:5668, 13534
INFO:root:5668, 13672
INFO:root:5668, 13837
INFO:root:5679, 6033
INFO:root:5679, 6131
INFO:root:5679, 6224
INFO:root:5679, 6234
INFO:root:5679, 6465
INFO:root:5679, 6754
INFO:root:5679, 7333
INFO:root:5679, 7855
INFO:root:5679, 11204
INFO:root:5679, 13534
INFO:root:5679, 13672
INFO:root:5679, 13837
INFO:root:5689, 6033
INFO:root:5689, 6131
INFO:root:5689, 6224
INFO:root:5689, 6234
INFO:root:5689, 6465
INFO:root:5689, 6754
INFO:root:5689, 7333
INFO:root:5689, 7855
INFO:root:5689, 11204
INFO:root:5689, 13534
INFO:root:5689, 13672
INFO:root:5689, 13837
INFO:root:5784, 6033
INFO:root:5784, 6131
INFO:root:5784, 6224
INFO:root:5784, 6234
INFO:root:5784, 6465
INFO:root:5784, 6754
INFO:root:5784, 7333
INFO:root:5784, 7855
INFO:root:5784, 11204
INFO:root:5784, 13534
INFO:root:5784, 13672
INFO:root:5784, 13837
INFO:root:5891, 6033
INFO:root:5891, 6131
INFO:root:5891, 6224
INFO:root:5891, 6234
INFO:root:5891, 6465
INFO:root:5891, 6754
INFO:root:5891, 7333
INFO:root:5891, 7855
INFO:root:5891, 11204
INFO:root:5891, 13534
INFO:root:5891, 13672
INFO:root:5891, 13837
INFO:root:5902, 6033
INFO:root:5902, 6131
INFO:root:5902, 6224
INFO:root:5902, 6234
INFO:root:5902, 6465
INFO:root:5902, 6754
INFO:root:5902, 7333
INFO:root:5902, 7855
INFO:root:5902, 11204
INFO:root:5902, 13534
INFO:root:5902, 13672
INFO:root:5902, 13837
INFO:root:5943, 6033
INFO:root:5943, 6131
INFO:root:5943, 6224
INFO:root:5943, 6234
INFO:root:5943, 6465
INFO:root:5943, 6754
INFO:root:5943, 7333
INFO:root:5943, 7855
INFO:root:5943, 11204
INFO:root:5943, 13534
INFO:root:5943, 13672
INFO:root:5943, 13837
INFO:root:5947, 6033
INFO:root:5947, 6131
INFO:root:5947, 6224
INFO:root:5947, 6234
INFO:root:5947, 6465
INFO:root:5947, 6754
INFO:root:5947, 7333
INFO:root:5947, 7855
INFO:root:5947, 11204
INFO:root:5947, 13534
INFO:root:5947, 13672
INFO:root:5947, 13837
INFO:root:6022, 6033
INFO:root:6022, 6131
INFO:root:6022, 6224
INFO:root:6022, 6234
INFO:root:6022, 6465
INFO:root:6022, 6754
INFO:root:6022, 7333
INFO:root:6022, 7855
INFO:root:6022, 11204
INFO:root:6022, 13534
INFO:root:6022, 13672
INFO:root:6022, 13837
INFO:root:6033, 6042
INFO:root:6033, 6046
INFO:root:6033, 6066
INFO:root:6033, 6115
INFO:root:6033, 6120
INFO:root:6033, 6131
INFO:root:6033, 6146
INFO:root:6033, 6223
INFO:root:6033, 6224
INFO:root:6033, 6234
INFO:root:6033, 6290
INFO:root:6033, 6302
INFO:root:6033, 6310
INFO:root:6033, 6391
INFO:root:6033, 6395
INFO:root:6033, 6443
INFO:root:6033, 6465
INFO:root:6033, 6551
INFO:root:6033, 6594
INFO:root:6033, 6642
INFO:root:6033, 6754
INFO:root:6033, 7197
INFO:root:6033, 7333
INFO:root:6033, 7656
INFO:root:6033, 7855
INFO:root:6033, 8053
INFO:root:6033, 9075
INFO:root:6033, 10322
INFO:root:6033, 10788
INFO:root:6033, 11204
INFO:root:6033, 11400
INFO:root:6033, 11571
INFO:root:6033, 11736
INFO:root:6033, 12072
INFO:root:6033, 12246
INFO:root:6033, 12394
INFO:root:6033, 12499
INFO:root:6033, 12844
INFO:root:6033, 12902
INFO:root:6033, 12936
INFO:root:6033, 13091
INFO:root:6033, 13119
INFO:root:6033, 13199
INFO:root:6033, 13248
INFO:root:6033, 13458
INFO:root:6033, 13534
INFO:root:6033, 13650
INFO:root:6033, 13672
INFO:root:6033, 13837
INFO:root:6033, 13918
INFO:root:6033, 13936
INFO:root:6033, 14231
INFO:root:6033, 14268
INFO:root:6033, 14453
INFO:root:6033, 14659
INFO:root:6033, 14727
INFO:root:6033, 14742
INFO:root:6033, 14816
INFO:root:6033, 15228
INFO:root:6033, 15524
INFO:root:6042, 6131
INFO:root:6042, 6224
INFO:root:6042, 6234
INFO:root:6042, 6465
INFO:root:6042, 6754
INFO:root:6042, 7333
INFO:root:6042, 7855
INFO:root:6042, 11204
INFO:root:6042, 13534
INFO:root:6042, 13672
INFO:root:6042, 13837
INFO:root:6046, 6131
INFO:root:6046, 6224
INFO:root:6046, 6234
INFO:root:6046, 6465
INFO:root:6046, 6754
INFO:root:6046, 7333
INFO:root:6046, 7855
INFO:root:6046, 11204
INFO:root:6046, 13534
INFO:root:6046, 13672
INFO:root:6046, 13837
INFO:root:6066, 6131
INFO:root:6066, 6224
INFO:root:6066, 6234
INFO:root:6066, 6465
INFO:root:6066, 6754
INFO:root:6066, 7333
INFO:root:6066, 7855
INFO:root:6066, 11204
INFO:root:6066, 13534
INFO:root:6066, 13672
INFO:root:6066, 13837
INFO:root:6115, 6131
INFO:root:6115, 6224
INFO:root:6115, 6234
INFO:root:6115, 6465
INFO:root:6115, 6754
INFO:root:6115, 7333
INFO:root:6115, 7855
INFO:root:6115, 11204
INFO:root:6115, 13534
INFO:root:6115, 13672
INFO:root:6115, 13837
INFO:root:6120, 6131
INFO:root:6120, 6224
INFO:root:6120, 6234
INFO:root:6120, 6465
INFO:root:6120, 6754
INFO:root:6120, 7333
INFO:root:6120, 7855
INFO:root:6120, 11204
INFO:root:6120, 13534
INFO:root:6120, 13672
INFO:root:6120, 13837
INFO:root:6131, 6146
INFO:root:6131, 6223
INFO:root:6131, 6224
INFO:root:6131, 6234
INFO:root:6131, 6290
INFO:root:6131, 6302
INFO:root:6131, 6310
INFO:root:6131, 6391
INFO:root:6131, 6395
INFO:root:6131, 6443
INFO:root:6131, 6465
INFO:root:6131, 6551
INFO:root:6131, 6594
INFO:root:6131, 6642
INFO:root:6131, 6754
INFO:root:6131, 7197
INFO:root:6131, 7333
INFO:root:6131, 7656
INFO:root:6131, 7855
INFO:root:6131, 8053
INFO:root:6131, 9075
INFO:root:6131, 10322
INFO:root:6131, 10788
INFO:root:6131, 11204
INFO:root:6131, 11400
INFO:root:6131, 11571
INFO:root:6131, 11736
INFO:root:6131, 12072
INFO:root:6131, 12246
INFO:root:6131, 12394
INFO:root:6131, 12499
INFO:root:6131, 12844
INFO:root:6131, 12902
INFO:root:6131, 12936
INFO:root:6131, 13091
INFO:root:6131, 13119
INFO:root:6131, 13199
INFO:root:6131, 13248
INFO:root:6131, 13458
INFO:root:6131, 13534
INFO:root:6131, 13650
INFO:root:6131, 13672
INFO:root:6131, 13837
INFO:root:6131, 13918
INFO:root:6131, 13936
INFO:root:6131, 14231
INFO:root:6131, 14268
INFO:root:6131, 14453
INFO:root:6131, 14659
INFO:root:6131, 14727
INFO:root:6131, 14742
INFO:root:6131, 14816
INFO:root:6131, 15228
INFO:root:6131, 15524
INFO:root:6146, 6224
INFO:root:6146, 6234
INFO:root:6146, 6465
INFO:root:6146, 6754
INFO:root:6146, 7333
INFO:root:6146, 7855
INFO:root:6146, 11204
INFO:root:6146, 13534
INFO:root:6146, 13672
INFO:root:6146, 13837
INFO:root:6223, 6224
INFO:root:6223, 6234
INFO:root:6223, 6465
INFO:root:6223, 6754
INFO:root:6223, 7333
INFO:root:6223, 7855
INFO:root:6223, 11204
INFO:root:6223, 13534
INFO:root:6223, 13672
INFO:root:6223, 13837
INFO:root:6224, 6234
INFO:root:6224, 6290
INFO:root:6224, 6302
INFO:root:6224, 6310
INFO:root:6224, 6391
INFO:root:6224, 6395
INFO:root:6224, 6443
INFO:root:6224, 6465
INFO:root:6224, 6551
INFO:root:6224, 6594
INFO:root:6224, 6642
INFO:root:6224, 6754
INFO:root:6224, 7197
INFO:root:6224, 7333
INFO:root:6224, 7656
INFO:root:6224, 7855
INFO:root:6224, 8053
INFO:root:6224, 9075
INFO:root:6224, 10322
INFO:root:6224, 10788
INFO:root:6224, 11204
INFO:root:6224, 11400
INFO:root:6224, 11571
INFO:root:6224, 11736
INFO:root:6224, 12072
INFO:root:6224, 12246
INFO:root:6224, 12394
INFO:root:6224, 12499
INFO:root:6224, 12844
INFO:root:6224, 12902
INFO:root:6224, 12936
INFO:root:6224, 13091
INFO:root:6224, 13119
INFO:root:6224, 13199
INFO:root:6224, 13248
INFO:root:6224, 13458
INFO:root:6224, 13534
INFO:root:6224, 13650
INFO:root:6224, 13672
INFO:root:6224, 13837
INFO:root:6224, 13918
INFO:root:6224, 13936
INFO:root:6224, 14231
INFO:root:6224, 14268
INFO:root:6224, 14453
INFO:root:6224, 14659
INFO:root:6224, 14727
INFO:root:6224, 14742
INFO:root:6224, 14816
INFO:root:6224, 15228
INFO:root:6224, 15524
INFO:root:6234, 6290
INFO:root:6234, 6302
INFO:root:6234, 6310
INFO:root:6234, 6391
INFO:root:6234, 6395
INFO:root:6234, 6443
INFO:root:6234, 6465
INFO:root:6234, 6551
INFO:root:6234, 6594
INFO:root:6234, 6642
INFO:root:6234, 6754
INFO:root:6234, 7197
INFO:root:6234, 7333
INFO:root:6234, 7656
INFO:root:6234, 7855
INFO:root:6234, 8053
INFO:root:6234, 9075
INFO:root:6234, 10322
INFO:root:6234, 10788
INFO:root:6234, 11204
INFO:root:6234, 11400
INFO:root:6234, 11571
INFO:root:6234, 11736
INFO:root:6234, 12072
INFO:root:6234, 12246
INFO:root:6234, 12394
INFO:root:6234, 12499
INFO:root:6234, 12844
INFO:root:6234, 12902
INFO:root:6234, 12936
INFO:root:6234, 13091
INFO:root:6234, 13119
INFO:root:6234, 13199
INFO:root:6234, 13248
INFO:root:6234, 13458
INFO:root:6234, 13534
INFO:root:6234, 13650
INFO:root:6234, 13672
INFO:root:6234, 13837
INFO:root:6234, 13918
INFO:root:6234, 13936
INFO:root:6234, 14231
INFO:root:6234, 14268
INFO:root:6234, 14453
INFO:root:6234, 14659
INFO:root:6234, 14727
INFO:root:6234, 14742
INFO:root:6234, 14816
INFO:root:6234, 15228
INFO:root:6234, 15524
INFO:root:6290, 6465
INFO:root:6290, 6754
INFO:root:6290, 7333
INFO:root:6290, 7855
INFO:root:6290, 11204
INFO:root:6290, 13534
INFO:root:6290, 13672
INFO:root:6290, 13837
INFO:root:6302, 6465
INFO:root:6302, 6754
INFO:root:6302, 7333
INFO:root:6302, 7855
INFO:root:6302, 11204
INFO:root:6302, 13534
INFO:root:6302, 13672
INFO:root:6302, 13837
INFO:root:6310, 6465
INFO:root:6310, 6754
INFO:root:6310, 7333
INFO:root:6310, 7855
INFO:root:6310, 11204
INFO:root:6310, 13534
INFO:root:6310, 13672
INFO:root:6310, 13837
INFO:root:6391, 6465
INFO:root:6391, 6754
INFO:root:6391, 7333
INFO:root:6391, 7855
INFO:root:6391, 11204
INFO:root:6391, 13534
INFO:root:6391, 13672
INFO:root:6391, 13837
INFO:root:6395, 6465
INFO:root:6395, 6754
INFO:root:6395, 7333
INFO:root:6395, 7855
INFO:root:6395, 11204
INFO:root:6395, 13534
INFO:root:6395, 13672
INFO:root:6395, 13837
INFO:root:6443, 6465
INFO:root:6443, 6754
INFO:root:6443, 7333
INFO:root:6443, 7855
INFO:root:6443, 11204
INFO:root:6443, 13534
INFO:root:6443, 13672
INFO:root:6443, 13837
INFO:root:6465, 6551
INFO:root:6465, 6594
INFO:root:6465, 6642
INFO:root:6465, 6754
INFO:root:6465, 7197
INFO:root:6465, 7333
INFO:root:6465, 7656
INFO:root:6465, 7855
INFO:root:6465, 8053
INFO:root:6465, 9075
INFO:root:6465, 10322
INFO:root:6465, 10788
INFO:root:6465, 11204
INFO:root:6465, 11400
INFO:root:6465, 11571
INFO:root:6465, 11736
INFO:root:6465, 12072
INFO:root:6465, 12246
INFO:root:6465, 12394
INFO:root:6465, 12499
INFO:root:6465, 12844
INFO:root:6465, 12902
INFO:root:6465, 12936
INFO:root:6465, 13091
INFO:root:6465, 13119
INFO:root:6465, 13199
INFO:root:6465, 13248
INFO:root:6465, 13458
INFO:root:6465, 13534
INFO:root:6465, 13650
INFO:root:6465, 13672
INFO:root:6465, 13837
INFO:root:6465, 13918
INFO:root:6465, 13936
INFO:root:6465, 14231
INFO:root:6465, 14268
INFO:root:6465, 14453
INFO:root:6465, 14659
INFO:root:6465, 14727
INFO:root:6465, 14742
INFO:root:6465, 14816
INFO:root:6465, 15228
INFO:root:6465, 15524
INFO:root:6551, 6754
INFO:root:6551, 7333
INFO:root:6551, 7855
INFO:root:6551, 11204
INFO:root:6551, 13534
INFO:root:6551, 13672
INFO:root:6551, 13837
INFO:root:6594, 6754
INFO:root:6594, 7333
INFO:root:6594, 7855
INFO:root:6594, 11204
INFO:root:6594, 13534
INFO:root:6594, 13672
INFO:root:6594, 13837
INFO:root:6642, 6754
INFO:root:6642, 7333
INFO:root:6642, 7855
INFO:root:6642, 11204
INFO:root:6642, 13534
INFO:root:6642, 13672
INFO:root:6642, 13837
INFO:root:6754, 7197
INFO:root:6754, 7333
INFO:root:6754, 7656
INFO:root:6754, 7855
INFO:root:6754, 8053
INFO:root:6754, 9075
INFO:root:6754, 10322
INFO:root:6754, 10788
INFO:root:6754, 11204
INFO:root:6754, 11400
INFO:root:6754, 11571
INFO:root:6754, 11736
INFO:root:6754, 12072
INFO:root:6754, 12246
INFO:root:6754, 12394
INFO:root:6754, 12499
INFO:root:6754, 12844
INFO:root:6754, 12902
INFO:root:6754, 12936
INFO:root:6754, 13091
INFO:root:6754, 13119
INFO:root:6754, 13199
INFO:root:6754, 13248
INFO:root:6754, 13458
INFO:root:6754, 13534
INFO:root:6754, 13650
INFO:root:6754, 13672
INFO:root:6754, 13837
INFO:root:6754, 13918
INFO:root:6754, 13936
INFO:root:6754, 14231
INFO:root:6754, 14268
INFO:root:6754, 14453
INFO:root:6754, 14659
INFO:root:6754, 14727
INFO:root:6754, 14742
INFO:root:6754, 14816
INFO:root:6754, 15228
INFO:root:6754, 15524
INFO:root:7197, 7333
INFO:root:7197, 7855
INFO:root:7197, 11204
INFO:root:7197, 13534
INFO:root:7197, 13672
INFO:root:7197, 13837
INFO:root:7333, 7656
INFO:root:7333, 7855
INFO:root:7333, 8053
INFO:root:7333, 9075
INFO:root:7333, 10322
INFO:root:7333, 10788
INFO:root:7333, 11204
INFO:root:7333, 11400
INFO:root:7333, 11571
INFO:root:7333, 11736
INFO:root:7333, 12072
INFO:root:7333, 12246
INFO:root:7333, 12394
INFO:root:7333, 12499
INFO:root:7333, 12844
INFO:root:7333, 12902
INFO:root:7333, 12936
INFO:root:7333, 13091
INFO:root:7333, 13119
INFO:root:7333, 13199
INFO:root:7333, 13248
INFO:root:7333, 13458
INFO:root:7333, 13534
INFO:root:7333, 13650
INFO:root:7333, 13672
INFO:root:7333, 13837
INFO:root:7333, 13918
INFO:root:7333, 13936
INFO:root:7333, 14231
INFO:root:7333, 14268
INFO:root:7333, 14453
INFO:root:7333, 14659
INFO:root:7333, 14727
INFO:root:7333, 14742
INFO:root:7333, 14816
INFO:root:7333, 15228
INFO:root:7333, 15524
INFO:root:7656, 7855
INFO:root:7656, 11204
INFO:root:7656, 13534
INFO:root:7656, 13672
INFO:root:7656, 13837
INFO:root:7855, 8053
INFO:root:7855, 9075
INFO:root:7855, 10322
INFO:root:7855, 10788
INFO:root:7855, 11204
INFO:root:7855, 11400
INFO:root:7855, 11571
INFO:root:7855, 11736
INFO:root:7855, 12072
INFO:root:7855, 12246
INFO:root:7855, 12394
INFO:root:7855, 12499
INFO:root:7855, 12844
INFO:root:7855, 12902
INFO:root:7855, 12936
INFO:root:7855, 13091
INFO:root:7855, 13119
INFO:root:7855, 13199
INFO:root:7855, 13248
INFO:root:7855, 13458
INFO:root:7855, 13534
INFO:root:7855, 13650
INFO:root:7855, 13672
INFO:root:7855, 13837
INFO:root:7855, 13918
INFO:root:7855, 13936
INFO:root:7855, 14231
INFO:root:7855, 14268
INFO:root:7855, 14453
INFO:root:7855, 14659
INFO:root:7855, 14727
INFO:root:7855, 14742
INFO:root:7855, 14816
INFO:root:7855, 15228
INFO:root:7855, 15524
INFO:root:8053, 11204
INFO:root:8053, 13534
INFO:root:8053, 13672
INFO:root:8053, 13837
INFO:root:9075, 11204
INFO:root:9075, 13534
INFO:root:9075, 13672
INFO:root:9075, 13837
INFO:root:10322, 11204
INFO:root:10322, 13534
INFO:root:10322, 13672
INFO:root:10322, 13837
INFO:root:10788, 11204
INFO:root:10788, 13534
INFO:root:10788, 13672
INFO:root:10788, 13837
INFO:root:11204, 11400
INFO:root:11204, 11571
INFO:root:11204, 11736
INFO:root:11204, 12072
INFO:root:11204, 12246
INFO:root:11204, 12394
INFO:root:11204, 12499
INFO:root:11204, 12844
INFO:root:11204, 12902
INFO:root:11204, 12936
INFO:root:11204, 13091
INFO:root:11204, 13119
INFO:root:11204, 13199
INFO:root:11204, 13248
INFO:root:11204, 13458
INFO:root:11204, 13534
INFO:root:11204, 13650
INFO:root:11204, 13672
INFO:root:11204, 13837
INFO:root:11204, 13918
INFO:root:11204, 13936
INFO:root:11204, 14231
INFO:root:11204, 14268
INFO:root:11204, 14453
INFO:root:11204, 14659
INFO:root:11204, 14727
INFO:root:11204, 14742
INFO:root:11204, 14816
INFO:root:11204, 15228
INFO:root:11204, 15524
INFO:root:11400, 13534
INFO:root:11400, 13672
INFO:root:11400, 13837
INFO:root:11571, 13534
INFO:root:11571, 13672
INFO:root:11571, 13837
INFO:root:11736, 13534
INFO:root:11736, 13672
INFO:root:11736, 13837
INFO:root:12072, 13534
INFO:root:12072, 13672
INFO:root:12072, 13837
INFO:root:12246, 13534
INFO:root:12246, 13672
INFO:root:12246, 13837
INFO:root:12394, 13534
INFO:root:12394, 13672
INFO:root:12394, 13837
INFO:root:12499, 13534
INFO:root:12499, 13672
INFO:root:12499, 13837
INFO:root:12844, 13534
INFO:root:12844, 13672
INFO:root:12844, 13837
INFO:root:12902, 13534
INFO:root:12902, 13672
INFO:root:12902, 13837
INFO:root:12936, 13534
INFO:root:12936, 13672
INFO:root:12936, 13837
INFO:root:13091, 13534
INFO:root:13091, 13672
INFO:root:13091, 13837
INFO:root:13119, 13534
INFO:root:13119, 13672
INFO:root:13119, 13837
INFO:root:13199, 13534
INFO:root:13199, 13672
INFO:root:13199, 13837
INFO:root:13248, 13534
INFO:root:13248, 13672
INFO:root:13248, 13837
INFO:root:13458, 13534
INFO:root:13458, 13672
INFO:root:13458, 13837
INFO:root:13534, 13650
INFO:root:13534, 13672
INFO:root:13534, 13837
INFO:root:13534, 13918
INFO:root:13534, 13936
INFO:root:13534, 14231
INFO:root:13534, 14268
INFO:root:13534, 14453
INFO:root:13534, 14659
INFO:root:13534, 14727
INFO:root:13534, 14742
INFO:root:13534, 14816
INFO:root:13534, 15228
INFO:root:13534, 15524
INFO:root:13650, 13672
INFO:root:13650, 13837
INFO:root:13672, 13837
INFO:root:13672, 13918
INFO:root:13672, 13936
INFO:root:13672, 14231
INFO:root:13672, 14268
INFO:root:13672, 14453
INFO:root:13672, 14659
INFO:root:13672, 14727
INFO:root:13672, 14742
INFO:root:13672, 14816
INFO:root:13672, 15228
INFO:root:13672, 15524
INFO:root:13837, 13918
INFO:root:13837, 13936
INFO:root:13837, 14231
INFO:root:13837, 14268
INFO:root:13837, 14453
INFO:root:13837, 14659
INFO:root:13837, 14727
INFO:root:13837, 14742
INFO:root:13837, 14816
INFO:root:13837, 15228
INFO:root:13837, 15524
INFO:root:4902, 5447
INFO:root:4902, 5726
INFO:root:4902, 5745
INFO:root:4902, 6104
INFO:root:4902, 6122
INFO:root:4902, 6139
INFO:root:4902, 6187
INFO:root:4902, 6220
INFO:root:4902, 6305
INFO:root:4902, 6542
INFO:root:4902, 6912
INFO:root:4902, 6972
INFO:root:4902, 9499
INFO:root:4902, 10565
INFO:root:4958, 5447
INFO:root:4958, 5726
INFO:root:4958, 5745
INFO:root:4958, 6104
INFO:root:4958, 6122
INFO:root:4958, 6139
INFO:root:4958, 6187
INFO:root:4958, 6220
INFO:root:4958, 6305
INFO:root:4958, 6542
INFO:root:4958, 6912
INFO:root:4958, 6972
INFO:root:4958, 9499
INFO:root:4958, 10565
INFO:root:5191, 5447
INFO:root:5191, 5726
INFO:root:5191, 5745
INFO:root:5191, 6104
INFO:root:5191, 6122
INFO:root:5191, 6139
INFO:root:5191, 6187
INFO:root:5191, 6220
INFO:root:5191, 6305
INFO:root:5191, 6542
INFO:root:5191, 6912
INFO:root:5191, 6972
INFO:root:5191, 9499
INFO:root:5191, 10565
INFO:root:5238, 5447
INFO:root:5238, 5726
INFO:root:5238, 5745
INFO:root:5238, 6104
INFO:root:5238, 6122
INFO:root:5238, 6139
INFO:root:5238, 6187
INFO:root:5238, 6220
INFO:root:5238, 6305
INFO:root:5238, 6542
INFO:root:5238, 6912
INFO:root:5238, 6972
INFO:root:5238, 9499
INFO:root:5238, 10565
INFO:root:5274, 5447
INFO:root:5274, 5726
INFO:root:5274, 5745
INFO:root:5274, 6104
INFO:root:5274, 6122
INFO:root:5274, 6139
INFO:root:5274, 6187
INFO:root:5274, 6220
INFO:root:5274, 6305
INFO:root:5274, 6542
INFO:root:5274, 6912
INFO:root:5274, 6972
INFO:root:5274, 9499
INFO:root:5274, 10565
INFO:root:5320, 5447
INFO:root:5320, 5726
INFO:root:5320, 5745
INFO:root:5320, 6104
INFO:root:5320, 6122
INFO:root:5320, 6139
INFO:root:5320, 6187
INFO:root:5320, 6220
INFO:root:5320, 6305
INFO:root:5320, 6542
INFO:root:5320, 6912
INFO:root:5320, 6972
INFO:root:5320, 9499
INFO:root:5320, 10565
INFO:root:5423, 5447
INFO:root:5423, 5726
INFO:root:5423, 5745
INFO:root:5423, 6104
INFO:root:5423, 6122
INFO:root:5423, 6139
INFO:root:5423, 6187
INFO:root:5423, 6220
INFO:root:5423, 6305
INFO:root:5423, 6542
INFO:root:5423, 6912
INFO:root:5423, 6972
INFO:root:5423, 9499
INFO:root:5423, 10565
INFO:root:5432, 5447
INFO:root:5432, 5726
INFO:root:5432, 5745
INFO:root:5432, 6104
INFO:root:5432, 6122
INFO:root:5432, 6139
INFO:root:5432, 6187
INFO:root:5432, 6220
INFO:root:5432, 6305
INFO:root:5432, 6542
INFO:root:5432, 6912
INFO:root:5432, 6972
INFO:root:5432, 9499
INFO:root:5432, 10565
INFO:root:5447, 5621
INFO:root:5447, 5624
INFO:root:5447, 5653
INFO:root:5447, 5660
INFO:root:5447, 5665
INFO:root:5447, 5668
INFO:root:5447, 5679
INFO:root:5447, 5689
INFO:root:5447, 5692
INFO:root:5447, 5726
INFO:root:5447, 5745
INFO:root:5447, 5784
INFO:root:5447, 5891
INFO:root:5447, 5901
INFO:root:5447, 5902
INFO:root:5447, 5927
INFO:root:5447, 5935
INFO:root:5447, 5943
INFO:root:5447, 5947
INFO:root:5447, 6022
INFO:root:5447, 6033
INFO:root:5447, 6042
INFO:root:5447, 6046
INFO:root:5447, 6066
INFO:root:5447, 6092
INFO:root:5447, 6104
INFO:root:5447, 6115
INFO:root:5447, 6120
INFO:root:5447, 6122
INFO:root:5447, 6131
INFO:root:5447, 6133
INFO:root:5447, 6139
INFO:root:5447, 6146
INFO:root:5447, 6187
INFO:root:5447, 6220
INFO:root:5447, 6223
INFO:root:5447, 6224
INFO:root:5447, 6226
INFO:root:5447, 6234
INFO:root:5447, 6249
INFO:root:5447, 6290
INFO:root:5447, 6302
INFO:root:5447, 6305
INFO:root:5447, 6310
INFO:root:5447, 6391
INFO:root:5447, 6395
INFO:root:5447, 6425
INFO:root:5447, 6443
INFO:root:5447, 6455
INFO:root:5447, 6465
INFO:root:5447, 6513
INFO:root:5447, 6529
INFO:root:5447, 6542
INFO:root:5447, 6551
INFO:root:5447, 6556
INFO:root:5447, 6594
INFO:root:5447, 6642
INFO:root:5447, 6681
INFO:root:5447, 6749
INFO:root:5447, 6754
INFO:root:5447, 6790
INFO:root:5447, 6796
INFO:root:5447, 6912
INFO:root:5447, 6972
INFO:root:5447, 7005
INFO:root:5447, 7168
INFO:root:5447, 7181
INFO:root:5447, 7197
INFO:root:5447, 7215
INFO:root:5447, 7252
INFO:root:5447, 7253
INFO:root:5447, 7333
INFO:root:5447, 7412
INFO:root:5447, 7437
INFO:root:5447, 7582
INFO:root:5447, 7656
INFO:root:5447, 7855
INFO:root:5447, 8007
INFO:root:5447, 8053
INFO:root:5447, 8115
INFO:root:5447, 8578
INFO:root:5447, 9075
INFO:root:5447, 9499
INFO:root:5447, 9540
INFO:root:5447, 9689
INFO:root:5447, 10024
INFO:root:5447, 10176
INFO:root:5447, 10488
INFO:root:5447, 10565
INFO:root:5447, 10788
INFO:root:5447, 10896
INFO:root:5447, 11160
INFO:root:5447, 11188
INFO:root:5447, 11204
INFO:root:5621, 5726
INFO:root:5621, 5745
INFO:root:5621, 6104
INFO:root:5621, 6122
INFO:root:5621, 6139
INFO:root:5621, 6187
INFO:root:5621, 6220
INFO:root:5621, 6305
INFO:root:5621, 6542
INFO:root:5621, 6912
INFO:root:5621, 6972
INFO:root:5621, 9499
INFO:root:5621, 10565
INFO:root:5624, 5726
INFO:root:5624, 5745
INFO:root:5624, 6104
INFO:root:5624, 6122
INFO:root:5624, 6139
INFO:root:5624, 6187
INFO:root:5624, 6220
INFO:root:5624, 6305
INFO:root:5624, 6542
INFO:root:5624, 6912
INFO:root:5624, 6972
INFO:root:5624, 9499
INFO:root:5624, 10565
INFO:root:5653, 5726
INFO:root:5653, 5745
INFO:root:5653, 6104
INFO:root:5653, 6122
INFO:root:5653, 6139
INFO:root:5653, 6187
INFO:root:5653, 6220
INFO:root:5653, 6305
INFO:root:5653, 6542
INFO:root:5653, 6912
INFO:root:5653, 6972
INFO:root:5653, 9499
INFO:root:5653, 10565
INFO:root:5660, 5726
INFO:root:5660, 5745
INFO:root:5660, 6104
INFO:root:5660, 6122
INFO:root:5660, 6139
INFO:root:5660, 6187
INFO:root:5660, 6220
INFO:root:5660, 6305
INFO:root:5660, 6542
INFO:root:5660, 6912
INFO:root:5660, 6972
INFO:root:5660, 9499
INFO:root:5660, 10565
INFO:root:5665, 5726
INFO:root:5665, 5745
INFO:root:5665, 6104
INFO:root:5665, 6122
INFO:root:5665, 6139
INFO:root:5665, 6187
INFO:root:5665, 6220
INFO:root:5665, 6305
INFO:root:5665, 6542
INFO:root:5665, 6912
INFO:root:5665, 6972
INFO:root:5665, 9499
INFO:root:5665, 10565
INFO:root:5668, 5726
INFO:root:5668, 5745
INFO:root:5668, 6104
INFO:root:5668, 6122
INFO:root:5668, 6139
INFO:root:5668, 6187
INFO:root:5668, 6220
INFO:root:5668, 6305
INFO:root:5668, 6542
INFO:root:5668, 6912
INFO:root:5668, 6972
INFO:root:5668, 9499
INFO:root:5668, 10565
INFO:root:5679, 5726
INFO:root:5679, 5745
INFO:root:5679, 6104
INFO:root:5679, 6122
INFO:root:5679, 6139
INFO:root:5679, 6187
INFO:root:5679, 6220
INFO:root:5679, 6305
INFO:root:5679, 6542
INFO:root:5679, 6912
INFO:root:5679, 6972
INFO:root:5679, 9499
INFO:root:5679, 10565
INFO:root:5689, 5726
INFO:root:5689, 5745
INFO:root:5689, 6104
INFO:root:5689, 6122
INFO:root:5689, 6139
INFO:root:5689, 6187
INFO:root:5689, 6220
INFO:root:5689, 6305
INFO:root:5689, 6542
INFO:root:5689, 6912
INFO:root:5689, 6972
INFO:root:5689, 9499
INFO:root:5689, 10565
INFO:root:5692, 5726
INFO:root:5692, 5745
INFO:root:5692, 6104
INFO:root:5692, 6122
INFO:root:5692, 6139
INFO:root:5692, 6187
INFO:root:5692, 6220
INFO:root:5692, 6305
INFO:root:5692, 6542
INFO:root:5692, 6912
INFO:root:5692, 6972
INFO:root:5692, 9499
INFO:root:5692, 10565
INFO:root:5726, 5745
INFO:root:5726, 5784
INFO:root:5726, 5891
INFO:root:5726, 5901
INFO:root:5726, 5902
INFO:root:5726, 5927
INFO:root:5726, 5935
INFO:root:5726, 5943
INFO:root:5726, 5947
INFO:root:5726, 6022
INFO:root:5726, 6033
INFO:root:5726, 6042
INFO:root:5726, 6046
INFO:root:5726, 6066
INFO:root:5726, 6092
INFO:root:5726, 6104
INFO:root:5726, 6115
INFO:root:5726, 6120
INFO:root:5726, 6122
INFO:root:5726, 6131
INFO:root:5726, 6133
INFO:root:5726, 6139
INFO:root:5726, 6146
INFO:root:5726, 6187
INFO:root:5726, 6220
INFO:root:5726, 6223
INFO:root:5726, 6224
INFO:root:5726, 6226
INFO:root:5726, 6234
INFO:root:5726, 6249
INFO:root:5726, 6290
INFO:root:5726, 6302
INFO:root:5726, 6305
INFO:root:5726, 6310
INFO:root:5726, 6391
INFO:root:5726, 6395
INFO:root:5726, 6425
INFO:root:5726, 6443
INFO:root:5726, 6455
INFO:root:5726, 6465
INFO:root:5726, 6513
INFO:root:5726, 6529
INFO:root:5726, 6542
INFO:root:5726, 6551
INFO:root:5726, 6556
INFO:root:5726, 6594
INFO:root:5726, 6642
INFO:root:5726, 6681
INFO:root:5726, 6749
INFO:root:5726, 6754
INFO:root:5726, 6790
INFO:root:5726, 6796
INFO:root:5726, 6912
INFO:root:5726, 6972
INFO:root:5726, 7005
INFO:root:5726, 7168
INFO:root:5726, 7181
INFO:root:5726, 7197
INFO:root:5726, 7215
INFO:root:5726, 7252
INFO:root:5726, 7253
INFO:root:5726, 7333
INFO:root:5726, 7412
INFO:root:5726, 7437
INFO:root:5726, 7582
INFO:root:5726, 7656
INFO:root:5726, 7855
INFO:root:5726, 8007
INFO:root:5726, 8053
INFO:root:5726, 8115
INFO:root:5726, 8578
INFO:root:5726, 9075
INFO:root:5726, 9499
INFO:root:5726, 9540
INFO:root:5726, 9689
INFO:root:5726, 10024
INFO:root:5726, 10176
INFO:root:5726, 10488
INFO:root:5726, 10565
INFO:root:5726, 10788
INFO:root:5726, 10896
INFO:root:5726, 11160
INFO:root:5726, 11188
INFO:root:5726, 11204
INFO:root:5745, 5784
INFO:root:5745, 5891
INFO:root:5745, 5901
INFO:root:5745, 5902
INFO:root:5745, 5927
INFO:root:5745, 5935
INFO:root:5745, 5943
INFO:root:5745, 5947
INFO:root:5745, 6022
INFO:root:5745, 6033
INFO:root:5745, 6042
INFO:root:5745, 6046
INFO:root:5745, 6066
INFO:root:5745, 6092
INFO:root:5745, 6104
INFO:root:5745, 6115
INFO:root:5745, 6120
INFO:root:5745, 6122
INFO:root:5745, 6131
INFO:root:5745, 6133
INFO:root:5745, 6139
INFO:root:5745, 6146
INFO:root:5745, 6187
INFO:root:5745, 6220
INFO:root:5745, 6223
INFO:root:5745, 6224
INFO:root:5745, 6226
INFO:root:5745, 6234
INFO:root:5745, 6249
INFO:root:5745, 6290
INFO:root:5745, 6302
INFO:root:5745, 6305
INFO:root:5745, 6310
INFO:root:5745, 6391
INFO:root:5745, 6395
INFO:root:5745, 6425
INFO:root:5745, 6443
INFO:root:5745, 6455
INFO:root:5745, 6465
INFO:root:5745, 6513
INFO:root:5745, 6529
INFO:root:5745, 6542
INFO:root:5745, 6551
INFO:root:5745, 6556
INFO:root:5745, 6594
INFO:root:5745, 6642
INFO:root:5745, 6681
INFO:root:5745, 6749
INFO:root:5745, 6754
INFO:root:5745, 6790
INFO:root:5745, 6796
INFO:root:5745, 6912
INFO:root:5745, 6972
INFO:root:5745, 7005
INFO:root:5745, 7168
INFO:root:5745, 7181
INFO:root:5745, 7197
INFO:root:5745, 7215
INFO:root:5745, 7252
INFO:root:5745, 7253
INFO:root:5745, 7333
INFO:root:5745, 7412
INFO:root:5745, 7437
INFO:root:5745, 7582
INFO:root:5745, 7656
INFO:root:5745, 7855
INFO:root:5745, 8007
INFO:root:5745, 8053
INFO:root:5745, 8115
INFO:root:5745, 8578
INFO:root:5745, 9075
INFO:root:5745, 9499
INFO:root:5745, 9540
INFO:root:5745, 9689
INFO:root:5745, 10024
INFO:root:5745, 10176
INFO:root:5745, 10488
INFO:root:5745, 10565
INFO:root:5745, 10788
INFO:root:5745, 10896
INFO:root:5745, 11160
INFO:root:5745, 11188
INFO:root:5745, 11204
INFO:root:5784, 6104
INFO:root:5784, 6122
INFO:root:5784, 6139
INFO:root:5784, 6187
INFO:root:5784, 6220
INFO:root:5784, 6305
INFO:root:5784, 6542
INFO:root:5784, 6912
INFO:root:5784, 6972
INFO:root:5784, 9499
INFO:root:5784, 10565
INFO:root:5891, 6104
INFO:root:5891, 6122
INFO:root:5891, 6139
INFO:root:5891, 6187
INFO:root:5891, 6220
INFO:root:5891, 6305
INFO:root:5891, 6542
INFO:root:5891, 6912
INFO:root:5891, 6972
INFO:root:5891, 9499
INFO:root:5891, 10565
INFO:root:5901, 6104
INFO:root:5901, 6122
INFO:root:5901, 6139
INFO:root:5901, 6187
INFO:root:5901, 6220
INFO:root:5901, 6305
INFO:root:5901, 6542
INFO:root:5901, 6912
INFO:root:5901, 6972
INFO:root:5901, 9499
INFO:root:5901, 10565
INFO:root:5902, 6104
INFO:root:5902, 6122
INFO:root:5902, 6139
INFO:root:5902, 6187
INFO:root:5902, 6220
INFO:root:5902, 6305
INFO:root:5902, 6542
INFO:root:5902, 6912
INFO:root:5902, 6972
INFO:root:5902, 9499
INFO:root:5902, 10565
INFO:root:5927, 6104
INFO:root:5927, 6122
INFO:root:5927, 6139
INFO:root:5927, 6187
INFO:root:5927, 6220
INFO:root:5927, 6305
INFO:root:5927, 6542
INFO:root:5927, 6912
INFO:root:5927, 6972
INFO:root:5927, 9499
INFO:root:5927, 10565
INFO:root:5935, 6104
INFO:root:5935, 6122
INFO:root:5935, 6139
INFO:root:5935, 6187
INFO:root:5935, 6220
INFO:root:5935, 6305
INFO:root:5935, 6542
INFO:root:5935, 6912
INFO:root:5935, 6972
INFO:root:5935, 9499
INFO:root:5935, 10565
INFO:root:5943, 6104
INFO:root:5943, 6122
INFO:root:5943, 6139
INFO:root:5943, 6187
INFO:root:5943, 6220
INFO:root:5943, 6305
INFO:root:5943, 6542
INFO:root:5943, 6912
INFO:root:5943, 6972
INFO:root:5943, 9499
INFO:root:5943, 10565
INFO:root:5947, 6104
INFO:root:5947, 6122
INFO:root:5947, 6139
INFO:root:5947, 6187
INFO:root:5947, 6220
INFO:root:5947, 6305
INFO:root:5947, 6542
INFO:root:5947, 6912
INFO:root:5947, 6972
INFO:root:5947, 9499
INFO:root:5947, 10565
INFO:root:6022, 6104
INFO:root:6022, 6122
INFO:root:6022, 6139
INFO:root:6022, 6187
INFO:root:6022, 6220
INFO:root:6022, 6305
INFO:root:6022, 6542
INFO:root:6022, 6912
INFO:root:6022, 6972
INFO:root:6022, 9499
INFO:root:6022, 10565
INFO:root:6033, 6104
INFO:root:6033, 6122
INFO:root:6033, 6139
INFO:root:6033, 6187
INFO:root:6033, 6220
INFO:root:6033, 6305
INFO:root:6033, 6542
INFO:root:6033, 6912
INFO:root:6033, 6972
INFO:root:6033, 9499
INFO:root:6033, 10565
INFO:root:6042, 6104
INFO:root:6042, 6122
INFO:root:6042, 6139
INFO:root:6042, 6187
INFO:root:6042, 6220
INFO:root:6042, 6305
INFO:root:6042, 6542
INFO:root:6042, 6912
INFO:root:6042, 6972
INFO:root:6042, 9499
INFO:root:6042, 10565
INFO:root:6046, 6104
INFO:root:6046, 6122
INFO:root:6046, 6139
INFO:root:6046, 6187
INFO:root:6046, 6220
INFO:root:6046, 6305
INFO:root:6046, 6542
INFO:root:6046, 6912
INFO:root:6046, 6972
INFO:root:6046, 9499
INFO:root:6046, 10565
INFO:root:6066, 6104
INFO:root:6066, 6122
INFO:root:6066, 6139
INFO:root:6066, 6187
INFO:root:6066, 6220
INFO:root:6066, 6305
INFO:root:6066, 6542
INFO:root:6066, 6912
INFO:root:6066, 6972
INFO:root:6066, 9499
INFO:root:6066, 10565
INFO:root:6092, 6104
INFO:root:6092, 6122
INFO:root:6092, 6139
INFO:root:6092, 6187
INFO:root:6092, 6220
INFO:root:6092, 6305
INFO:root:6092, 6542
INFO:root:6092, 6912
INFO:root:6092, 6972
INFO:root:6092, 9499
INFO:root:6092, 10565
INFO:root:6104, 6115
INFO:root:6104, 6120
INFO:root:6104, 6122
INFO:root:6104, 6131
INFO:root:6104, 6133
INFO:root:6104, 6139
INFO:root:6104, 6146
INFO:root:6104, 6187
INFO:root:6104, 6220
INFO:root:6104, 6223
INFO:root:6104, 6224
INFO:root:6104, 6226
INFO:root:6104, 6234
INFO:root:6104, 6249
INFO:root:6104, 6290
INFO:root:6104, 6302
INFO:root:6104, 6305
INFO:root:6104, 6310
INFO:root:6104, 6391
INFO:root:6104, 6395
INFO:root:6104, 6425
INFO:root:6104, 6443
INFO:root:6104, 6455
INFO:root:6104, 6465
INFO:root:6104, 6513
INFO:root:6104, 6529
INFO:root:6104, 6542
INFO:root:6104, 6551
INFO:root:6104, 6556
INFO:root:6104, 6594
INFO:root:6104, 6642
INFO:root:6104, 6681
INFO:root:6104, 6749
INFO:root:6104, 6754
INFO:root:6104, 6790
INFO:root:6104, 6796
INFO:root:6104, 6912
INFO:root:6104, 6972
INFO:root:6104, 7005
INFO:root:6104, 7168
INFO:root:6104, 7181
INFO:root:6104, 7197
INFO:root:6104, 7215
INFO:root:6104, 7252
INFO:root:6104, 7253
INFO:root:6104, 7333
INFO:root:6104, 7412
INFO:root:6104, 7437
INFO:root:6104, 7582
INFO:root:6104, 7656
INFO:root:6104, 7855
INFO:root:6104, 8007
INFO:root:6104, 8053
INFO:root:6104, 8115
INFO:root:6104, 8578
INFO:root:6104, 9075
INFO:root:6104, 9499
INFO:root:6104, 9540
INFO:root:6104, 9689
INFO:root:6104, 10024
INFO:root:6104, 10176
INFO:root:6104, 10488
INFO:root:6104, 10565
INFO:root:6104, 10788
INFO:root:6104, 10896
INFO:root:6104, 11160
INFO:root:6104, 11188
INFO:root:6104, 11204
INFO:root:6115, 6122
INFO:root:6115, 6139
INFO:root:6115, 6187
INFO:root:6115, 6220
INFO:root:6115, 6305
INFO:root:6115, 6542
INFO:root:6115, 6912
INFO:root:6115, 6972
INFO:root:6115, 9499
INFO:root:6115, 10565
INFO:root:6120, 6122
INFO:root:6120, 6139
INFO:root:6120, 6187
INFO:root:6120, 6220
INFO:root:6120, 6305
INFO:root:6120, 6542
INFO:root:6120, 6912
INFO:root:6120, 6972
INFO:root:6120, 9499
INFO:root:6120, 10565
INFO:root:6122, 6131
INFO:root:6122, 6133
INFO:root:6122, 6139
INFO:root:6122, 6146
INFO:root:6122, 6187
INFO:root:6122, 6220
INFO:root:6122, 6223
INFO:root:6122, 6224
INFO:root:6122, 6226
INFO:root:6122, 6234
INFO:root:6122, 6249
INFO:root:6122, 6290
INFO:root:6122, 6302
INFO:root:6122, 6305
INFO:root:6122, 6310
INFO:root:6122, 6391
INFO:root:6122, 6395
INFO:root:6122, 6425
INFO:root:6122, 6443
INFO:root:6122, 6455
INFO:root:6122, 6465
INFO:root:6122, 6513
INFO:root:6122, 6529
INFO:root:6122, 6542
INFO:root:6122, 6551
INFO:root:6122, 6556
INFO:root:6122, 6594
INFO:root:6122, 6642
INFO:root:6122, 6681
INFO:root:6122, 6749
INFO:root:6122, 6754
INFO:root:6122, 6790
INFO:root:6122, 6796
INFO:root:6122, 6912
INFO:root:6122, 6972
INFO:root:6122, 7005
INFO:root:6122, 7168
INFO:root:6122, 7181
INFO:root:6122, 7197
INFO:root:6122, 7215
INFO:root:6122, 7252
INFO:root:6122, 7253
INFO:root:6122, 7333
INFO:root:6122, 7412
INFO:root:6122, 7437
INFO:root:6122, 7582
INFO:root:6122, 7656
INFO:root:6122, 7855
INFO:root:6122, 8007
INFO:root:6122, 8053
INFO:root:6122, 8115
INFO:root:6122, 8578
INFO:root:6122, 9075
INFO:root:6122, 9499
INFO:root:6122, 9540
INFO:root:6122, 9689
INFO:root:6122, 10024
INFO:root:6122, 10176
INFO:root:6122, 10488
INFO:root:6122, 10565
INFO:root:6122, 10788
INFO:root:6122, 10896
INFO:root:6122, 11160
INFO:root:6122, 11188
INFO:root:6122, 11204
INFO:root:6131, 6139
INFO:root:6131, 6187
INFO:root:6131, 6220
INFO:root:6131, 6305
INFO:root:6131, 6542
INFO:root:6131, 6912
INFO:root:6131, 6972
INFO:root:6131, 9499
INFO:root:6131, 10565
INFO:root:6133, 6139
INFO:root:6133, 6187
INFO:root:6133, 6220
INFO:root:6133, 6305
INFO:root:6133, 6542
INFO:root:6133, 6912
INFO:root:6133, 6972
INFO:root:6133, 9499
INFO:root:6133, 10565
INFO:root:6139, 6146
INFO:root:6139, 6187
INFO:root:6139, 6220
INFO:root:6139, 6223
INFO:root:6139, 6224
INFO:root:6139, 6226
INFO:root:6139, 6234
INFO:root:6139, 6249
INFO:root:6139, 6290
INFO:root:6139, 6302
INFO:root:6139, 6305
INFO:root:6139, 6310
INFO:root:6139, 6391
INFO:root:6139, 6395
INFO:root:6139, 6425
INFO:root:6139, 6443
INFO:root:6139, 6455
INFO:root:6139, 6465
INFO:root:6139, 6513
INFO:root:6139, 6529
INFO:root:6139, 6542
INFO:root:6139, 6551
INFO:root:6139, 6556
INFO:root:6139, 6594
INFO:root:6139, 6642
INFO:root:6139, 6681
INFO:root:6139, 6749
INFO:root:6139, 6754
INFO:root:6139, 6790
INFO:root:6139, 6796
INFO:root:6139, 6912
INFO:root:6139, 6972
INFO:root:6139, 7005
INFO:root:6139, 7168
INFO:root:6139, 7181
INFO:root:6139, 7197
INFO:root:6139, 7215
INFO:root:6139, 7252
INFO:root:6139, 7253
INFO:root:6139, 7333
INFO:root:6139, 7412
INFO:root:6139, 7437
INFO:root:6139, 7582
INFO:root:6139, 7656
INFO:root:6139, 7855
INFO:root:6139, 8007
INFO:root:6139, 8053
INFO:root:6139, 8115
INFO:root:6139, 8578
INFO:root:6139, 9075
INFO:root:6139, 9499
INFO:root:6139, 9540
INFO:root:6139, 9689
INFO:root:6139, 10024
INFO:root:6139, 10176
INFO:root:6139, 10488
INFO:root:6139, 10565
INFO:root:6139, 10788
INFO:root:6139, 10896
INFO:root:6139, 11160
INFO:root:6139, 11188
INFO:root:6139, 11204
INFO:root:6146, 6187
INFO:root:6146, 6220
INFO:root:6146, 6305
INFO:root:6146, 6542
INFO:root:6146, 6912
INFO:root:6146, 6972
INFO:root:6146, 9499
INFO:root:6146, 10565
INFO:root:6187, 6220
INFO:root:6187, 6223
INFO:root:6187, 6224
INFO:root:6187, 6226
INFO:root:6187, 6234
INFO:root:6187, 6249
INFO:root:6187, 6290
INFO:root:6187, 6302
INFO:root:6187, 6305
INFO:root:6187, 6310
INFO:root:6187, 6391
INFO:root:6187, 6395
INFO:root:6187, 6425
INFO:root:6187, 6443
INFO:root:6187, 6455
INFO:root:6187, 6465
INFO:root:6187, 6513
INFO:root:6187, 6529
INFO:root:6187, 6542
INFO:root:6187, 6551
INFO:root:6187, 6556
INFO:root:6187, 6594
INFO:root:6187, 6642
INFO:root:6187, 6681
INFO:root:6187, 6749
INFO:root:6187, 6754
INFO:root:6187, 6790
INFO:root:6187, 6796
INFO:root:6187, 6912
INFO:root:6187, 6972
INFO:root:6187, 7005
INFO:root:6187, 7168
INFO:root:6187, 7181
INFO:root:6187, 7197
INFO:root:6187, 7215
INFO:root:6187, 7252
INFO:root:6187, 7253
INFO:root:6187, 7333
INFO:root:6187, 7412
INFO:root:6187, 7437
INFO:root:6187, 7582
INFO:root:6187, 7656
INFO:root:6187, 7855
INFO:root:6187, 8007
INFO:root:6187, 8053
INFO:root:6187, 8115
INFO:root:6187, 8578
INFO:root:6187, 9075
INFO:root:6187, 9499
INFO:root:6187, 9540
INFO:root:6187, 9689
INFO:root:6187, 10024
INFO:root:6187, 10176
INFO:root:6187, 10488
INFO:root:6187, 10565
INFO:root:6187, 10788
INFO:root:6187, 10896
INFO:root:6187, 11160
INFO:root:6187, 11188
INFO:root:6187, 11204
INFO:root:6220, 6223
INFO:root:6220, 6224
INFO:root:6220, 6226
INFO:root:6220, 6234
INFO:root:6220, 6249
INFO:root:6220, 6290
INFO:root:6220, 6302
INFO:root:6220, 6305
INFO:root:6220, 6310
INFO:root:6220, 6391
INFO:root:6220, 6395
INFO:root:6220, 6425
INFO:root:6220, 6443
INFO:root:6220, 6455
INFO:root:6220, 6465
INFO:root:6220, 6513
INFO:root:6220, 6529
INFO:root:6220, 6542
INFO:root:6220, 6551
INFO:root:6220, 6556
INFO:root:6220, 6594
INFO:root:6220, 6642
INFO:root:6220, 6681
INFO:root:6220, 6749
INFO:root:6220, 6754
INFO:root:6220, 6790
INFO:root:6220, 6796
INFO:root:6220, 6912
INFO:root:6220, 6972
INFO:root:6220, 7005
INFO:root:6220, 7168
INFO:root:6220, 7181
INFO:root:6220, 7197
INFO:root:6220, 7215
INFO:root:6220, 7252
INFO:root:6220, 7253
INFO:root:6220, 7333
INFO:root:6220, 7412
INFO:root:6220, 7437
INFO:root:6220, 7582
INFO:root:6220, 7656
INFO:root:6220, 7855
INFO:root:6220, 8007
INFO:root:6220, 8053
INFO:root:6220, 8115
INFO:root:6220, 8578
INFO:root:6220, 9075
INFO:root:6220, 9499
INFO:root:6220, 9540
INFO:root:6220, 9689
INFO:root:6220, 10024
INFO:root:6220, 10176
INFO:root:6220, 10488
INFO:root:6220, 10565
INFO:root:6220, 10788
INFO:root:6220, 10896
INFO:root:6220, 11160
INFO:root:6220, 11188
INFO:root:6220, 11204
INFO:root:6223, 6305
INFO:root:6223, 6542
INFO:root:6223, 6912
INFO:root:6223, 6972
INFO:root:6223, 9499
INFO:root:6223, 10565
INFO:root:6224, 6305
INFO:root:6224, 6542
INFO:root:6224, 6912
INFO:root:6224, 6972
INFO:root:6224, 9499
INFO:root:6224, 10565
INFO:root:6226, 6305
INFO:root:6226, 6542
INFO:root:6226, 6912
INFO:root:6226, 6972
INFO:root:6226, 9499
INFO:root:6226, 10565
INFO:root:6234, 6305
INFO:root:6234, 6542
INFO:root:6234, 6912
INFO:root:6234, 6972
INFO:root:6234, 9499
INFO:root:6234, 10565
INFO:root:6249, 6305
INFO:root:6249, 6542
INFO:root:6249, 6912
INFO:root:6249, 6972
INFO:root:6249, 9499
INFO:root:6249, 10565
INFO:root:6290, 6305
INFO:root:6290, 6542
INFO:root:6290, 6912
INFO:root:6290, 6972
INFO:root:6290, 9499
INFO:root:6290, 10565
INFO:root:6302, 6305
INFO:root:6302, 6542
INFO:root:6302, 6912
INFO:root:6302, 6972
INFO:root:6302, 9499
INFO:root:6302, 10565
INFO:root:6305, 6310
INFO:root:6305, 6391
INFO:root:6305, 6395
INFO:root:6305, 6425
INFO:root:6305, 6443
INFO:root:6305, 6455
INFO:root:6305, 6465
INFO:root:6305, 6513
INFO:root:6305, 6529
INFO:root:6305, 6542
INFO:root:6305, 6551
INFO:root:6305, 6556
INFO:root:6305, 6594
INFO:root:6305, 6642
INFO:root:6305, 6681
INFO:root:6305, 6749
INFO:root:6305, 6754
INFO:root:6305, 6790
INFO:root:6305, 6796
INFO:root:6305, 6912
INFO:root:6305, 6972
INFO:root:6305, 7005
INFO:root:6305, 7168
INFO:root:6305, 7181
INFO:root:6305, 7197
INFO:root:6305, 7215
INFO:root:6305, 7252
INFO:root:6305, 7253
INFO:root:6305, 7333
INFO:root:6305, 7412
INFO:root:6305, 7437
INFO:root:6305, 7582
INFO:root:6305, 7656
INFO:root:6305, 7855
INFO:root:6305, 8007
INFO:root:6305, 8053
INFO:root:6305, 8115
INFO:root:6305, 8578
INFO:root:6305, 9075
INFO:root:6305, 9499
INFO:root:6305, 9540
INFO:root:6305, 9689
INFO:root:6305, 10024
INFO:root:6305, 10176
INFO:root:6305, 10488
INFO:root:6305, 10565
INFO:root:6305, 10788
INFO:root:6305, 10896
INFO:root:6305, 11160
INFO:root:6305, 11188
INFO:root:6305, 11204
INFO:root:6310, 6542
INFO:root:6310, 6912
INFO:root:6310, 6972
INFO:root:6310, 9499
INFO:root:6310, 10565
INFO:root:6391, 6542
INFO:root:6391, 6912
INFO:root:6391, 6972
INFO:root:6391, 9499
INFO:root:6391, 10565
INFO:root:6395, 6542
INFO:root:6395, 6912
INFO:root:6395, 6972
INFO:root:6395, 9499
INFO:root:6395, 10565
INFO:root:6425, 6542
INFO:root:6425, 6912
INFO:root:6425, 6972
INFO:root:6425, 9499
INFO:root:6425, 10565
INFO:root:6443, 6542
INFO:root:6443, 6912
INFO:root:6443, 6972
INFO:root:6443, 9499
INFO:root:6443, 10565
INFO:root:6455, 6542
INFO:root:6455, 6912
INFO:root:6455, 6972
INFO:root:6455, 9499
INFO:root:6455, 10565
INFO:root:6465, 6542
INFO:root:6465, 6912
INFO:root:6465, 6972
INFO:root:6465, 9499
INFO:root:6465, 10565
INFO:root:6513, 6542
INFO:root:6513, 6912
INFO:root:6513, 6972
INFO:root:6513, 9499
INFO:root:6513, 10565
INFO:root:6529, 6542
INFO:root:6529, 6912
INFO:root:6529, 6972
INFO:root:6529, 9499
INFO:root:6529, 10565
INFO:root:6542, 6551
INFO:root:6542, 6556
INFO:root:6542, 6594
INFO:root:6542, 6642
INFO:root:6542, 6681
INFO:root:6542, 6749
INFO:root:6542, 6754
INFO:root:6542, 6790
INFO:root:6542, 6796
INFO:root:6542, 6912
INFO:root:6542, 6972
INFO:root:6542, 7005
INFO:root:6542, 7168
INFO:root:6542, 7181
INFO:root:6542, 7197
INFO:root:6542, 7215
INFO:root:6542, 7252
INFO:root:6542, 7253
INFO:root:6542, 7333
INFO:root:6542, 7412
INFO:root:6542, 7437
INFO:root:6542, 7582
INFO:root:6542, 7656
INFO:root:6542, 7855
INFO:root:6542, 8007
INFO:root:6542, 8053
INFO:root:6542, 8115
INFO:root:6542, 8578
INFO:root:6542, 9075
INFO:root:6542, 9499
INFO:root:6542, 9540
INFO:root:6542, 9689
INFO:root:6542, 10024
INFO:root:6542, 10176
INFO:root:6542, 10488
INFO:root:6542, 10565
INFO:root:6542, 10788
INFO:root:6542, 10896
INFO:root:6542, 11160
INFO:root:6542, 11188
INFO:root:6542, 11204
INFO:root:6551, 6912
INFO:root:6551, 6972
INFO:root:6551, 9499
INFO:root:6551, 10565
INFO:root:6556, 6912
INFO:root:6556, 6972
INFO:root:6556, 9499
INFO:root:6556, 10565
INFO:root:6594, 6912
INFO:root:6594, 6972
INFO:root:6594, 9499
INFO:root:6594, 10565
INFO:root:6642, 6912
INFO:root:6642, 6972
INFO:root:6642, 9499
INFO:root:6642, 10565
INFO:root:6681, 6912
INFO:root:6681, 6972
INFO:root:6681, 9499
INFO:root:6681, 10565
INFO:root:6749, 6912
INFO:root:6749, 6972
INFO:root:6749, 9499
INFO:root:6749, 10565
INFO:root:6754, 6912
INFO:root:6754, 6972
INFO:root:6754, 9499
INFO:root:6754, 10565
INFO:root:6790, 6912
INFO:root:6790, 6972
INFO:root:6790, 9499
INFO:root:6790, 10565
INFO:root:6796, 6912
INFO:root:6796, 6972
INFO:root:6796, 9499
INFO:root:6796, 10565
INFO:root:6912, 6972
INFO:root:6912, 7005
INFO:root:6912, 7168
INFO:root:6912, 7181
INFO:root:6912, 7197
INFO:root:6912, 7215
INFO:root:6912, 7252
INFO:root:6912, 7253
INFO:root:6912, 7333
INFO:root:6912, 7412
INFO:root:6912, 7437
INFO:root:6912, 7582
INFO:root:6912, 7656
INFO:root:6912, 7855
INFO:root:6912, 8007
INFO:root:6912, 8053
INFO:root:6912, 8115
INFO:root:6912, 8578
INFO:root:6912, 9075
INFO:root:6912, 9499
INFO:root:6912, 9540
INFO:root:6912, 9689
INFO:root:6912, 10024
INFO:root:6912, 10176
INFO:root:6912, 10488
INFO:root:6912, 10565
INFO:root:6912, 10788
INFO:root:6912, 10896
INFO:root:6912, 11160
INFO:root:6912, 11188
INFO:root:6912, 11204
INFO:root:6972, 7005
INFO:root:6972, 7168
INFO:root:6972, 7181
INFO:root:6972, 7197
INFO:root:6972, 7215
INFO:root:6972, 7252
INFO:root:6972, 7253
INFO:root:6972, 7333
INFO:root:6972, 7412
INFO:root:6972, 7437
INFO:root:6972, 7582
INFO:root:6972, 7656
INFO:root:6972, 7855
INFO:root:6972, 8007
INFO:root:6972, 8053
INFO:root:6972, 8115
INFO:root:6972, 8578
INFO:root:6972, 9075
INFO:root:6972, 9499
INFO:root:6972, 9540
INFO:root:6972, 9689
INFO:root:6972, 10024
INFO:root:6972, 10176
INFO:root:6972, 10488
INFO:root:6972, 10565
INFO:root:6972, 10788
INFO:root:6972, 10896
INFO:root:6972, 11160
INFO:root:6972, 11188
INFO:root:6972, 11204
INFO:root:7005, 9499
INFO:root:7005, 10565
INFO:root:7168, 9499
INFO:root:7168, 10565
INFO:root:7181, 9499
INFO:root:7181, 10565
INFO:root:7197, 9499
INFO:root:7197, 10565
INFO:root:7215, 9499
INFO:root:7215, 10565
INFO:root:7252, 9499
INFO:root:7252, 10565
INFO:root:7253, 9499
INFO:root:7253, 10565
INFO:root:7333, 9499
INFO:root:7333, 10565
INFO:root:7412, 9499
INFO:root:7412, 10565
INFO:root:7437, 9499
INFO:root:7437, 10565
INFO:root:7582, 9499
INFO:root:7582, 10565
INFO:root:7656, 9499
INFO:root:7656, 10565
INFO:root:7855, 9499
INFO:root:7855, 10565
INFO:root:8007, 9499
INFO:root:8007, 10565
INFO:root:8053, 9499
INFO:root:8053, 10565
INFO:root:8115, 9499
INFO:root:8115, 10565
INFO:root:8578, 9499
INFO:root:8578, 10565
INFO:root:9075, 9499
INFO:root:9075, 10565
INFO:root:9499, 9540
INFO:root:9499, 9689
INFO:root:9499, 10024
INFO:root:9499, 10176
INFO:root:9499, 10488
INFO:root:9499, 10565
INFO:root:9499, 10788
INFO:root:9499, 10896
INFO:root:9499, 11160
INFO:root:9499, 11188
INFO:root:9499, 11204
INFO:root:9540, 10565
INFO:root:9689, 10565
INFO:root:10024, 10565
INFO:root:10176, 10565
INFO:root:10488, 10565
INFO:root:10565, 10788
INFO:root:10565, 10896
INFO:root:10565, 11160
INFO:root:10565, 11188
INFO:root:10565, 11204
