frame,label,x,y,area,raw_lum,lum,gyrad,n_sat,n_255,bx,by,bw,bh,tier,ws_neighbor,particle,match_frame
3157,915,500.9140260319312,249.11564919112465,36,5783.842828077315,5711.842828077315,2.423122619589598,8,0,497,246,9,7,0,,311933,0
3158,876,501.1468664177663,249.14044063782487,31,5063.846897253306,5001.846897253306,2.3668563535393154,6,0,497,247,9,5,0,,311933,0
3159,851,500.9556004258053,249.0034017391772,34,5601.975584944049,5533.975584944049,2.212187744201352,7,0,497,246,9,6,0,,311933,0
3160,879,501.56551579495016,249.1920694392508,38,6257.070193285859,6181.070193285859,2.518700419642189,9,0,498,246,8,7,0,,311933,0
3161,886,501.3439282794587,249.01225816145325,38,6448.95981688708,6372.95981688708,2.5421873647465443,9,0,498,246,8,7,0,,311933,0
3162,869,501.7043906861255,248.5375205165589,38,6602.735503560529,6526.735503560529,2.2926913118403807,11,0,498,246,8,6,0,,311933,0
3163,917,501.8137627056617,248.70064958321373,35,6054.355544252288,5984.355544252288,2.304025146025244,8,0,498,246,8,7,0,,311933,0
3164,869,501.5207902401573,248.94378563333143,39,6126.96032553408,6048.96032553408,2.483296911751212,8,0,498,246,8,7,0,,311933,0
3165,870,501.3613404110397,248.69056504438527,40,6755.2197355035605,6675.2197355035605,2.517522056779741,9,0,497,246,9,7,0,,311933,0
3166,894,501.8084892516866,248.71514235743035,37,6070.341302136318,5996.341302136318,2.3461347137426776,8,0,498,246,8,6,0,,311933,0
3167,895,501.5986479956632,248.4459298047828,44,7773.771617497457,7685.771617497457,2.526048609177716,14,0,497,246,9,6,0,,311933,0
3168,870,501.8124310915508,248.8961226634088,41,6947.827060020345,6865.827060020345,2.480897150976704,10,0,498,246,8,7,0,,311933,0
3169,876,502.240719230601,248.47341869699605,52,8980.547304170905,8876.547304170905,2.782449050446989,18,0,498,246,10,7,0,,311933,0
3170,876,501.8587671390964,248.50092194487087,41,6734.73448626653,6652.73448626653,2.3742161310570133,9,0,498,246,8,6,0,,311933,0
3171,904,502.1013343238794,248.2549711167697,33,5726.569684638861,5660.569684638861,2.225117330629841,9,0,498,246,8,6,0,,311933,0
3172,861,502.1265306533133,248.4206334233501,40,7077.352492370294,6997.352492370294,2.468202075049028,12,0,498,246,8,7,0,,311933,0
3173,882,502.4643276503606,248.4957352965613,33,5448.566632756867,5382.566632756867,2.2530423402980904,7,0,498,246,8,6,0,,311933,0
3174,864,502.4921902111229,248.70063729965523,27,4637.60528992879,4583.60528992879,2.131758453721801,7,0,499,247,8,5,0,,311933,0
3175,877,502.6859845016694,248.4754975773595,36,6225.919125127162,6153.919125127162,2.1922295829992606,13,0,499,246,8,6,0,,311933,0
3176,879,502.9834663141424,248.37131360290425,36,6086.221261444559,6014.221261444559,2.314814903666603,10,0,499,245,9,7,0,,311933,0
3177,868,502.6143225819988,248.4149894230128,43,6787.899287894202,6701.899287894202,2.5045404094477632,13,0,498,246,10,6,0,,311933,0
3178,879,503.1756628117752,248.4807882452884,31,4668.468463886064,4606.468463886064,2.292269274924486,5,0,499,246,9,6,0,,311933,0
3179,860,502.8298127907081,248.11299685083068,43,7202.241607324517,7116.241607324517,2.534036192102822,10,0,498,245,10,7,0,,311933,0
3180,875,502.6277949961551,248.19120889790864,49,8486.45473041709,8388.45473041709,2.6378357166648767,18,0,498,245,10,7,0,,311933,0
3181,882,503.0721546628548,248.1502632457164,35,5874.123092573755,5804.123092573755,2.261142788787988,9,0,500,246,8,6,0,,311933,0
3182,847,503.1467202119868,248.0745474005332,34,5253.786876907427,5185.786876907427,2.170102285934917,9,0,500,246,8,6,0,,311933,0
3183,879,503.4297055611809,248.3057679631505,35,5123.804679552392,5053.804679552392,2.294694047711427,4,0,500,246,8,6,0,,311933,0
3184,885,503.47421330512685,247.92593107708927,38,5891.731434384538,5815.731434384538,2.298995876004461,5,0,500,245,8,6,0,,311933,0
3185,848,503.3415214742506,248.18585801348428,44,7550.929806714141,7462.929806714141,2.560698904550962,15,0,499,246,9,6,0,,311933,0
3186,896,503.2447947206736,248.0232622032424,32,5639.302644964395,5575.302644964395,2.2134376827679456,8,0,500,246,8,5,0,,311933,0
3187,865,503.05809695090574,248.27254877348832,30,4968.104781281791,4908.104781281791,2.156567119826998,7,0,500,246,8,6,0,,311933,1
3188,868,502.7735935786722,248.001746818516,32,5503.975076297051,5439.975076297051,2.1627900346935034,8,0,500,246,7,5,0,,311933,0
3189,858,503.5755011737534,247.78028007315424,34,5731.281281790438,5663.281281790438,2.4093014773639694,7,0,500,246,8,5,0,,311933,0
3190,876,503.6549804826484,247.6592097492442,38,6018.59003051882,5942.59003051882,2.491212738948461,5,0,500,245,8,7,0,,311933,0
3191,874,503.5113712209477,247.66778991731007,38,5862.7014242115965,5786.7014242115965,2.52750554858563,5,0,500,245,8,6,0,,311933,0
3192,875,503.2531363145103,247.51500398287465,41,6700.86571719227,6618.86571719227,2.4836262050475737,8,0,499,245,9,6,0,,311933,0
3193,849,503.80867754776887,247.54558394009808,37,6525.417090539167,6451.417090539167,2.489855855495122,10,0,500,245,9,6,0,,311933,0
3194,871,503.61265960852586,247.5626973609362,36,6151.877924720244,6079.877924720244,2.3829280259647923,11,0,500,245,8,6,0,,311933,0
3195,860,503.0904543699181,247.3915213838146,43,7652.487283825027,7566.487283825027,2.6056784211312056,12,0,499,244,9,7,0,,311933,0
3196,854,503.4466340393517,247.40892434424453,30,4986.075788402848,4926.075788402848,2.333266999431112,3,0,500,245,8,5,0,,311933,0
3197,867,503.5021588270055,247.3619614855345,37,6441.886063072228,6367.886063072228,2.519608825968498,9,0,500,245,9,6,0,,311933,0
3198,843,503.8948491012526,247.5841787244961,41,6775.763479145474,6693.763479145474,2.5598232746547134,12,0,500,245,9,6,0,,311933,0
3199,840,503.8657881377163,247.4684940666739,39,6147.8351983723305,6069.8351983723305,2.468415945003916,10,0,500,245,9,6,0,,311933,0
3200,850,503.7964575303328,247.5769897707658,50,8068.351983723296,7968.351983723296,2.868297322046007,15,0,498,245,12,6,0,,311933,0
3201,862,503.9271947196672,247.5095675338965,34,5501.98067141404,5433.98067141404,2.5070711954488885,6,0,500,245,9,6,0,,311933,0
3202,843,504.1789309397662,247.2899357245537,29,4941.695829094609,4883.695829094609,2.245376021691561,8,0,500,245,8,6,0,,311933,0
3203,828,503.76250487889774,247.1428913579957,41,6502.873855544252,6420.873855544252,2.6171598911560414,9,0,500,244,9,7,0,,311933,0
3204,848,503.771624369839,246.88594228645812,42,6927.838758901323,6843.838758901323,2.6196072187452515,10,0,500,244,10,7,0,,311933,0
3205,840,504.5811425807841,247.31307279472847,41,6175.771108850458,6093.771108850458,2.5491786836113794,9,0,500,244,10,7,0,,311933,0
3206,824,504.4909137475742,247.27513286756212,34,5832.875890132249,5764.875890132249,2.2571986649093905,11,0,500,245,9,6,0,,311933,0
3207,810,503.9112059765037,246.9387381764849,39,6347.270600203459,6269.270600203459,2.5300919911931303,12,0,500,244,9,7,0,,311933,0
3208,834,504.4958434674313,247.35886401270355,28,4573.504069175992,4517.504069175992,2.160393689453364,4,0,501,245,7,6,0,,311933,0
3209,849,504.5229611186445,247.1908263716078,33,5632.2711088504575,5566.2711088504575,2.319005163628617,10,0,501,245,8,6,0,,311933,0
3210,847,505.0607789830043,247.33213894369112,32,5282.979145473042,5218.979145473042,2.2145226698624247,9,0,502,245,8,6,0,,311933,0
3211,862,505.1290258565903,247.4162758458598,31,4657.251780264496,4595.251780264496,2.2450922637339765,3,0,502,245,8,6,0,,311933,0
3212,844,504.863928500182,247.0154969602916,34,5601.761444557477,5533.761444557477,2.298669515446184,7,0,502,244,7,7,0,,311933,0
3213,864,504.2604664331808,246.86415804000617,39,6384.723296032553,6306.723296032553,2.337804032381054,11,0,500,244,9,7,0,,311933,0
3214,840,504.33234493325807,246.9056310231568,27,4236.837741607325,4182.837741607325,1.993256013229552,3,0,501,245,7,5,0,,311933,0
3215,829,504.4857435322694,246.52942329482613,31,5148.436927772125,5086.436927772125,2.0320069743562112,6,0,502,244,6,6,0,,311933,0
3216,849,504.77355778378734,246.9985128413392,27,4656.68463886063,4602.68463886063,2.072378480127087,6,0,502,245,7,5,0,,311933,0
3217,861,504.7326586402152,246.6789950421919,31,5089.436927772125,5027.436927772125,2.0228517733909546,7,0,502,244,6,6,0,,311933,0
