frame,label,x,y,area,raw_lum,lum,gyrad,n_sat,n_255,bx,by,bw,bh,tier,ws_neighbor,particle,match_frame
1017,1489,486.9051398014528,259.7048001821782,12,1579.1724313326552,1555.1724313326552,1.1819106334600695,1,0,486,258,4,4,0,,86921,0
1018,1487,486.7545998675894,259.7098018369279,8,943.4567650050864,927.4567650050864,0.9576143794060896,0,0,486,259,3,3,0,,86921,0
1019,1561,486.76304252492525,259.93626533095147,9,1181.9170905391657,1163.9170905391657,1.0185609702182823,1,0,486,259,3,3,0,,86921,0
1020,1494,486.540905909739,259.5005529652734,8,1109.8031536113938,1093.8031536113938,0.9510753709450374,1,0,486,258,2,4,0,,86921,0
1021,1496,486.72642684792777,259.22518965977264,14,2018.8611393692777,1990.8611393692777,1.2598866542481002,3,0,485,258,5,4,0,,86921,0
1022,1481,487.0996556764273,259.066795288978,15,2102.2538148524923,2072.2538148524923,1.3518255881029333,1,0,486,257,4,5,0,,86921,0
1023,1470,487.0342053989897,259.38203697281915,11,1422.7822990844354,1400.7822990844354,1.1613677511061402,1,0,486,258,4,4,0,,86921,0
1024,1473,486.4420814206203,259.5084017670623,11,1447.76500508647,1425.76500508647,1.0764754991893632,1,0,485,258,4,4,0,,86921,0
1025,1485,486.45236887567546,259.4975272248002,12,1823.1088504577824,1799.1088504577824,1.175422596304921,4,0,485,258,4,4,0,,86921,0
1026,1507,486.50490940957343,260.2373183054211,14,2081.714649033571,2053.714649033571,1.2495333112130598,4,0,485,259,4,4,0,,86921,0
1027,1485,486.503966463441,259.98573282152694,8,942.413021363174,926.413021363174,0.9310211017006532,0,0,485,259,4,3,0,,86921,0
1028,1515,486.60272367850894,260.1559585776358,7,946.1129196337744,932.1129196337744,0.8792487345030422,1,0,486,259,3,3,0,,86921,0
1029,1509,486.4852367257068,260.2432861374402,6,992.881993896236,980.881993896236,0.8519559473351933,0,0,486,259,2,3,0,,86921,0
1030,1527,486.49963220166336,260.2225612756772,9,1286.8357070193283,1268.8357070193283,1.0227851504756744,1,0,485,259,4,4,0,,86921,0
1031,1493,486.3699259428243,260.8606871728578,7,1204.0132248219736,1190.0132248219736,0.9458427345471913,1,0,485,260,3,3,0,,86921,0
1032,1485,486.6439018790414,261.449615602487,18,2233.152085452696,2197.152085452696,1.5652265321663952,3,0,485,260,5,5,0,,86921,0
1033,1510,486.8692003287486,261.5159211449829,12,1458.1017293997966,1434.1017293997966,1.544256957081494,2,0,485,260,5,5,0,,86921,0
1034,1496,486.9882483591757,261.6025591164785,18,2108.27466937945,2072.27466937945,1.596727115720863,2,0,485,260,5,5,0,,86921,0
1035,1482,487.1522346612482,261.81587297865826,16,1952.555951169888,1920.555951169888,1.6713513023267244,1,0,485,260,5,5,0,,86921,0
1036,1491,487.1686128042191,261.02495690139625,12,1470.8163784333672,1446.8163784333672,1.3731299763987448,1,0,486,260,4,4,0,,86921,0
1037,1439,487.1868407865242,260.6973173951933,14,1533.6932858596135,1505.6932858596135,1.4372640833855796,0,0,486,259,4,5,0,,86921,0
1038,1479,486.94022145575497,260.6819275626956,16,2068.298575788403,2036.298575788403,1.4105613824033971,3,0,485,259,5,4,0,,86921,0
1039,1498,487.0175743958248,260.2774725889891,12,1521.9415055951172,1497.9415055951172,1.3032436435207102,1,0,486,259,4,4,0,,86921,0
1040,1493,486.9859490976995,260.2804864372389,10,1170.17497456765,1150.17497456765,1.3078285493720103,1,0,486,259,4,4,0,,86921,0
1041,1485,486.5252704023305,260.4731765867788,8,980.6042726347916,964.6042726347916,1.0534758412896217,0,0,486,259,2,4,0,,86921,0
1042,1492,486.5697977294157,260.6256091077491,13,1825.4608341810783,1799.4608341810786,1.4025459126880593,1,0,485,259,4,5,0,,86921,0
1043,1492,486.6668046170936,260.1041547995891,9,1217.9959308240084,1199.9959308240084,1.0513733057480534,1,0,486,259,3,4,0,,86921,0
1044,1501,486.4938868226279,260.26341180931536,14,1725.089521871821,1697.089521871821,1.5254165475382715,1,0,484,259,6,4,0,,86921,0
1045,1455,486.546573949211,259.74213299302176,12,1476.3163784333674,1452.3163784333674,1.274619221510544,1,0,484,258,5,4,0,,86921,0
1046,1458,486.3408136423236,260.1947323677218,10,1498.18006103764,1478.18006103764,1.1243607045220056,0,0,485,259,4,4,0,,86921,0
1047,1490,486.6756279003993,259.71555004782056,11,1366.800610376399,1344.800610376399,1.140625771640016,1,0,486,258,3,5,0,,86921,1
1048,1471,486.74021648807405,259.9769333779504,13,1635.5605289928792,1609.5605289928792,1.3073672368827292,1,0,486,258,3,5,0,,86921,0
1049,1513,487.05936680274186,259.930097319728,11,1840.583926754832,1818.583926754832,1.2147242663519562,1,0,486,259,4,3,0,,86921,0
1050,1480,486.9534120340805,259.8351320061826,12,1659.8840284842322,1635.8840284842322,1.2141272594951256,1,0,485,259,5,3,0,,86921,0
1051,1502,487.25174484435183,259.9249003244975,12,1641.006612410987,1617.006612410987,1.251984889066592,0,0,486,259,4,3,0,,86921,0
1052,1471,487.6459458789744,260.0286855663854,12,1909.006612410987,1885.006612410987,1.2994275997979114,0,0,486,259,4,3,0,,86921,0
1053,1508,487.32033163759166,259.85458636506274,11,1455.5839267548322,1433.5839267548322,1.2358706332790226,0,0,486,259,4,3,0,,86921,0
1054,528,487.44212673109297,260.132941569949,11,1181.673957273652,1159.673957273652,1.2231648833990298,0,0,486,259,4,3,0,,86921,0
1055,1442,487.3276146658967,260.0683808754283,17,2497.902339776196,2463.902339776196,1.4273934888463882,1,0,486,258,4,5,0,,86921,0
1056,1437,487.0718236572435,259.98900511749315,10,1303.2512716174974,1283.2512716174974,1.1237690592959666,0,0,486,259,4,3,0,,86921,0
1057,1459,487.4751141948846,259.93369411495416,13,2115.522889114954,2089.522889114954,1.341069155204037,0,0,486,258,4,4,0,,86921,0
1058,1448,487.5210548763938,260.0808428375976,11,1377.4135300101732,1355.4135300101732,1.2345466667889315,0,0,486,259,4,3,0,,86921,0
1059,1459,487.6658611851573,260.3352061389256,10,1249.0712105798575,1229.0712105798575,1.2100105153762273,0,0,486,259,4,3,0,,86921,0
1060,1463,487.4981181311069,260.54402493488226,16,2129.3306205493386,2097.3306205493386,1.3913970436706176,0,0,486,259,4,4,0,,86921,0
1061,517,487.4021194756687,260.2417472644703,11,1311.673957273652,1289.673957273652,1.2311238559171174,0,0,486,259,4,3,0,,86921,0
1062,1444,487.10870550170097,260.1079226405161,10,1192.2512716174974,1172.2512716174974,1.1223061375439298,0,0,486,259,4,3,0,,86921,0
1063,1474,486.6865702304751,260.06079705093265,7,963.1129196337744,949.1129196337744,0.9297680511379456,0,0,486,259,3,3,0,,86921,0
1064,1442,487.4016147336453,260.144385461714,12,1432.006612410987,1408.006612410987,1.2647560933817414,0,0,486,259,4,3,0,,86921,0
1065,1491,487.4256810592643,260.0991533468447,19,2881.671414038657,2843.671414038657,1.5047137978992255,3,0,486,258,4,5,0,,86921,0
1066,1472,487.5780630408954,259.75390321944445,16,2452.6861648016275,2420.6861648016275,1.4296794098114531,1,0,486,258,4,4,0,,86921,0
1067,1465,487.9914124169601,260.0615237011767,11,1712.413530010173,1690.413530010173,1.1948316426813534,1,0,486,259,4,3,0,,86921,0
1068,1443,488.08018218776346,260.03779833593006,23,3300.564598168871,3254.564598168871,1.653367085990579,5,0,486,258,6,5,0,,86921,0
1069,1451,487.70518136338,259.77003580236834,16,2224.6861648016275,2192.6861648016275,1.39324876069113,1,0,486,258,4,4,0,,86921,0
1070,1428,488.2556714849982,259.717431086262,14,1885.918107833164,1857.918107833164,1.27087695826818,1,0,486,258,5,4,0,,86921,0
1071,1440,488.3030384422564,259.5093349614156,10,1560.4384537131232,1540.4384537131232,1.091170704747044,2,0,487,258,3,4,0,,86921,0
1072,1479,488.6647497362688,259.51066836136647,13,1770.0249237029504,1744.0249237029504,1.2060604544914806,2,0,487,258,5,4,0,,86921,0
1073,1429,488.94598075281135,259.2752788631124,15,1923.0457782299088,1893.0457782299088,1.309352559776743,2,0,487,258,5,4,0,,86921,0
1074,1402,488.53318012639954,259.12753502716515,14,2009.4852492370287,1981.4852492370287,1.2409093041624772,3,0,487,258,4,4,0,,86921,0
1075,1418,489.0281558300205,259.18555980450304,19,2964.7166836215665,2926.7166836215665,1.5219959530809268,5,0,487,257,5,5,0,,86921,0
1076,1416,488.6772050126145,258.9925255366562,13,1938.1012207527967,1912.1012207527967,1.230987362903553,2,0,487,258,5,3,0,,86921,0
1077,1436,488.529764554385,259.42144182637014,12,1685.4471007121058,1661.4471007121058,1.1454083866143043,3,0,487,258,4,4,0,,86921,0
