frame,label,x,y,area,raw_lum,lum,gyrad,n_sat,n_255,bx,by,bw,bh,tier,ws_neighbor,particle,match_frame
3992,685,469.4356187809032,251.7842067560161,31,4999.43997965412,4937.43997965412,2.218623393275587,4,0,466,250,8,5,0,,334615,0
3993,699,470.2832203332479,251.50973617285007,37,5712.146490335707,5638.146490335707,2.2921252634701763,8,0,466,249,9,6,0,,334615,0
3994,683,469.8258204863254,251.75244890642423,29,4718.717192268566,4660.717192268566,2.0295564569918816,7,0,466,250,8,5,0,,334615,0
3995,704,470.1732953930546,251.855134166072,37,5968.938962360122,5894.938962360122,2.213859520596238,10,0,466,249,8,6,0,,334615,0
3996,694,470.64261672930417,252.0212100269413,29,5020.898270600204,4962.898270600204,2.003714064809776,6,0,467,250,7,5,0,,334615,0
3997,695,469.8947769813973,252.0368091417461,38,6299.341302136318,6223.341302136318,2.386924624653909,10,0,466,249,8,6,0,,334615,0
3998,696,469.76982007695767,252.06066489543647,28,4535.396744659208,4479.396744659208,1.8812449155375564,7,0,467,250,7,5,0,,334615,0
3999,701,470.2599328285187,251.9850620750973,34,5662.463377416073,5594.463377416073,2.18422692297975,10,0,466,249,8,6,0,,334615,0
4000,692,469.7684682330016,252.38268699825147,34,5534.688708036622,5466.688708036622,2.0433616911911003,11,0,466,250,8,6,0,,334615,0
4001,715,470.25918794517656,252.42090422910383,24,3467.7110885045777,3419.7110885045777,1.9466663584811128,2,0,467,251,7,4,0,,334615,0
4002,714,469.498597210544,252.55913896473857,30,4341.009155645982,4281.009155645982,2.120831528033768,4,0,466,250,8,5,0,,334615,0
4003,687,469.7182526405893,252.67107489287145,23,3212.380976602238,3166.380976602238,1.8413655385965264,3,0,466,251,8,4,0,,334615,0
4004,702,469.7480287571986,252.9014386691195,30,4400.119023397762,4340.119023397762,1.9542905499866128,7,0,466,251,8,5,0,,334615,0
4005,712,469.81092322127336,253.1250309160272,29,4146.038657171923,4088.0386571719214,1.8711467255821923,5,0,467,251,7,6,0,,334615,0
4006,682,469.7345579856741,253.19001024791456,31,4789.699898270601,4727.699898270601,1.9635873161965285,8,0,466,251,8,6,0,,334615,0
4007,697,469.51627266568295,253.3668626286465,39,6061.081892166836,5983.081892166836,2.193924559505375,11,0,466,251,8,6,0,,334615,0
4008,691,469.1682544676797,253.26483902121268,33,5425.34028484232,5359.34028484232,2.1542540333616715,11,0,466,251,8,5,0,,334615,0
4009,681,468.94086492942927,253.7988774789798,30,4816.309766022381,4756.309766022381,1.964453695656775,7,0,466,252,7,5,0,,334615,0
4010,675,469.36189195347225,253.76058028424296,32,4949.235503560529,4885.235503560529,1.9769073240319848,7,0,466,251,8,6,0,,334615,0
4011,705,469.3803218226337,253.82398891772144,35,5690.534587995931,5620.534587995931,2.11887087806816,11,0,466,251,8,6,0,,334615,0
4012,684,468.7817708933694,254.0851712831203,32,5639.410986775178,5575.410986775178,2.088038615140192,11,0,465,251,8,6,0,,334615,0
4013,686,468.6246252977072,254.466592064972,30,4604.537131230925,4544.537131230925,1.9490337277291123,4,0,466,252,6,6,0,,334615,0
4014,659,468.8973656097887,254.6486058735416,37,5900.280773143439,5826.280773143439,2.15045504937015,9,0,466,252,7,6,0,,334615,0
4015,672,468.8829299962908,254.74410699043608,33,4976.476602238046,4910.476602238046,2.1276151191016024,7,0,466,252,8,6,0,,334615,0
4016,670,469.44118146746695,254.7523451716684,22,3398.0879959308245,3354.0879959308245,1.687545792047167,2,0,466,252,6,6,0,,334615,0
4017,686,469.19341973668094,255.051800147737,38,5941.79501525941,5865.79501525941,2.207328358670186,9,0,466,252,8,7,0,,334615,0
4018,671,469.8634280814539,254.94148319887864,34,5229.102238046796,5161.102238046796,2.12102685322156,10,0,466,252,8,6,0,,334615,0
4019,672,469.4949093652692,255.0040238006285,36,5729.009155645982,5657.009155645982,2.220197440002456,7,0,466,252,8,7,0,,334615,0
4020,704,470.09829942194153,255.30454264634344,31,4847.672431332655,4785.672431332655,2.091913413736082,7,0,466,253,8,5,0,,334615,0
4021,691,469.7601768700591,255.41922157676456,37,6386.282807731433,6312.282807731433,2.407085493482548,12,0,466,253,8,6,0,,334615,0
4022,710,470.0846107692501,255.21400835547163,30,4618.534079348932,4558.534079348932,1.9959944990334413,7,0,466,253,8,5,0,,334615,1
4023,691,469.8740334886847,255.32946260618647,37,5830.426246185147,5756.426246185147,2.2935732620886182,8,0,466,253,8,6,0,,334615,0
4024,719,469.8865051733137,255.10800028655348,37,6212.678026449643,6138.678026449643,2.2881036485227795,10,0,466,253,8,6,0,,334615,0
4025,685,469.71106545354576,255.25961608641703,37,6181.478636826043,6107.478636826043,2.207740322073553,11,0,466,253,8,6,0,,334615,0
4026,681,469.3273386511679,255.28434056930928,34,5145.229399796541,5077.229399796541,2.125343695591316,7,0,466,253,8,5,0,,334615,0
4027,710,469.2825127246032,255.2726306301197,35,5722.507121057985,5652.507121057985,2.1651375698405246,10,0,466,253,8,6,0,,334615,0
4028,699,468.7571813142101,255.14785280634229,22,3599.081383519838,3555.081383519838,1.77693238719263,2,0,466,253,6,5,0,,334615,0
4029,697,468.12879039448177,255.3327394979464,32,5269.182095625636,5205.182095625636,2.064639204026885,6,0,465,253,7,6,0,,334615,0
4030,694,468.4492850737823,255.05866573655908,30,4329.744150559512,4269.744150559512,2.095309445787823,5,0,464,253,8,5,0,,334615,0
4031,704,467.4153088014473,255.2641125234349,29,4592.98016276704,4534.98016276704,1.9965889908768013,9,0,464,253,8,5,0,,334615,0
4032,715,468.3344379385412,254.9506057987502,24,3989.125635808749,3941.125635808749,1.8153886754375392,5,0,465,253,7,5,0,,334615,0
4033,692,468.12351981596015,254.79891165882623,30,4941.209053916583,4881.209053916583,1.9397483565028573,8,0,465,252,7,6,0,,334615,0
4034,691,467.8911357646824,254.9836982993626,25,3871.1174974567657,3821.1174974567657,1.747515100118726,5,0,466,253,6,5,0,,334615,0
4035,690,468.2462167196264,254.49618854427587,30,4427.475584944049,4367.475584944049,1.914194925679655,6,0,465,252,7,6,0,,334615,0
4036,704,467.4525124818653,254.80946747322253,19,2325.5508646998983,2287.5508646998983,1.630183531427449,1,0,464,253,7,4,0,,334615,0
4037,718,468.1046078882426,254.62652526433124,30,4811.466937945066,4751.466937945066,1.9025319007703,8,0,465,252,7,6,0,,334615,0
4038,696,468.51792782130025,254.4235169891132,27,4196.152594099694,4142.152594099694,1.8770177979253848,4,0,466,252,6,6,0,,334615,0
4039,670,467.8602682666677,254.3602627908968,21,3529.838250254323,3487.838250254323,1.6331616669562847,4,0,466,252,6,5,0,,334615,0
4040,686,468.1237972468919,254.456116828678,35,5815.751780264496,5745.751780264496,2.0853213624269773,11,0,465,252,7,6,0,,334615,0
4041,699,467.6501606240603,254.3420447873196,26,4125.2502543235,4073.2502543235,1.8444027694152243,8,0,465,252,7,6,0,,334615,0
4042,719,467.7240645581142,254.0710313478544,27,4367.621566632757,4313.621566632757,1.889206587282037,9,0,464,252,8,5,0,,334615,0
4043,717,468.0838784312489,253.63281934123185,35,5595.433875890132,5525.433875890132,2.0391238909968195,11,0,465,251,7,6,0,,334615,0
4044,690,467.79607709263934,254.38759150415936,33,5159.822482197355,5093.822482197355,1.9874551591909395,11,0,465,252,7,6,0,,334615,0
4045,676,468.1880935970259,254.1014315165773,28,4636.682095625637,4580.682095625637,1.9090656307433889,8,0,465,252,7,5,0,,334615,0
4046,694,467.7146383334097,254.32669646892623,31,4818.9226856561545,4756.9226856561545,1.888725953836468,10,0,465,252,7,6,0,,334615,0
4047,664,467.3918349449768,254.3067008019627,36,5788.507121057986,5716.507121057986,2.151689287533641,12,0,464,252,8,6,0,,334615,0
4048,707,468.0443050120065,254.06771447942867,36,5677.6378433367245,5605.6378433367245,2.0722413069119097,9,0,465,251,7,7,0,,334615,0
4049,686,467.6087084692413,254.64302038668592,21,3626.875890132248,3584.875890132248,1.6403158977598744,5,0,466,253,5,5,0,,334615,0
4050,703,467.6747478057797,254.94468689825047,32,5469.492370295015,5405.492370295015,1.9843960655116424,9,0,465,252,6,7,0,,334615,0
4051,669,467.5152996903588,254.2793834146506,30,4827.889114954221,4767.889114954221,1.8683908173078383,9,0,465,252,7,6,0,,334615,0
4052,672,466.909764347501,254.49740086946176,22,3385.591047812818,3341.591047812818,1.6635250193697784,4,0,464,253,6,4,0,,334615,0
