frame,label,x,y,area,raw_lum,lum,gyrad,n_sat,n_255,bx,by,bw,bh,tier,ws_neighbor,particle,match_frame
6432,409,489.6540807523282,121.65128842250014,85,14755.578331637842,14585.578331637842,3.923990883276153,30,0,484,117,12,12,0,,435911,0
6433,401,490.1955207068352,126.07890993762106,89,15451.046286876906,15273.046286876906,3.864879764378099,28,0,484,121,14,12,0,,436477,0
6434,410,490.1713344398271,130.63359491831136,91,16153.90488301119,15971.90488301119,3.854863185737426,38,0,484,126,14,11,0,,436971,0
6435,410,489.9589908357372,135.0891393760372,92,16401.452695829095,16217.452695829095,3.962132331980305,34,0,484,130,13,12,0,,437450,0
6436,404,490.2789880109354,140.16460232569577,90,15401.072736520851,15221.072736520851,4.192971192641593,21,0,484,134,14,13,0,,435919,0
6437,402,490.3139447933374,144.8831748538326,87,14419.89471007121,14245.89471007121,4.153555551859696,21,0,484,140,14,12,0,,436505,0
6438,442,490.0869273889768,149.74274132156003,82,14259.196846388608,14095.196846388608,4.138014903428604,21,0,484,145,14,11,0,,436976,0
6439,413,490.1294991358064,154.59495580667536,87,15616.497965412003,15442.497965412003,4.021576203715768,31,0,484,149,12,13,0,,437426,0
6440,446,489.94316927784286,159.6498600026337,97,17003.299084435403,16809.299084435403,4.225832400639532,31,0,484,154,14,13,0,,437885,0
6441,423,489.5805397097656,164.199581644361,92,15953.07527975585,15769.07527975585,4.03338275563471,31,0,484,159,12,12,0,,438335,0
6442,430,489.5583615526682,169.4402169707538,92,16176.779755849442,15992.779755849442,4.305400226111802,24,0,484,164,13,12,0,,438855,0
6443,415,489.7196713846153,174.44985103964032,88,15677.667344862664,15501.667344862664,3.869138840413387,31,0,484,169,12,12,0,,439235,0
6444,408,489.4896495129045,179.4893080163651,90,16674.55595116989,16494.55595116989,4.40207950569634,30,0,483,174,14,12,0,,439671,0
6445,408,489.6703711884987,184.53800266161724,94,16360.45523906409,16172.45523906409,3.881905986460228,28,0,484,179,12,12,0,,440150,0
6446,443,489.4043174806238,189.5029003461728,90,14905.173448626652,14725.173448626652,4.251487401747958,21,0,483,184,14,13,0,,440578,0
6447,442,489.4994969745293,194.3954833172345,82,15187.349440488302,15023.349440488302,3.672835483217036,31,0,484,190,12,11,0,,441046,0
6448,442,489.5346886393587,199.25347265179263,88,14986.048321464905,14810.048321464905,4.348166545715741,23,0,483,194,13,12,0,,441502,0
6449,451,489.49873873282434,204.2490563923198,103,18780.866734486262,18574.866734486262,4.033730620839007,39,0,484,199,12,12,0,,441979,0
6450,439,488.91170656960736,208.70242624138453,96,17322.42421159715,17130.42421159715,4.130395012838069,36,0,482,203,14,13,0,,444168,0
6451,449,488.8521692634842,214.0862128908916,88,15847.318413021365,15671.318413021365,3.821928016336723,27,0,483,209,12,12,0,,442967,0
6452,440,489.2386973321777,219.04968132829453,96,17672.942522889112,17480.942522889112,4.153314589203856,32,0,483,213,13,13,0,,445098,0
6453,442,488.92062991320574,224.19157605054176,91,16549.228891149545,16367.228891149543,3.958013365190767,26,0,484,219,11,12,0,,443867,0
6454,461,488.9048319208868,228.5481847879049,96,17881.22431332655,17689.22431332655,4.153487447220433,37,0,484,222,12,14,0,,446088,0
6455,448,488.7340791045572,234.40572386376448,81,14550.902848423191,14388.902848423191,4.059890447265771,19,0,484,229,12,13,0,,446540,0
6456,450,488.865866873651,238.6508034008697,91,15855.916581892165,15673.916581892165,4.082555523825597,30,0,484,233,12,13,0,,446962,0
6457,442,489.6204663371095,245.14791624380968,94,17233.78789420142,17045.78789420142,4.46989061850089,28,0,484,239,12,13,0,,445625,0
6458,457,488.96252378511633,249.0659257292893,100,17451.842319430318,17251.842319430318,4.188539218707883,33,0,484,243,12,14,0,,445625,0
6459,448,489.046267575124,254.28366776888467,96,17080.14445574771,16888.14445574771,4.300408738809638,35,0,484,248,12,14,0,,448316,0
6460,487,488.8699263340596,258.66028872865485,102,18929.726347914548,18725.726347914548,4.332700469551172,41,0,483,252,13,14,0,,448749,0
6461,464,489.0913704856263,263.42590674870416,95,17213.258901322482,17023.258901322482,3.962705483272329,32,0,484,258,12,12,0,,449195,0
6462,484,489.0743700565226,267.6244379650367,93,16377.27873855544,16191.27873855544,3.8969054102200777,32,0,483,262,13,13,0,,449598,1
6463,491,488.8926019757959,271.42348412415873,108,18409.722787385555,18193.722787385555,4.133095334661541,35,0,484,265,12,14,0,,449598,0
6464,481,488.58039920903377,275.6341231868413,98,17629.647507629707,17433.647507629707,3.968799853178228,34,0,483,270,12,13,0,,450337,0
6465,480,488.7675394320243,280.12308807109315,89,15164.203458799597,14986.203458799597,3.961392870101242,24,0,484,274,11,14,0,,450588,0
6466,472,489.4707570468869,284.5799221534592,82,15108.238555442524,14944.238555442524,4.145688826879701,24,0,484,279,12,12,0,,450806,0
6467,473,489.4179283726389,287.3530424830452,87,14799.453204476094,14625.453204476094,3.918467969637757,23,0,484,282,12,12,0,,450806,0
6468,474,488.98081109239456,290.60782436628097,85,14584.31485249237,14414.31485249237,4.135851487297528,23,0,484,285,12,13,0,,450806,0
6469,495,488.6609849317725,293.5517377202253,72,12607.490335707018,12463.490335707018,3.579880938651624,17,0,484,289,11,11,0,,450806,0
6470,473,489.0122591174245,296.5966928611498,73,12290.68413021363,12144.68413021363,3.6248663961726666,21,0,483,292,12,11,0,,450806,0
6471,480,489.0392007025287,299.83350083351706,88,15278.62563580875,15102.62563580875,3.897720452498778,30,0,484,294,12,12,0,,450806,0
6472,497,488.93712595518696,302.259571741662,87,15664.858596134283,15490.858596134283,4.064082794106828,29,0,483,297,13,12,0,,450806,0
6473,480,488.6029364198741,304.5526124966248,82,13822.930824008135,13658.930824008135,3.9436223641652,22,0,482,299,14,12,0,,450806,0
6474,478,488.3313122355158,306.5497812096397,83,14617.503560528994,14451.503560528994,3.5902054697371004,27,0,483,302,11,11,0,,450806,0
6475,515,488.2902270525596,308.85253761672385,88,15704.593082400814,15528.593082400814,3.7858919030465694,35,0,482,304,12,12,0,,450806,0
6476,495,488.8463560272951,311.3457145403096,92,16382.492370295016,16198.492370295016,4.139576348096556,33,0,483,306,13,12,0,,450806,0
6477,479,487.9871029977409,312.7746080856203,85,15155.800610376398,14985.800610376398,4.057109635796938,30,0,482,307,12,13,0,,450806,0
6478,495,488.498003101331,315.06652476548965,84,14642.746693794506,14474.746693794506,3.894615121654741,26,0,483,310,13,11,0,,450806,0
6479,493,488.8770660047856,317.476587287447,89,15259.282299084436,15081.282299084436,4.145071929810887,29,0,483,311,13,13,0,,450806,0
6480,504,488.6588605604954,318.65172683992,97,17736.96032553408,17542.96032553408,4.199253304510342,34,0,482,313,14,13,0,,450806,0
6481,510,488.4250610394178,320.9866834783581,93,16170.987283825025,15984.987283825025,3.960161643493052,30,0,482,315,14,13,0,,450806,0
6482,510,488.9661488458729,322.97574622656253,86,14608.45981688708,14436.45981688708,3.900352006125671,29,0,484,318,11,12,0,,450806,0
6483,509,489.1543374124577,325.28824544165,92,16597.63021363174,16413.63021363174,4.119658389581395,33,0,483,320,13,12,0,,450806,0
6484,504,490.112110035492,327.5876766512825,85,15045.288911495423,14875.288911495423,4.157198760408874,27,0,484,322,13,13,0,,450806,0
6485,545,489.77339073750585,328.5936299558669,81,13903.070701932858,13741.070701932858,3.733529398632797,27,0,484,323,12,12,0,,450806,0
6486,518,490.3115769498312,330.61001229827457,96,16700.43794506612,16508.43794506612,4.539625493911769,30,0,484,324,14,14,0,,450806,0
6487,528,490.70972055076624,332.6375607824758,80,14278.230925737538,14118.230925737538,3.771275618922083,25,0,485,327,12,12,0,,450806,0
6488,513,490.8727772305644,334.36370038926776,90,15703.244659206512,15523.244659206512,4.348340693415467,31,0,485,328,13,14,0,,450806,0
6489,503,490.8797752613536,336.0957771912328,79,13713.77060020346,13555.77060020346,3.89112465787175,18,0,486,331,12,11,0,,450806,0
6490,530,490.9996807986413,336.634991715568,77,13125.6500508647,12971.6500508647,3.557378560821255,24,0,486,331,11,12,0,,450806,0
6491,521,491.7746972379099,338.81485953600054,88,14805.656663275688,14629.656663275688,4.270723207455399,26,0,486,333,12,13,0,,450806,0
6492,504,491.6021089269925,339.6756363984498,80,13866.838758901322,13706.838758901322,3.973284952074263,21,0,486,334,12,13,0,,450806,0
