frame,label,x,y,area,raw_lum,lum,gyrad,n_sat,n_255,bx,by,bw,bh,tier,ws_neighbor,particle,match_frame
7664,395,497.3519482154574,243.7238474220513,33,3664.294506612411,3598.294506612411,2.133124737391901,1,0,495,241,7,6,0,,475225,0
7665,415,498.6778964900171,244.47840457647848,42,5525.889623601221,5441.889623601221,2.759969090414201,1,0,496,242,11,6,0,,475225,0
7666,381,499.0889009060767,244.6999244439246,69,10493.240590030518,10355.240590030518,3.596338070177516,9,0,494,241,13,8,0,,475225,0
7667,402,499.3508334777163,244.8791354164493,82,14966.460834181078,14802.460834181078,3.671504823517511,30,0,494,240,14,10,0,,475225,0
7668,382,499.6672824169372,244.75527967952624,98,17646.30518819939,17450.30518819939,3.99629379381028,34,0,494,240,14,10,0,,475225,0
7669,403,499.7498488380507,245.2527963248324,93,16709.322990844354,16523.322990844354,3.836060667960018,34,0,494,241,14,9,0,,475225,0
7670,383,498.8862886124883,245.25073049649555,82,14035.730417090535,13871.730417090535,3.558166676193096,23,0,494,241,12,9,0,,475225,0
7671,414,499.1447423113444,245.4726888026568,84,14754.185656154628,14586.185656154628,3.779854417514976,29,0,493,241,15,9,0,,475225,0
7672,386,499.1391525540596,245.5082250234672,75,13654.612919633775,13504.612919633775,3.574799961966733,28,0,494,242,13,8,0,,475225,0
7673,380,499.1113438095006,245.43788320293592,78,13342.755849440488,13186.755849440488,3.7288674882874826,24,0,494,241,14,9,0,,475225,0
7674,379,499.2315252549555,245.9263077395945,66,11426.854018311293,11294.854018311293,3.56158062311536,22,0,494,243,13,7,0,,475225,1
7675,378,499.17489410935127,246.0666853064324,61,10043.903357070194,9921.903357070194,3.3679636805068536,17,0,494,242,13,8,0,,475225,0
7676,389,499.6539916527238,246.31193437233503,63,10999.256866734486,10873.256866734486,3.50608527325706,21,0,494,243,14,8,0,,475225,0
7677,385,499.55274014521245,245.9979223439706,62,10721.302136317398,10597.302136317398,3.500617437743444,23,0,495,242,13,8,0,,475225,0
7678,395,499.2323992387546,246.1409934017209,67,11717.426754832148,11583.426754832148,3.462040820747447,27,0,494,242,13,8,0,,475225,0
7679,397,499.0221350163578,246.44819982698493,66,11055.199389623602,10923.199389623602,3.6174931132121295,20,0,494,243,14,8,0,,475225,0
7680,405,498.6154171162922,246.3374063265128,47,8246.472533062055,8152.472533062055,3.316610576027213,13,0,494,243,12,7,0,,475225,0
