frame,label,x,y,area,raw_lum,lum,gyrad,n_sat,n_255,bx,by,bw,bh,tier,ws_neighbor,particle,match_frame
14612,1611,528.5905157571204,264.48403067485305,35,4853.850457782299,4783.850457782299,2.5913584407537176,6,0,526,260,6,9,0,,610636,0
14613,1622,528.4371573427474,264.83012920276855,32,4403.993387589013,4339.993387589013,2.0755796397943227,6,0,526,260,6,9,0,,610636,0
14614,1550,528.3230573498412,264.0184401169552,32,3752.902848423195,3688.902848423195,2.0536592302327583,4,0,526,260,6,8,0,,610636,0
14615,1579,528.2443248817245,263.698209561385,39,5127.951169888097,5049.951169888097,2.302593225403139,7,0,526,259,6,9,0,,610636,0
14616,1588,528.5691364055483,263.4393618431761,39,5056.3346897253305,4978.3346897253305,2.572132917392145,3,0,526,258,6,10,0,,610636,0
14617,1583,528.2628091698267,263.96276869649165,36,4763.067141403865,4691.067141403865,2.285542172127349,6,0,526,259,6,9,0,,610636,0
14618,1611,528.6299785530113,263.8473655013884,33,3980.336215666328,3914.336215666328,2.4692990598623843,5,0,526,258,6,10,0,,610636,0
14619,1586,528.4990589428269,263.41550128896705,36,4367.017802644964,4295.017802644964,2.382306858936049,5,0,526,258,6,9,0,,610636,0
14620,1591,528.3667344210935,264.2790682909053,33,4430.257375381485,4364.257375381485,2.1430911293173454,6,0,526,259,6,9,0,,610636,0
14621,1554,528.9142395853748,263.8867840684387,36,5193.233468972533,5121.233468972533,2.167197954802908,7,0,526,259,6,9,0,,610636,0
14622,1587,528.0344313204164,264.28918648005447,32,4759.781281790437,4695.781281790437,2.160913422086811,5,0,526,259,6,9,0,,610636,0
14623,1919,528.0750417819083,264.8171044085116,27,4277.28484231943,4223.28484231943,1.8173884401228009,6,0,526,262,6,6,1,,610636,0
14624,1598,528.385534440162,265.3212485766819,29,4212.910986775178,4154.910986775178,1.8306705249661768,6,0,526,263,6,6,0,,610636,0
14625,1607,529.1919702205124,264.75859065095443,28,3896.938453713123,3840.938453713123,2.822166448282091,4,0,526,263,10,5,0,,610636,0
14626,1576,528.8784088836596,264.79540713882744,35,4721.689216683622,4651.689216683622,2.508230375434839,6,0,526,263,10,5,0,,610636,0
14627,1575,527.9112591533467,264.7349292514801,25,3730.311800610377,3680.311800610377,1.7307965923081206,4,0,526,262,5,6,0,,610636,0
14628,1552,527.7928642599451,264.9023206240911,19,2564.184638860631,2526.184638860631,1.5200698875432026,1,0,526,263,4,5,0,,610636,0
14629,1557,528.9331529151907,264.5300367335069,35,5126.555951169888,5056.555951169888,2.87555886206259,5,0,526,262,10,6,0,,610636,0
14630,1544,527.8440387226833,264.86935889727107,21,3266.98982706002,3224.98982706002,1.5940735433178268,4,0,526,263,5,5,0,,610636,0
14631,1537,528.36948940179,264.5496463696518,46,7225.303153611394,7133.303153611394,3.056545668885526,13,0,524,262,12,7,0,,610636,0
14632,1535,527.4390079074551,265.3613580513597,27,4306.751271617498,4252.751271617498,1.799444283534945,4,0,525,263,6,6,0,,610636,0
14633,1593,527.3546424878384,264.8853144659738,30,4699.581892166836,4639.581892166836,1.8936002769235305,5,0,524,262,7,7,0,,610636,0
14634,1552,527.3410527495431,264.978518561204,34,5110.7075279755845,5042.7075279755845,1.9963140533983217,8,0,524,262,7,7,0,,610636,0
14635,1527,527.6115400225954,265.6485876159867,33,4979.00966429298,4913.00966429298,1.937074942583772,7,0,525,263,7,7,0,,610636,0
14636,1561,527.9762740813632,265.1467134658746,44,6200.236520854526,6112.236520854526,2.7322365573012286,8,0,524,262,10,7,0,,610636,0
14638,1571,527.9668181201125,265.18314892015604,40,5822.635808748729,5742.635808748729,2.515982380015513,8,0,524,263,10,6,0,,610636,0
14639,1588,528.6039410792026,265.36170022978524,32,4550.447100712106,4486.447100712106,2.4362710871808977,3,0,526,263,8,7,0,,610636,0
14640,1576,527.8352275929741,265.6142196931268,43,6353.188199389624,6267.188199389624,2.44629897844163,8,0,524,263,10,8,0,,610636,0
14641,1541,528.2733925631943,265.0615078697538,34,4989.097660223804,4921.097660223804,2.395976084975962,7,0,525,263,9,6,0,,610636,0
14642,1961,527.9693463173228,265.4381385678557,45,6920.07019328586,6830.07019328586,2.5002752342895924,13,0,524,263,10,6,1,,610636,1
14643,1991,527.1486646260076,264.7772500037107,43,6373.98067141404,6287.98067141404,2.5391574971634965,8,0,524,260,7,9,1,,610636,0
14644,1599,528.2751145347609,264.673779365505,42,5761.954221770091,5677.954221770091,2.865517074013633,4,0,526,259,8,10,0,,610636,0
14645,1598,528.990440703844,265.35786213117376,28,3900.481688708037,3844.481688708037,1.9597164535650096,5,0,526,263,8,6,0,,610636,0
14646,1599,528.126929926247,265.0226557801186,45,6055.239064089522,5965.239064089522,2.58921592735624,7,0,525,260,8,9,0,,610636,0
14647,1587,527.9171408981904,265.2498808579144,53,7128.57527975585,7022.57527975585,2.63484699589697,11,0,524,260,9,10,0,,610636,0
14648,1560,528.0079037906161,265.97767384629566,40,5916.267039674466,5836.267039674466,2.508551929079827,9,0,524,264,10,6,0,,610636,0
14649,1588,528.9634424018004,265.09210682908,55,7876.9496439471,7766.9496439471,2.8576705474639934,8,0,526,259,8,11,0,,610636,0
14650,1572,528.8962644110904,265.3149529335779,44,6582.924211597152,6494.924211597152,2.4130140403053453,9,0,526,261,8,8,0,,610636,0
14651,1597,528.2732035288752,265.7980698845697,44,6496.32502543235,6408.32502543235,2.4683539564494987,9,0,524,262,10,8,0,,610636,0
14652,1970,527.7631747148345,265.4409541594804,37,5530.01983723296,5456.01983723296,2.1120695472490394,8,0,525,261,6,8,1,,610636,0
14653,1564,528.0932456321831,265.6605433286011,24,3564.928789420143,3516.928789420143,2.0377501425476483,1,0,526,263,8,6,0,,610636,0
14654,1549,527.7910674876445,264.94980545054153,39,5349.632248219736,5271.632248219736,2.7815924069327824,6,0,525,259,9,10,0,,610636,0
14655,1610,528.1855650616069,265.92355935436206,26,3565.456256358088,3513.456256358088,2.06023846087366,1,0,526,263,8,6,0,,610636,0
14656,1972,527.5522361395177,265.6893727847478,27,4190.980671414039,4136.980671414039,1.798270130602721,5,0,525,263,6,6,1,,610636,0
14657,1930,527.5112166023627,265.12711200369233,33,5395.69481180061,5329.69481180061,1.995663118523684,9,0,525,262,6,7,1,,610636,0
14658,1907,527.8499049048311,265.33529545536425,33,5831.016785350967,5765.016785350967,2.191098966710604,7,0,525,262,7,7,1,,610636,0
14659,1590,527.6257834127828,265.1472125951327,45,6958.072227873856,6868.072227873856,2.3331890619101867,12,0,524,261,8,8,0,,610636,0
14660,1555,527.4821233802204,265.9524592960141,41,6333.90946083418,6251.90946083418,2.2396214674454344,8,0,524,262,8,8,0,,610636,0
14661,1592,527.2320759794507,265.4155863973351,41,6456.636826042726,6374.636826042726,2.314816405670813,6,0,524,262,8,8,0,,610636,0
14662,1937,527.5417641842877,264.8620013168842,40,6096.575788402848,6016.575788402848,2.328831868796448,8,0,524,261,8,8,1,,610636,0
14663,1589,527.4285598421505,265.5058898106461,30,4665.971515768057,4605.971515768057,2.0602899241568475,7,0,524,263,8,5,0,,610636,0
14664,1578,527.7168625422293,265.48665440904,37,5895.527466937945,5821.527466937945,2.168154622222295,7,0,525,262,7,7,0,,610636,0
14665,1559,527.8303661412176,264.83153488884824,32,5287.763479145473,5223.763479145473,2.07915219256753,6,0,525,262,7,6,0,,610636,0
14666,1584,527.7675679997639,265.3635334707652,36,5031.99491353001,4959.99491353001,2.121567552021696,6,0,525,261,7,8,0,,610636,0
14667,1595,528.0125339968257,265.53202198961804,27,4286.125127161749,4232.125127161749,1.874831212813148,4,0,526,263,6,6,0,,610636,0
14668,1623,528.2717130319679,265.2531518220347,29,4707.993896236012,4649.993896236012,1.9154139377275388,5,0,526,263,6,6,0,,610636,0
14669,1555,527.6712169475445,265.07990435802145,41,6121.7197355035605,6039.7197355035605,2.2640760488703195,8,0,524,261,8,8,0,,610636,0
14670,1588,527.8665055869612,265.5054688789946,28,4531.56002034588,4475.56002034588,1.9615435220898576,5,0,525,263,7,6,0,,610636,0
14671,1562,527.7263772235552,265.6956405875106,33,4878.663784333672,4812.663784333672,2.069002206991925,8,0,524,263,8,6,0,,610636,0
14672,1587,527.7065672409863,266.0569800580248,28,4161.233468972533,4105.233468972533,2.0007701437486287,6,0,524,264,9,5,0,,610636,0
