frame,label,x,y,area,raw_lum,lum,gyrad,n_sat,n_255,bx,by,bw,bh,tier,ws_neighbor,particle,match_frame
14889,1534,441.0708234819061,273.09905993032714,20,2872.019328585962,2832.019328585962,1.957517195564452,2,0,438,270,6,6,0,,610688,0
14890,1521,440.4091020360206,273.10387145191777,25,3476.277212614446,3426.277212614446,1.995774986517869,4,0,438,270,6,6,0,,610688,0
14891,1511,441.35414647891,273.45555539161006,25,3585.154628687691,3535.154628687691,2.127588008368213,2,0,438,270,7,7,0,,610688,0
14892,1522,441.9998579987704,274.08046287820173,23,3553.334181078332,3507.334181078332,1.6815289412459649,6,0,440,272,6,5,0,,610688,0
14893,1532,441.1640127340237,273.53507726115816,29,4527.884537131231,4469.884537131231,2.1042345944395247,7,0,438,270,7,7,0,,610688,0
14894,1519,441.67251002778136,274.1004947352752,35,5238.371820956256,5168.371820956256,2.374359904864092,8,0,438,270,8,8,0,,610688,0
14895,1499,441.3634827750509,273.5162806461244,26,3882.57527975585,3830.57527975585,2.0705138816154967,3,0,438,270,7,7,0,,610688,0
14896,1496,441.74372728321134,274.0521090361566,19,2985.9526958290944,2947.9526958290944,1.5113094668506044,2,0,440,272,5,5,0,,610688,0
14897,1475,441.2804023443812,273.6963290631812,29,4548.873346897253,4490.873346897253,2.141630064381977,7,0,438,270,7,7,0,,610688,0
14898,1528,441.5269636402493,273.64559128263846,27,4019.947609359105,3965.947609359105,1.9804915414544613,4,0,438,270,7,7,0,,610688,0
14899,1518,441.4037903761899,273.45603509881494,25,3590.154628687691,3540.154628687691,1.9883881945276003,3,0,438,270,7,7,0,,610688,0
14900,1506,441.3355633781933,273.854281208532,22,3258.92472024415,3214.92472024415,1.738612788306675,2,0,438,271,6,6,0,,610688,0
14901,1860,441.53560396149726,273.7342387839598,18,3036.6561546286875,3000.6561546286875,1.5055508158881974,3,0,440,272,4,5,1,,610688,0
14902,1516,441.360842001297,273.2702615339093,34,5244.686164801628,5176.686164801628,2.1554313333703727,8,0,438,270,7,7,0,,610688,0
14903,1515,441.61439124047433,273.85117277692103,22,3761.125635808749,3717.125635808749,1.6563944785404592,4,0,440,272,5,5,0,,610688,0
14904,1923,441.51933736464406,273.5969408226677,16,2801.5696846388605,2769.5696846388605,1.4566146926695398,1,0,440,272,4,4,1,,610688,0
14905,1889,441.616617021297,273.2861801324325,17,2645.928280773144,2611.928280773144,1.4765235769015506,0,0,440,271,4,5,1,,610688,0
14906,1901,441.5369586796771,272.7556622093724,15,2111.139369277721,2081.139369277721,1.3827094833837548,0,0,440,271,4,4,1,,610688,0
14907,1516,441.45221583173736,273.23313659175403,28,4317.113428280773,4261.113428280773,2.130059604429897,4,0,438,270,7,7,0,,610688,0
14908,1898,441.5405084183013,273.65497242450687,16,2423.569684638861,2391.569684638861,1.4260125039039595,0,0,440,272,4,4,1,,610688,0
14909,1874,441.6572970647644,273.6734644457622,16,2499.5696846388605,2467.5696846388605,1.4291761972044177,1,0,440,272,4,4,1,,610688,0
14910,1506,441.6110439861925,274.185081140202,18,2771.7243133265515,2735.7243133265515,1.4793088839180797,2,0,440,272,4,5,0,,610688,0
14911,1879,441.59099148322775,273.76089988087523,18,2902.6561546286875,2866.6561546286875,1.5006903368783064,2,0,440,272,4,5,1,,610688,0
14912,1517,441.4788917192654,273.4098455132617,26,3821.6332655137335,3769.6332655137335,1.9599453482852789,3,0,438,270,7,7,0,,610688,0
14913,1525,441.3825072970813,273.43206247931533,26,4000.57527975585,3948.57527975585,2.163949616689425,3,0,438,270,7,7,0,,610688,0
14914,1540,441.93155218397794,273.6188426568159,14,1880.6271617497453,1852.6271617497453,1.3138807992825974,0,0,440,272,4,4,0,,610688,0
14915,1499,441.845309837836,273.7725953089184,23,3734.42980671414,3688.42980671414,1.6667086374821054,5,0,440,272,6,5,0,,610688,0
14916,1527,441.54118545553536,273.7055560876674,19,3027.024415055951,2989.024415055951,1.5538603145145584,0,0,440,272,4,5,0,,610688,0
14917,1553,441.4513060734294,273.9056536371442,26,4201.807222787385,4149.807222787385,1.7497734482239513,7,0,439,272,6,5,0,,610688,0
14918,1538,441.2360463679954,274.2294992135386,34,5258.432858596134,5190.432858596134,1.9818336624869144,9,0,438,271,7,7,0,,610688,0
14919,1532,441.1991097337777,274.18545463746983,21,2995.092065106816,2953.092065106816,1.548507673433283,2,0,439,272,5,5,0,,610688,1
14920,1493,441.4084492515482,274.4255200450022,16,2520.054425228891,2488.054425228891,1.4158277043945549,2,0,440,273,4,4,0,,610688,0
14921,1502,441.3117459569162,274.4282592798438,17,2550.6363173957275,2516.6363173957275,1.455029982498078,1,0,439,273,5,4,0,,610688,0
14922,1522,440.8907695584936,274.4337593749914,15,1838.5910478128185,1808.5910478128185,1.2977509085366798,2,0,439,273,5,4,0,,610688,0
14923,1473,440.7561108779801,274.351523343009,11,1404.8418107833168,1382.8418107833168,1.098269303646672,1,0,440,273,3,4,0,,610688,0
14924,592,440.6779969285215,274.36413364035946,5,557.0895218718209,547.0895218718209,0.8122520280370154,0,0,440,274,3,2,0,,610688,0
14925,572,440.5107813775385,274.4675163123743,4,506.62410986775177,498.62410986775177,0.7062779707286712,0,0,440,274,2,2,0,,610688,0
14926,602,440.4927617806933,274.46447186893886,4,350.62410986775177,342.62410986775177,0.7061765785443251,0,0,440,274,2,2,0,,610688,0
14927,569,440.4800602991541,274.0,2,173.76907426246186,169.76907426246186,0.4996022501252113,0,0,440,274,2,1,0,,610688,0
14928,558,440.3263371728104,274.00822462354466,4,359.81078331637843,351.81078331637843,0.7249867157560728,0,0,440,273,2,3,0,,610688,0
14929,1508,440.4846011942787,273.94923774050693,6,751.6337741607324,739.6337741607324,0.8473370687894511,0,0,440,273,2,3,0,,610688,0
14930,1502,440.0902354018694,273.73446790443205,15,2096.4776195320446,2066.4776195320446,1.3460775842553458,1,0,438,272,5,4,0,,610688,0
14931,1487,440.0041166043599,272.8846116456385,31,4248.60528992879,4186.60528992879,2.3431186010340803,4,0,437,269,7,8,0,,610688,0
14932,1527,440.4327439217383,273.06470820833323,23,3506.609359104782,3460.609359104782,1.6877372716066288,6,0,438,271,6,5,0,,610688,0
14933,1479,440.4893546136474,273.30433689804573,22,3015.3143438453712,2971.3143438453712,1.571072296034499,4,0,438,271,6,5,0,,610688,0
14934,1506,440.4518239657887,273.57689994746835,20,2822.5,2782.5,1.5259026380954197,4,0,438,272,6,4,0,,610688,0
14935,1468,440.5031532642337,273.58825773060744,24,3399.24516785351,3351.24516785351,1.663660681981712,5,0,438,271,6,6,0,,610688,0
14936,1469,440.19785582124337,273.4314366314112,9,1093.0254323499491,1075.0254323499491,1.013205693195164,0,0,439,272,3,4,0,,610688,0
14937,1483,439.940764046886,273.2981965610121,10,1106.4257375381485,1086.4257375381485,1.151482220589258,0,0,438,272,4,3,0,,610688,0
14938,569,439.5649264530492,274.0,2,159.93133265513734,155.93133265513734,0.4957666343093773,0,0,439,274,2,1,0,,610688,0
14939,600,439.0293072669374,274.0,3,204.29348931841304,198.29348931841304,0.7617248116066248,0,0,438,274,3,1,0,,610688,0
14940,574,439.9907930814913,274.25761178901405,4,234.85147507629705,226.85147507629705,0.7989122397787938,0,0,439,274,3,2,0,,610688,0
14941,577,439.9778615632234,274.49547259095584,6,458.5498474059003,446.5498474059003,0.9080544935600984,0,0,439,274,3,2,0,,610688,0
14942,584,440.4987623921701,274.45293169692127,4,434.62410986775177,426.62410986775177,0.7055374144382045,0,0,440,274,2,2,0,,610688,0
14943,1481,440.382340396099,274.15089776794065,7,794.2156663275687,780.2156663275687,0.9036219829466277,0,0,439,273,3,3,0,,610688,0
14944,1507,440.78041209534086,274.0616020185617,11,1408.8977619532045,1386.8977619532045,1.1484327507415892,1,0,439,273,5,3,0,,610688,0
14945,1490,440.5932342389641,274.06979380918415,7,929.0991861648016,915.0991861648016,0.9241313955539936,0,0,440,273,3,3,0,,610688,0
14946,1527,440.3058971382808,275.00166597673723,7,751.9898270600203,737.9898270600203,0.9190295307989278,0,0,439,274,3,3,0,,610688,0
14947,589,440.4890575274501,274.5325727498081,4,277.62410986775177,269.62410986775177,0.7062713913676769,0,0,440,274,2,2,0,,610688,0
14948,1503,440.2399910278318,274.8170527874621,8,843.5717192268565,827.5717192268565,0.9725247175032068,0,0,439,274,3,3,0,,610688,0
14949,1476,439.9381307193473,274.9918284872357,11,1268.705493387589,1246.705493387589,1.199358166064824,0,0,438,274,4,3,0,,610688,0
