frame,label,x,y,area,raw_lum,lum,gyrad,n_sat,n_255,bx,by,bw,bh,tier,ws_neighbor,particle,match_frame
17033,1105,484.5081358022914,229.9862070607359,16,1837.4506612410987,1805.4506612410987,1.328907535134512,0,0,483,228,4,5,0,,731429,0
17034,301,483.7930788242576,230.4155895466804,12,1042.799084435402,1018.799084435402,1.3234762174124877,0,0,482,229,4,4,0,,731429,0
17035,1096,484.47908733747647,230.00078778755093,18,2102.285859613428,2066.285859613428,1.4379173630027609,2,0,482,228,6,5,0,,731429,0
17036,1077,483.8473227698125,230.0919468310733,15,1963.2238046795528,1933.2238046795528,1.4002388330064357,0,0,482,229,5,4,0,,731429,0
17037,1099,484.5791158535896,230.94584296558105,17,2247.364191251272,2213.364191251272,1.3936305312112685,1,0,483,229,5,5,0,,731429,0
17038,1062,484.39000157522287,230.491349409134,32,5169.70549338759,5105.70549338759,1.997198090760497,8,0,482,228,6,6,0,,731429,0
17039,1072,483.7624896159657,230.4738632871685,22,3292.307731434385,3248.307731434385,1.6851019486734249,1,0,481,228,6,6,0,,731429,0
17040,1085,483.7477574721471,230.1298847253952,22,3410.274160732452,3366.274160732452,1.6427778143070697,2,0,482,228,5,5,0,,731429,0
17041,1069,484.1355037586271,230.3939000577193,31,4739.317395727365,4677.317395727365,1.905425120479144,7,0,482,228,6,6,0,,731429,0
17042,1083,483.6838100941504,230.25853080972527,26,3969.917090539166,3917.917090539166,1.7273038313226945,6,0,481,228,6,6,0,,731429,1
17043,1090,483.5890884398781,230.46226391263573,18,2879.444048830112,2843.444048830112,1.5275132439922838,0,0,482,228,4,6,0,,731429,0
17044,1085,483.7458914478556,229.90134880819969,25,3764.4476093591047,3714.4476093591047,1.7150317576856078,4,0,481,228,7,5,0,,731429,0
17045,1082,483.99816027487816,230.0991199603505,25,3812.657680569684,3762.657680569684,1.7262120822652525,5,0,482,228,6,5,0,,731429,0
17046,1064,483.4839192755237,229.7210386699764,18,2280.442014242116,2244.442014242116,1.504885263095573,0,0,482,228,4,5,0,,731429,0
17047,1078,483.7323468522707,229.95201408858003,20,2877.5930824008137,2837.5930824008137,1.5564051544785296,1,0,482,228,5,5,0,,731429,0
17048,1067,483.6142520747932,229.83024495835383,28,4467.468972533063,4411.468972533063,1.8207706550039,5,0,481,227,7,6,0,,731429,0
17049,1074,483.4814547089778,229.4668403160743,16,2031.4704984740592,1999.4704984740592,1.4158234619403192,0,0,482,228,4,4,0,,731429,0
17050,1036,484.0039793434573,229.45073995513928,26,3838.48982706002,3786.48982706002,1.7770685300240971,5,0,482,227,6,6,0,,731429,0
17051,1055,483.661519518126,229.9256029402207,21,3020.9287894201425,2978.9287894201425,1.5702119055627086,1,0,482,228,5,5,0,,731429,0
17052,1062,483.4534846401168,229.7342922738075,25,4033.3596134282807,3983.3596134282807,1.7170217197811242,5,0,481,227,6,6,0,,731429,0
17053,1084,483.72104741357794,230.0059916521001,23,3443.5839267548326,3397.5839267548326,1.6490487354379797,1,0,482,228,5,5,0,,731429,0
17054,1097,483.638684393187,229.81187225989405,16,2143.4511698880974,2111.4511698880974,1.4127845751703725,0,0,482,228,4,5,0,,731429,0
17055,1075,483.60208934559824,229.7529458088776,16,2162.4511698880974,2130.4511698880974,1.4210074399447377,0,0,482,228,4,5,0,,731429,0
17056,1043,483.7048102742221,230.02109012985844,23,3633.583926754832,3587.583926754832,1.6524806120528932,5,0,482,228,5,5,0,,731429,0
17057,1058,483.7967832599475,229.641194752778,11,1358.040691759919,1336.040691759919,1.2328005236955006,0,0,482,228,4,4,0,,731429,0
17058,1059,483.6153445444471,230.2351699213117,30,5077.465412004069,5017.465412004069,1.90958882466339,7,0,481,227,6,7,0,,731429,0
17059,1051,483.4533726559017,230.3283459900649,17,2598.9491353001017,2564.9491353001017,1.4757519735288278,1,0,482,228,4,5,0,,731429,0
17060,1036,483.4756358235702,230.2261605441701,19,3026.849440488301,2988.849440488301,1.547640442673148,2,0,482,228,4,5,0,,731429,0
17061,1063,483.36121750546334,230.5966145526484,16,2132.489318413021,2100.489318413021,1.4175897854646062,0,0,482,229,4,4,0,,731429,0
17062,1093,483.5143554093731,229.9466070272773,17,2385.877924720244,2351.877924720244,1.460330667826133,0,0,482,228,4,5,0,,731429,0
17063,1079,483.5046306519031,230.0843480492788,21,3148.938453713123,3106.938453713123,1.586626243133464,2,0,482,228,5,5,0,,731429,0
17064,1101,483.37017296277617,230.19559624117065,16,2195.3870803662257,2163.3870803662257,1.4326154312337331,0,0,482,228,4,5,0,,731429,0
17065,1044,483.2346070752173,230.2380340202407,25,4053.508138351984,4003.508138351984,1.7246694746676683,6,0,481,228,5,6,0,,731429,0
17066,1067,483.7067547896927,230.6122108680257,15,1904.0707019328584,1874.0707019328584,1.376376054960306,0,0,482,229,4,4,0,,731429,0
17067,1065,483.1796421117133,230.1599039216437,15,2125.0457782299086,2095.0457782299086,1.4287617823563152,1,0,481,229,5,4,0,,731429,0
17068,1070,483.2437354693,230.3397232440693,18,2910.446083418108,2874.446083418108,1.5296808853946566,2,0,481,229,5,4,0,,731429,0
17069,1081,482.8571335615981,230.0869171292005,21,2782.874364191251,2740.874364191251,1.6133857112277905,1,0,480,228,6,5,0,,731429,0
17070,1078,482.70958226717926,230.15700333362096,24,3466.028484231943,3418.028484231943,1.7311461047251988,3,0,480,228,6,5,0,,731429,0
17071,1106,482.2725605292854,230.0183976629761,22,2694.1256358087485,2650.1256358087485,1.5858806151841909,1,0,480,228,6,5,0,,731429,0
17072,1083,482.0836233617986,229.81985789482115,17,2223.5045778229905,2189.5045778229905,1.4121737012260782,1,0,480,228,5,5,0,,731429,0
