frame,label,x,y,area,raw_lum,lum,gyrad,n_sat,n_255,bx,by,bw,bh,tier,ws_neighbor,particle,match_frame
17725,971,504.3273816281214,229.7344852706973,7,784.0890132248219,770.0890132248219,0.9917244822519878,1,0,503,228,3,4,0,,776223,0
17726,320,504.42696151392727,230.33740372134648,5,641.1007121057985,631.1007121057985,0.821944698388586,0,0,504,229,2,3,0,,776223,0
17727,1006,504.51721420093605,230.88054924267968,6,603.4018311291964,591.4018311291964,0.8359682369814546,0,0,504,230,2,3,0,,776223,0
17728,1015,504.5078722225936,230.96613784147652,6,1065.4018311291964,1053.4018311291964,0.8956658793843132,1,0,504,230,2,3,0,,776223,0
17729,999,504.3709129391489,231.06413154576012,10,1617.3601220752798,1597.3601220752798,1.1151368688099086,2,0,503,230,4,4,0,,776223,0
17730,988,504.18865223052967,231.32998425411344,18,2464.7558494404884,2428.7558494404884,1.4519213712535106,3,0,502,229,5,5,0,,776223,0
17731,1010,503.8960773871792,231.24315721610907,15,2412.6744659206515,2382.6744659206515,1.4345646884221137,2,0,502,229,4,5,0,,776223,0
17732,995,504.1327407780645,231.746621023023,8,1102.351983723296,1086.351983723296,1.0173977272580448,0,0,503,231,3,3,0,,776223,0
17733,964,504.15684294468457,231.97425881251976,9,1319.6943031536114,1301.6943031536114,1.045523760212716,1,0,503,231,3,3,0,,776223,0
17734,299,504.42808871338775,233.0,2,166.93947100712106,162.93947100712106,0.4948017450027546,0,0,504,233,2,1,0,,776223,0
17735,980,503.8008558713867,233.40153092733777,13,1745.230417090539,1719.230417090539,1.2595526111253377,2,0,502,232,4,4,0,,776223,0
17736,1002,503.89609725684346,234.0358349381081,14,2206.823499491353,2178.823499491353,1.349647906948806,2,0,502,233,5,3,0,,776223,0
17737,996,504.3086211002239,234.8410043646488,7,954.79501525941,940.79501525941,0.9391457878407916,0,0,503,234,3,3,0,,776223,0
17738,996,504.3559980655676,235.79784981943465,7,1017.0666327568669,1003.0666327568669,0.9012414632284844,1,0,503,235,3,3,0,,776223,0
17739,988,504.4357118868136,235.8471724148341,6,808.7558494404882,796.7558494404882,0.8452543190099675,1,0,504,235,2,3,0,,776223,0
17740,333,504.4489543726236,236.55611080934275,4,412.0244150559512,404.0244150559512,0.703026259111741,0,0,504,236,2,2,0,,776223,0
17741,1028,504.14348413864576,236.905251693048,9,1117.0839267548322,1099.0839267548322,1.0451084370161114,0,0,503,236,3,3,0,,776223,0
17742,978,504.3243098627499,236.72131333170907,9,1096.0452695829094,1078.0452695829094,1.131213945691865,0,0,503,235,3,4,0,,776223,0
17743,965,503.9985369766042,237.5400510855404,13,1860.7212614445573,1834.7212614445573,1.2579091464982304,2,0,502,236,4,4,0,,776223,0
17744,1001,503.7012618364921,237.2288878490172,14,2088.1012207527974,2060.1012207527974,1.3537534043036203,1,0,502,236,4,4,0,,776223,0
17745,1007,503.87113232035415,237.259974784811,15,2055.551881993896,2025.551881993896,1.3470141467140322,2,0,502,236,5,4,0,,776223,0
17746,286,503.5911859643276,236.82819135853407,11,1269.7772126144455,1247.7772126144455,1.2195541402644992,0,0,502,236,4,3,0,,776223,0
17747,1014,503.6878437954428,236.73474593234675,15,2073.525940996948,2043.525940996948,1.3812063560631165,0,0,502,235,4,4,0,,776223,0
17748,1031,503.6866124054706,236.7427413074489,10,1176.3179043743644,1156.3179043743644,1.1821773882036375,0,0,502,236,4,3,0,,776223,0
17749,1008,503.7676260138858,236.7689414779513,14,2069.056968463886,2041.0569684638856,1.3238413198691426,2,0,502,235,4,4,0,,776223,0
17750,321,503.7920072886424,236.5202303072589,7,882.0981688708036,868.0981688708036,1.0257915058487228,0,0,502,236,4,2,0,,776223,0
17751,1009,503.39031224123926,236.27206898427872,14,1879.09003051882,1851.09003051882,1.3417374619036506,0,0,502,235,4,4,0,,776223,0
17752,329,503.3733876510691,236.43026776881044,7,811.8214649033571,797.8214649033571,1.016667366611875,0,0,502,236,4,2,0,,776223,0
17753,316,503.5621049600808,236.30188268013097,6,632.4450661241099,620.4450661241099,0.9661607366001216,0,0,502,236,4,2,0,,776223,0
17754,1043,503.13980537210335,236.4356558514128,7,980.8214649033572,966.8214649033572,1.054796517112147,0,0,502,236,4,2,0,,776223,0
17755,325,503.509765728041,236.4412116723234,8,983.4150559511698,967.4150559511698,1.1199845846395198,0,0,502,236,4,2,0,,776223,1
17756,1000,502.937155395898,236.1905875762813,8,1064.2197355035603,1048.2197355035603,1.0777122607905898,0,0,502,235,4,3,0,,776223,0
17757,1001,502.8503578157958,236.194390454911,9,1301.6978636826043,1283.6978636826043,1.018670521712847,2,0,502,235,3,3,0,,776223,0
17758,1006,502.6225351655337,236.45655892519125,9,1221.8407934893185,1203.8407934893185,1.0476940275560327,1,0,502,235,3,4,0,,776223,0
17759,1042,502.8594092853332,236.00867945145868,9,1271.6978636826043,1253.6978636826043,1.0692267350661475,0,0,502,235,3,3,0,,776223,0
17760,326,503.0370165201527,235.56347280114977,12,1326.8112919633772,1302.8112919633772,1.2657464741103874,0,0,502,234,3,4,0,,776223,0
17761,1028,503.20596413419247,235.4141360840021,14,1828.5635808748727,1800.5635808748727,1.4218941026393142,0,0,502,234,4,4,0,,776223,0
17762,1026,503.31272726019927,235.4947679706587,15,2066.9501525941,2036.9501525941,1.420707376656701,0,0,502,234,4,4,0,,776223,0
17763,987,503.349529792272,235.7021246827599,14,1770.499491353001,1742.499491353001,1.3751439363940765,0,0,502,234,4,4,0,,776223,0
17764,1013,503.108631130134,235.92926947954743,11,1673.4888097660223,1651.4888097660223,1.20960184291203,1,0,502,235,4,3,0,,776223,0
17765,1025,502.9671142396577,235.58503432554448,11,1586.2273652085453,1564.2273652085453,1.2081209431432944,1,0,502,234,4,4,0,,776223,0
17766,987,503.029939982347,235.69286838315256,10,1196.9181078331635,1176.9181078331635,1.1651233705301525,0,0,502,234,4,4,0,,776223,0
17767,314,502.5076280924999,235.30885067262983,4,458.56358087487286,450.56358087487286,0.6807376490622078,0,0,502,235,2,2,0,,776223,0
17768,321,502.8489720478464,235.0,3,292.26297049847403,286.26297049847403,0.7119199423382028,0,0,502,235,3,1,0,,776223,0
17769,1001,502.7199796621892,234.70945043172503,6,841.3336724313326,829.3336724313326,0.8461156599001195,0,0,502,234,3,3,0,,776223,0
17770,1007,502.5857898258374,234.8211027507037,9,1355.447100712106,1337.447100712106,1.040511524072436,2,0,501,234,4,3,0,,776223,0
17771,991,502.7105944072458,234.646068832221,5,700.0228891149542,690.0228891149542,0.8286547343965391,0,0,502,234,3,2,0,,776223,0
17772,987,502.5600989035148,234.793984183761,12,1686.6525940996949,1662.6525940996949,1.3016048281257389,2,0,500,234,6,3,0,,776223,0
17773,980,502.7491555790676,234.68934505586247,10,1476.8407934893185,1456.8407934893185,1.220571027123183,2,0,501,234,5,3,0,,776223,0
17774,971,502.5525665084417,234.6152914194982,13,1918.216174974568,1892.216174974568,1.2698198942314811,3,0,501,233,4,4,0,,776223,0
17775,972,502.5434943063129,233.8831106921338,6,949.6337741607324,937.6337741607324,0.914109800536129,0,0,502,233,2,3,0,,776223,0
17776,1001,502.48265049012326,234.4265052246487,13,1887.28026449644,1861.28026449644,1.413679283644029,0,0,501,233,4,4,0,,776223,0
17777,980,502.40574752440966,234.52126641737644,12,1762.889114954222,1738.889114954222,1.3220133714361586,1,0,501,233,4,4,0,,776223,0
17778,967,502.30048833788896,235.098033417755,12,1783.8240081383522,1759.8240081383522,1.2588773190382874,2,0,501,233,3,5,0,,776223,0
17779,966,502.33170815100107,234.62501492202395,13,1913.1327568667343,1887.1327568667343,1.2580861030098422,3,0,501,233,4,4,0,,776223,0
17780,996,502.56334027935134,234.35439564717612,11,1600.532553407935,1578.532553407935,1.2287522069451,1,0,501,233,4,4,0,,776223,0
17781,1012,502.3127034756348,234.8478939493573,11,1511.437436419125,1489.437436419125,1.2248296044964526,0,0,501,233,3,5,0,,776223,0
17782,956,502.4133936281838,235.5409135226988,9,1369.443031536114,1351.443031536114,1.0855967281954635,1,0,501,234,3,4,0,,776223,0
17783,968,502.493459297273,234.7988715288986,8,1024.261444557477,1008.261444557477,1.1978788460847196,0,0,502,233,2,4,0,,776223,0
17784,1013,502.3890796730684,235.05802426562093,11,1594.467446592065,1572.467446592065,1.2729576100253728,2,0,501,233,3,5,0,,776223,0
17785,998,502.36268230335446,235.0764806808177,11,1567.380976602238,1545.380976602238,1.2715951609070035,2,0,501,233,3,5,0,,776223,0
