frame,label,x,y,area,raw_lum,lum,gyrad,n_sat,n_255,bx,by,bw,bh,tier,ws_neighbor,particle,match_frame
18134,973,527.8208913803945,279.4198396167895,22,3575.934384537132,3531.934384537132,1.6726746436541562,3,0,526,277,5,5,0,,795347,0
18135,990,527.8223023333721,279.14645779138056,17,2587.2553407934893,2553.2553407934893,1.4784559191723825,2,0,526,277,4,5,0,,795347,0
18136,971,527.755793229124,279.5502857685749,27,3967.188708036623,3913.188708036623,1.83923155327247,4,0,526,277,6,6,0,,795347,0
18137,1010,527.4997507086317,279.9674846024585,15,2242.3682604272635,2212.3682604272635,1.395283182180819,0,0,526,278,4,5,0,,795347,0
18138,988,528.0558826698696,279.5610358283433,24,3672.450661241098,3624.450661241098,1.7330215468161752,5,0,526,277,6,6,0,,795347,0
18139,982,527.6512308688817,279.2405106181224,14,2124.168362156663,2096.168362156663,1.3609221771303834,0,0,526,278,4,4,0,,795347,0
18140,964,527.7050886281104,279.6097883263064,17,2773.083418107833,2739.083418107833,1.4733632456287569,2,0,526,278,4,5,0,,795347,0
18141,1010,528.0443840432958,279.2414218992887,28,4175.579348931842,4119.579348931842,1.8620905130958143,5,0,525,277,7,6,0,,795347,0
18142,966,527.96733917226,279.28362417730057,24,3883.560020345879,3835.560020345879,1.6974960034967694,6,0,526,277,6,5,0,,795347,0
18143,1012,527.6432546328505,278.96962590704334,22,3562.812309257375,3518.812309257375,1.6302749465837956,5,0,526,277,5,5,0,,795347,0
18144,1005,528.1101906555467,279.4177570316908,26,4191.006612410987,4139.006612410987,1.783415514503601,6,0,526,277,6,6,0,,795347,0
18145,998,528.2808219067174,279.1696850447889,32,5025.953204476094,4961.953204476094,1.9625166842954056,7,0,525,277,7,6,0,,795347,0
18146,970,528.3383541129904,279.4004890611629,25,3769.549338758901,3719.549338758901,1.779078797648758,3,0,526,277,6,6,0,,795347,0
18147,996,528.4411183262489,279.374552883296,26,3992.1780264496433,3940.1780264496433,1.8056538464863912,5,0,526,277,6,5,0,,795347,0
18148,984,528.5247552692306,279.27428007204765,25,3615.782299084436,3565.782299084436,1.7296336386259066,6,0,526,277,6,6,0,,795347,0
18149,1020,528.314005595283,279.6674742109806,19,2743.918616480163,2705.918616480163,1.5773244915978548,4,0,526,278,6,4,0,,795347,0
18150,981,528.408651732285,279.61557222416826,22,3140.8336724313326,3096.8336724313326,1.6863366036443532,4,0,526,278,6,4,0,,795347,0
18151,1006,528.2078903966543,279.3844587913769,25,3557.7843336724304,3507.7843336724304,1.7447213299368776,4,0,526,277,6,5,0,,795347,0
18152,994,528.5569584537583,279.2506183257594,23,3333.2553407934893,3287.2553407934893,1.6488143497120131,5,0,526,277,6,5,0,,795347,0
18153,974,529.0708128277929,279.1549542790703,29,4766.243641912512,4708.243641912512,1.8907972173391283,8,0,526,277,7,6,0,,795347,0
18154,972,528.4042003455642,279.2397813223929,28,4433.753306205493,4377.753306205493,1.8876512847977909,6,0,526,277,6,5,0,,795347,0
18155,994,528.7203171023566,279.71050715496403,29,4876.81536113937,4818.81536113937,1.954225870847672,5,0,526,277,6,6,0,,795347,0
18156,991,528.6825235299648,279.3167319887922,33,5486.283825025432,5420.283825025432,2.034494553284392,8,0,526,277,6,6,0,,795347,0
18157,1004,528.6429859823743,279.7936045921855,33,5365.211597151577,5299.211597151577,2.024717048524109,7,0,526,277,6,7,0,,795347,0
18158,1006,528.868323679842,279.6798659891612,22,3417.679552390641,3373.679552390641,1.726415191420786,3,0,526,278,6,4,0,,795347,0
18159,994,528.7467231057648,279.64710510405524,22,3171.734486266532,3127.734486266532,1.6336080458996722,4,0,526,278,6,5,0,,795347,0
18160,970,529.2586041624062,279.96213724200635,24,3914.953204476094,3866.953204476094,1.7255181681465002,4,0,527,278,6,5,0,,795347,0
18161,999,528.6550409940072,279.7588941937471,23,3263.013224821974,3217.013224821974,1.6630107750576877,4,0,526,278,6,5,0,,795347,0
18162,978,528.9082548460574,279.6748020318231,26,4187.891149542218,4135.891149542218,1.816195124698725,6,0,526,278,7,5,0,,795347,0
18163,965,528.3824243179397,279.0406581388215,29,5172.173448626652,5114.173448626652,1.9626485415719737,7,0,526,277,6,5,0,,795347,0
18164,960,528.0472786063118,279.7108470575726,21,2889.410986775178,2847.410986775178,1.5510800979272488,4,0,526,278,5,5,0,,795347,1
18165,972,528.6101218688577,279.7419684364504,23,3359.013224821974,3313.013224821974,1.657473936355022,5,0,526,278,6,5,0,,795347,0
18166,1004,529.1035261115729,279.47175983173844,19,2530.575788402849,2492.575788402849,1.5147919093789926,3,0,526,278,6,4,0,,795347,0
18167,971,528.8810690237843,279.818693229814,23,3459.9216683621567,3413.9216683621567,1.6539543931179348,5,0,526,278,6,5,0,,795347,0
18168,981,528.7456226845168,279.75850231158927,24,3151.333163784333,3103.333163784333,1.7326530975500989,3,0,526,278,6,5,0,,795347,0
18169,969,528.782276182103,279.5910716744696,25,3697.4918616480168,3647.4918616480168,1.7553798258401718,5,0,526,277,6,6,0,,795347,0
18170,972,528.9237703171973,279.54545180021387,28,4042.542726347914,3986.542726347914,1.83750827012838,3,0,526,277,6,6,0,,795347,0
18171,966,529.060633874765,279.7123703084273,26,3993.844354018311,3941.844354018311,1.7817582075861078,4,0,526,277,6,6,0,,795347,0
18172,982,528.8694704720232,279.560179492924,26,3796.044760935911,3744.044760935911,1.732695125484046,5,0,526,277,6,6,0,,795347,0
18173,1012,529.3185112236803,279.9944358898406,22,3671.254323499491,3627.254323499491,1.6468954598711711,4,0,527,278,5,5,0,,795347,0
18174,968,528.5054113980665,279.5860877202086,25,3283.8733468972537,3233.8733468972537,1.6972400900367717,4,0,526,277,6,6,0,,795347,0
18175,995,528.6999639935191,279.45507190671515,28,4332.60986775178,4276.60986775178,1.8644784286291043,5,0,526,277,6,6,0,,795347,0
18176,975,528.1826368728441,278.9315032458378,26,4331.315869786367,4279.315869786367,1.81234342168672,6,0,526,277,6,5,0,,795347,0
18177,974,528.539935696956,278.9251224240353,33,5036.237029501526,4970.237029501526,2.004642604054033,8,0,526,276,6,7,0,,795347,0
18178,967,528.1692896162504,279.205278416957,23,3418.323499491353,3372.323499491353,1.7017928271318543,4,0,526,277,6,5,0,,795347,0
18179,968,528.212224141784,279.22532751464007,23,3102.3362156663275,3056.3362156663275,1.6459816484256722,4,0,526,277,6,5,0,,795347,0
18180,998,528.1292914152232,279.1972013093209,22,3096.8194303153605,3052.8194303153605,1.6083879528876557,4,0,526,277,6,5,0,,795347,0
18181,1018,527.8094873091418,279.4058229299793,23,3738.002034587996,3692.002034587996,1.6769543742144986,4,0,526,277,5,6,0,,795347,0
18182,983,528.0385590433717,278.5754057025046,24,3501.3616480162764,3453.3616480162764,1.66879708181903,4,0,526,276,6,6,0,,795347,0
18183,999,527.8242442270073,279.2047028711356,21,3387.489318413021,3345.489318413021,1.6361961135088217,3,0,526,277,5,5,0,,795347,0
18184,990,527.8007989071748,279.52762386779904,18,2701.426754832147,2665.426754832147,1.5048546825143048,2,0,526,278,5,5,0,,795347,0
18185,1006,527.9622016305739,279.2133485975924,22,3315.8351983723287,3271.8351983723287,1.6635111178685231,4,0,526,277,6,5,0,,795347,0
18186,975,527.787335231763,279.56529802282694,22,3332.6968463886064,3288.6968463886064,1.6934361593457496,3,0,526,277,5,6,0,,795347,0
18187,1023,527.6974891897202,279.35331872096936,22,3456.569175991862,3412.569175991862,1.6841957768607134,2,0,526,277,4,6,0,,795347,0
18188,967,527.7250254540492,278.9195809795411,21,2966.468972533062,2924.468972533062,1.5916122536257358,1,0,526,277,5,5,0,,795347,0
18189,987,528.1698980070354,278.78067808522485,27,4284.3997965412,4230.3997965412,1.829174063418272,6,0,526,276,6,6,0,,795347,0
18190,993,527.8793674538667,279.06374016492214,24,3444.3947100712103,3396.3947100712103,1.6890195105555703,3,0,526,277,6,5,0,,795347,0
18191,991,528.0085278261761,279.5228619324453,18,2636.4532044760936,2600.4532044760936,1.4830367235009951,4,0,526,278,5,4,0,,795347,0
18192,1000,528.0280200270357,279.25136578208486,27,4052.507629704985,3998.507629704985,1.7772945504768418,5,0,526,277,6,6,0,,795347,0
18193,961,527.8171298231001,279.00829344104494,19,2823.8128179043742,2785.8128179043742,1.5024503043312083,4,0,526,277,5,5,0,,795347,0
18194,954,527.6340250598764,279.24102171626515,19,2556.7655137334687,2518.7655137334687,1.551061298612919,0,0,526,277,4,5,0,,795347,0
