frame,label,x,y,area,raw_lum,lum,gyrad,n_sat,n_255,bx,by,bw,bh,tier,ws_neighbor,particle,match_frame
1315,1508,458.68499858886827,415.71392195818726,56,9106.850966429298,8994.850966429298,2.678001554641875,16,0,454,412,10,8,0,,171213,0
1316,1537,459.5325886541472,411.098848265569,61,10725.122075279756,10603.122075279756,2.7905498481548383,20,0,455,407,11,9,0,,172513,0
1317,1524,458.9018898303306,406.6042083231095,52,7852.38453713123,7748.38453713123,2.5857036373006923,8,0,454,404,10,7,0,,173714,0
1318,1491,459.5505031347393,402.21061390992816,56,8889.081892166836,8777.081892166836,2.64977387156964,15,0,455,399,9,8,0,,174786,0
1319,1506,458.8694610967311,398.0852522973899,56,9159.903865717191,9047.903865717191,2.677007350409593,17,0,454,395,10,7,0,,175719,0
1320,1463,459.48684652679447,392.64625088777575,61,10320.178026449645,10198.178026449645,2.791026715239405,16,0,455,388,9,9,0,,171692,0
1321,1478,459.2876305480579,388.533945080564,51,8606.947609359106,8504.947609359106,2.601328016913499,13,0,456,383,8,10,0,,177657,0
1322,1472,458.7007226220685,384.38485743173175,49,8457.317904374366,8359.317904374366,2.4379099224626346,16,0,455,381,8,8,0,,178682,0
1323,1420,459.3399570343552,379.6038232152701,52,7764.84486266531,7660.84486266531,2.649374715234453,12,0,454,374,10,10,0,,169516,0
1324,1466,458.9895522913936,375.8087454211432,47,7059.377924720244,6965.377924720244,2.4853890768718045,9,0,455,373,9,7,0,,169516,0
1325,1422,458.9019295570157,371.4332592845584,49,7985.53509664293,7887.53509664293,2.556962006272274,14,0,454,368,10,7,0,,172507,0
1326,1434,459.637655895954,366.419412756296,55,9177.172939979651,9067.172939979651,2.658387892943208,17,0,456,361,8,10,0,,173727,0
1327,1442,459.5317649697377,362.0173796778419,60,9919.971007121056,9799.971007121056,2.8546790125614283,16,0,456,356,8,12,0,,183448,0
1328,1422,459.7840248513442,357.5212435314704,52,8144.625127161749,8040.625127161749,2.54671227878987,14,0,456,354,8,8,0,,184404,0
1329,1398,459.9459091618291,353.21085300268044,55,9359.618006103765,9249.618006103765,2.666589715036916,16,0,456,349,8,9,0,,176628,0
1332,1311,459.5550228560058,339.4164813825352,48,7827.099694811801,7731.099694811801,2.5083188762164643,12,0,456,336,8,8,0,,183919,0
1333,1325,459.8957891037576,335.3032741657402,42,6834.446592065107,6750.446592065107,2.3285657497852847,13,0,456,332,8,7,0,,179544,0
1334,1358,460.1629923219423,330.69076860404977,45,7047.205493387588,6957.205493387588,2.3871369339676027,6,0,456,327,8,8,0,,181481,0
1335,1298,460.1925015392839,326.0090536658845,51,8133.876907426246,8031.876907426246,2.6166843045243344,13,0,456,322,9,8,0,,187702,0
1336,1330,459.8314082121488,321.82531716725714,47,7479.502543234995,7385.502543234995,2.443202237721774,14,0,456,318,8,8,0,,191793,0
1337,1325,459.83003097165135,317.4819386646753,45,7450.944557477111,7360.944557477111,2.3466434802108047,14,0,456,314,8,8,0,,188135,0
1338,1322,459.9641688759173,313.08798660903835,46,7149.566632756867,7057.566632756867,2.406237226970653,12,0,456,310,8,8,0,,193638,0
1339,1313,459.56846153331327,308.68161764213767,46,7599.949135300101,7507.949135300101,2.433090331075104,13,0,456,306,8,7,0,,194616,0
1340,1318,460.4764678924533,303.542886784871,49,7930.2161749745665,7832.2161749745665,2.594847350030933,12,0,457,298,7,10,0,,195524,0
1341,1342,460.1057361039478,299.62933992531106,44,7343.307222787385,7255.307222787385,2.371640619038701,13,0,456,296,8,8,0,,195524,0
1342,1293,459.92628597281686,295.0077719620412,41,6646.606307222788,6564.606307222788,2.3629885665476427,9,0,456,292,8,7,0,,192337,0
1343,1273,460.3321793228193,290.0143248201801,59,9240.483214649032,9122.483214649032,2.938673892203154,16,0,456,284,9,11,0,,189982,0
1344,1286,460.30817665741336,285.546478468169,54,8595.356052899288,8487.356052899288,2.8334413199193,10,0,456,281,9,9,0,,190918,1
1346,1260,460.0156791151107,277.49942024689074,55,8661.209562563581,8551.209562563581,2.649882467064708,15,0,456,274,9,8,0,,197869,0
1347,1251,460.4098969637507,272.4088590556884,62,10050.833672431332,9926.833672431332,2.903848960087519,20,0,456,268,10,9,0,,202034,0
1348,1227,460.6618539317786,268.0290727739809,48,7625.897761953204,7529.897761953204,2.500435800665638,8,0,456,264,9,9,0,,193622,0
1349,1218,460.47854730212,263.465386983654,46,7411.418107833164,7319.418107833164,2.4246985524887386,12,0,457,260,8,8,0,,200656,0
1350,1226,461.04747208471895,258.7495004075454,45,7334.309766022379,7244.309766022379,2.467833259636536,8,0,458,253,8,10,0,,196483,0
1351,1207,460.2340024783774,254.19676390189252,47,7640.036113936928,7546.036113936928,2.5720077340614345,11,0,457,249,7,10,0,,205627,0
1352,1203,460.6243643310371,249.44456493106009,59,9731.739572736522,9613.739572736522,2.9479346051877453,17,0,456,246,10,8,0,,202492,0
1353,1186,460.6542143050722,244.79751352905257,58,9423.693285859612,9307.693285859612,3.008997053358689,12,0,456,240,10,9,0,,202502,0
1354,1188,460.6742667883565,240.4805970686835,44,6948.051373346898,6860.051373346898,2.3931339803499547,9,0,457,237,8,8,0,,202656,0
1355,1194,460.6294655956068,235.8002290234633,60,9978.231943031537,9858.231943031537,2.810318496328237,19,0,456,231,10,10,0,,205803,0
1357,1171,460.3850187716697,226.72266586380627,54,8604.365717192268,8496.365717192268,2.7906314429263506,14,0,456,223,10,8,0,,210737,0
1358,1156,460.6733508469201,222.1567841199632,54,8771.56510681587,8663.56510681587,2.588038309110418,17,0,456,218,10,8,0,,203535,0
1359,1156,460.4712532465613,218.01882163812243,54,8399.21464903357,8291.21464903357,2.6764158451468023,15,0,456,214,10,8,0,,208513,0
1360,1116,460.8906971594006,213.413945098333,60,9478.946592065107,9358.946592065107,2.710819444505258,13,0,456,209,10,9,0,,213446,0
1362,1125,461.2185815377157,203.69625627871787,45,7423.266531027468,7333.266531027468,2.4787174425037257,11,0,457,200,9,8,0,,215235,0
1364,1093,460.84663101105934,194.7227596282192,59,9453.497456765006,9335.497456765006,2.729544688937907,18,0,457,190,9,9,0,,208988,0
1365,1118,461.6144973084223,189.91548313965265,52,8276.731943031537,8172.731943031536,2.489893610812425,16,0,458,186,8,9,0,,213915,0
1366,1120,461.1739896861861,185.47512537627765,52,8203.991861648017,8099.991861648017,2.666709081129876,13,0,457,180,9,10,0,,214808,0
1367,1073,461.0331602612697,180.73867616340584,52,8307.968463886064,8203.968463886064,2.6050013896645576,13,0,457,176,9,9,0,,215716,0
1368,1063,461.1588823647894,176.45302483565985,52,8333.519837232961,8229.519837232961,2.671887366048744,13,0,457,171,9,10,0,,217332,0
1369,1060,461.3008092188392,172.00242629953937,54,9071.079348931842,8963.079348931842,2.778896323816803,11,0,457,168,9,9,0,,221358,0
1370,1061,461.0748193576279,167.64362787431003,66,10793.824008138352,10661.824008138352,3.01699976949064,18,0,456,163,10,10,0,,218216,0
1371,1075,460.98208619106464,163.16962134355515,67,10961.723804679552,10827.723804679552,2.93912594797486,20,0,456,158,11,10,0,,220003,0
1372,1062,461.4777141139953,158.4559616427476,59,10003.4003051882,9885.4003051882,2.954014691920989,16,0,457,154,10,9,0,,223858,0
1373,1039,461.5415629450659,154.31341098328576,45,6627.503051881993,6537.503051881993,2.365175969125493,10,0,458,151,8,8,0,,219995,0
1374,1089,461.4246737557313,150.4291549333846,53,8825.316887080366,8719.316887080366,2.6739056567236354,15,0,457,146,9,9,0,,219995,0
